%FSLAX45Y45*%
G04 Gerber Fmt 4.5, Leading zero omitted, Abs format (unit mm)*
G04 Created by KiCad (PCBNEW (5.1.9)-1) date 2021-02-06 18:19:19*
%MOMM*%
%LPD*%
G01*
G04 APERTURE LIST*
%TA.AperFunction,Profile*%
%ADD10C,0.150000*%
%TD*%
%ADD11C,0.200000*%
%ADD12C,0.300000*%
G04 APERTURE END LIST*
D10*
X11123000Y-4055200D02*
X8973000Y-4055200D01*
X13073000Y-4055200D02*
X11123000Y-4055200D01*
X13073000Y-3805200D02*
X13073000Y-4055200D01*
X14973000Y-3805200D02*
X13073000Y-3805200D01*
X14973000Y-3555200D02*
X14973000Y-3805200D01*
X16773000Y-3555200D02*
X14973000Y-3555200D01*
X16773000Y-3805200D02*
X16773000Y-3555200D01*
X18673000Y-3805200D02*
X16773000Y-3805200D01*
X18673000Y-4705200D02*
X18673000Y-3805200D01*
X22473000Y-4705200D02*
X18673000Y-4705200D01*
X22473000Y-12305200D02*
X22473000Y-4705200D01*
X18673000Y-13305200D02*
X22473000Y-12305200D01*
X13023000Y-13305200D02*
X18673000Y-13305200D01*
X11273000Y-14105200D02*
X13023000Y-13305200D01*
X9573000Y-15105200D02*
X11273000Y-14105200D01*
X8123000Y-12605200D02*
X9573000Y-15105200D01*
X8723000Y-12255200D02*
X8123000Y-12605200D01*
X8973000Y-4055200D02*
X8973000Y-9994000D01*
X8973000Y-9994000D02*
X8973000Y-10055200D01*
X8973000Y-10055200D02*
X8973000Y-12105200D01*
X8973000Y-12105200D02*
X8723000Y-12255200D01*
D11*
X9996123Y-4093097D02*
X10071123Y-4168097D01*
X10071123Y-4093097D02*
X9996123Y-4168097D01*
X9996123Y-4368097D02*
X10071123Y-4443097D01*
X10071123Y-4368097D02*
X9996123Y-4443097D01*
X9997715Y-4094569D02*
X10072715Y-4169569D01*
X10072715Y-4094569D02*
X9997715Y-4169569D01*
X9997715Y-4369569D02*
X10072715Y-4444569D01*
X10072715Y-4369569D02*
X9997715Y-4444569D01*
X9501000Y-12901059D02*
G75*
G03*
X9501000Y-12901059I-85000J0D01*
G01*
X10009000Y-13780941D02*
G75*
G03*
X10009000Y-13780941I-85000J0D01*
G01*
X11377383Y-13038491D02*
G75*
G03*
X11377383Y-13038491I-85000J0D01*
G01*
X11627000Y-5000000D02*
G75*
G03*
X11627000Y-5000000I-85000J0D01*
G01*
X11627000Y-6910000D02*
G75*
G03*
X11627000Y-6910000I-85000J0D01*
G01*
X11627000Y-8810000D02*
G75*
G03*
X11627000Y-8810000I-85000J0D01*
G01*
X11627000Y-10710000D02*
G75*
G03*
X11627000Y-10710000I-85000J0D01*
G01*
X12312616Y-12641509D02*
G75*
G03*
X12312616Y-12641509I-85000J0D01*
G01*
X12643000Y-5000000D02*
G75*
G03*
X12643000Y-5000000I-85000J0D01*
G01*
X12643000Y-6910000D02*
G75*
G03*
X12643000Y-6910000I-85000J0D01*
G01*
X12643000Y-8810000D02*
G75*
G03*
X12643000Y-8810000I-85000J0D01*
G01*
X12643000Y-10710000D02*
G75*
G03*
X12643000Y-10710000I-85000J0D01*
G01*
X13527000Y-4750000D02*
G75*
G03*
X13527000Y-4750000I-85000J0D01*
G01*
X13527000Y-6660000D02*
G75*
G03*
X13527000Y-6660000I-85000J0D01*
G01*
X13527000Y-8560000D02*
G75*
G03*
X13527000Y-8560000I-85000J0D01*
G01*
X13527000Y-10470000D02*
G75*
G03*
X13527000Y-10470000I-85000J0D01*
G01*
X13527000Y-12380000D02*
G75*
G03*
X13527000Y-12380000I-85000J0D01*
G01*
X14543000Y-4750000D02*
G75*
G03*
X14543000Y-4750000I-85000J0D01*
G01*
X14543000Y-6660000D02*
G75*
G03*
X14543000Y-6660000I-85000J0D01*
G01*
X14543000Y-8560000D02*
G75*
G03*
X14543000Y-8560000I-85000J0D01*
G01*
X14543000Y-10470000D02*
G75*
G03*
X14543000Y-10470000I-85000J0D01*
G01*
X14543000Y-12380000D02*
G75*
G03*
X14543000Y-12380000I-85000J0D01*
G01*
X15427000Y-4501000D02*
G75*
G03*
X15427000Y-4501000I-85000J0D01*
G01*
X15427000Y-6410000D02*
G75*
G03*
X15427000Y-6410000I-85000J0D01*
G01*
X15427000Y-8320000D02*
G75*
G03*
X15427000Y-8320000I-85000J0D01*
G01*
X15427000Y-10220000D02*
G75*
G03*
X15427000Y-10220000I-85000J0D01*
G01*
X15427000Y-12120000D02*
G75*
G03*
X15427000Y-12120000I-85000J0D01*
G01*
X16443000Y-4501000D02*
G75*
G03*
X16443000Y-4501000I-85000J0D01*
G01*
X16443000Y-6410000D02*
G75*
G03*
X16443000Y-6410000I-85000J0D01*
G01*
X16443000Y-8320000D02*
G75*
G03*
X16443000Y-8320000I-85000J0D01*
G01*
X16443000Y-10220000D02*
G75*
G03*
X16443000Y-10220000I-85000J0D01*
G01*
X16443000Y-12120000D02*
G75*
G03*
X16443000Y-12120000I-85000J0D01*
G01*
X17327000Y-4750000D02*
G75*
G03*
X17327000Y-4750000I-85000J0D01*
G01*
X17327000Y-6650000D02*
G75*
G03*
X17327000Y-6650000I-85000J0D01*
G01*
X17327000Y-8560000D02*
G75*
G03*
X17327000Y-8560000I-85000J0D01*
G01*
X17327000Y-10470000D02*
G75*
G03*
X17327000Y-10470000I-85000J0D01*
G01*
X17327000Y-12370000D02*
G75*
G03*
X17327000Y-12370000I-85000J0D01*
G01*
X18343000Y-4750000D02*
G75*
G03*
X18343000Y-4750000I-85000J0D01*
G01*
X18343000Y-6650000D02*
G75*
G03*
X18343000Y-6650000I-85000J0D01*
G01*
X18343000Y-8560000D02*
G75*
G03*
X18343000Y-8560000I-85000J0D01*
G01*
X18343000Y-10470000D02*
G75*
G03*
X18343000Y-10470000I-85000J0D01*
G01*
X18343000Y-12370000D02*
G75*
G03*
X18343000Y-12370000I-85000J0D01*
G01*
X19227000Y-5650000D02*
G75*
G03*
X19227000Y-5650000I-85000J0D01*
G01*
X19227000Y-7540000D02*
G75*
G03*
X19227000Y-7540000I-85000J0D01*
G01*
X19227000Y-9460000D02*
G75*
G03*
X19227000Y-9460000I-85000J0D01*
G01*
X19227000Y-11360000D02*
G75*
G03*
X19227000Y-11360000I-85000J0D01*
G01*
X20243000Y-5650000D02*
G75*
G03*
X20243000Y-5650000I-85000J0D01*
G01*
X20243000Y-7540000D02*
G75*
G03*
X20243000Y-7540000I-85000J0D01*
G01*
X20243000Y-9460000D02*
G75*
G03*
X20243000Y-9460000I-85000J0D01*
G01*
X20243000Y-11360000D02*
G75*
G03*
X20243000Y-11360000I-85000J0D01*
G01*
X21127000Y-5650000D02*
G75*
G03*
X21127000Y-5650000I-85000J0D01*
G01*
X21127000Y-7540000D02*
G75*
G03*
X21127000Y-7540000I-85000J0D01*
G01*
X21127000Y-9460000D02*
G75*
G03*
X21127000Y-9460000I-85000J0D01*
G01*
X21132000Y-11360000D02*
G75*
G03*
X21132000Y-11360000I-85000J0D01*
G01*
X22143000Y-5650000D02*
G75*
G03*
X22143000Y-5650000I-85000J0D01*
G01*
X22143000Y-7540000D02*
G75*
G03*
X22143000Y-7540000I-85000J0D01*
G01*
X22143000Y-9460000D02*
G75*
G03*
X22143000Y-9460000I-85000J0D01*
G01*
X22148000Y-11360000D02*
G75*
G03*
X22148000Y-11360000I-85000J0D01*
G01*
X9699471Y-12734044D02*
X9699471Y-13034044D01*
X9549471Y-12884044D02*
X9849471Y-12884044D01*
X9982941Y-12717029D02*
X9982941Y-13017029D01*
X9832941Y-12867029D02*
X10132941Y-12867029D01*
X10080471Y-13393956D02*
X10080471Y-13693956D01*
X9930471Y-13543956D02*
X10230471Y-13543956D01*
X10236941Y-13156970D02*
X10236941Y-13456970D01*
X10086941Y-13306970D02*
X10386941Y-13306970D01*
X11310042Y-12605060D02*
X11310042Y-12905060D01*
X11160042Y-12755060D02*
X11460042Y-12755060D01*
X11327700Y-12321629D02*
X11327700Y-12621629D01*
X11177700Y-12471629D02*
X11477700Y-12471629D01*
X11669000Y-4596000D02*
X11669000Y-4896000D01*
X11519000Y-4746000D02*
X11819000Y-4746000D01*
X11669000Y-6506000D02*
X11669000Y-6806000D01*
X11519000Y-6656000D02*
X11819000Y-6656000D01*
X11669000Y-8406000D02*
X11669000Y-8706000D01*
X11519000Y-8556000D02*
X11819000Y-8556000D01*
X11669000Y-10306000D02*
X11669000Y-10606000D01*
X11519000Y-10456000D02*
X11819000Y-10456000D01*
X11795317Y-12123138D02*
X11795317Y-12423138D01*
X11645317Y-12273138D02*
X11945317Y-12273138D01*
X11796000Y-4342000D02*
X11796000Y-4642000D01*
X11646000Y-4492000D02*
X11946000Y-4492000D01*
X11796000Y-6252000D02*
X11796000Y-6552000D01*
X11646000Y-6402000D02*
X11946000Y-6402000D01*
X11796000Y-8152000D02*
X11796000Y-8452000D01*
X11646000Y-8302000D02*
X11946000Y-8302000D01*
X11796000Y-10052000D02*
X11796000Y-10352000D01*
X11646000Y-10202000D02*
X11946000Y-10202000D01*
X12011467Y-12307323D02*
X12011467Y-12607323D01*
X11861467Y-12457323D02*
X12161467Y-12457323D01*
X12304000Y-4342000D02*
X12304000Y-4642000D01*
X12154000Y-4492000D02*
X12454000Y-4492000D01*
X12304000Y-6252000D02*
X12304000Y-6552000D01*
X12154000Y-6402000D02*
X12454000Y-6402000D01*
X12304000Y-8152000D02*
X12304000Y-8452000D01*
X12154000Y-8302000D02*
X12454000Y-8302000D01*
X12304000Y-10052000D02*
X12304000Y-10352000D01*
X12154000Y-10202000D02*
X12454000Y-10202000D01*
X12431000Y-4596000D02*
X12431000Y-4896000D01*
X12281000Y-4746000D02*
X12581000Y-4746000D01*
X12431000Y-6506000D02*
X12431000Y-6806000D01*
X12281000Y-6656000D02*
X12581000Y-6656000D01*
X12431000Y-8406000D02*
X12431000Y-8706000D01*
X12281000Y-8556000D02*
X12581000Y-8556000D01*
X12431000Y-10306000D02*
X12431000Y-10606000D01*
X12281000Y-10456000D02*
X12581000Y-10456000D01*
X13569000Y-4346000D02*
X13569000Y-4646000D01*
X13419000Y-4496000D02*
X13719000Y-4496000D01*
X13569000Y-6256000D02*
X13569000Y-6556000D01*
X13419000Y-6406000D02*
X13719000Y-6406000D01*
X13569000Y-8156000D02*
X13569000Y-8456000D01*
X13419000Y-8306000D02*
X13719000Y-8306000D01*
X13569000Y-10066000D02*
X13569000Y-10366000D01*
X13419000Y-10216000D02*
X13719000Y-10216000D01*
X13569000Y-11976000D02*
X13569000Y-12276000D01*
X13419000Y-12126000D02*
X13719000Y-12126000D01*
X13696000Y-4092000D02*
X13696000Y-4392000D01*
X13546000Y-4242000D02*
X13846000Y-4242000D01*
X13696000Y-6002000D02*
X13696000Y-6302000D01*
X13546000Y-6152000D02*
X13846000Y-6152000D01*
X13696000Y-7902000D02*
X13696000Y-8202000D01*
X13546000Y-8052000D02*
X13846000Y-8052000D01*
X13696000Y-9812000D02*
X13696000Y-10112000D01*
X13546000Y-9962000D02*
X13846000Y-9962000D01*
X13696000Y-11722000D02*
X13696000Y-12022000D01*
X13546000Y-11872000D02*
X13846000Y-11872000D01*
X14204000Y-4092000D02*
X14204000Y-4392000D01*
X14054000Y-4242000D02*
X14354000Y-4242000D01*
X14204000Y-6002000D02*
X14204000Y-6302000D01*
X14054000Y-6152000D02*
X14354000Y-6152000D01*
X14204000Y-7902000D02*
X14204000Y-8202000D01*
X14054000Y-8052000D02*
X14354000Y-8052000D01*
X14204000Y-9812000D02*
X14204000Y-10112000D01*
X14054000Y-9962000D02*
X14354000Y-9962000D01*
X14204000Y-11722000D02*
X14204000Y-12022000D01*
X14054000Y-11872000D02*
X14354000Y-11872000D01*
X14331000Y-4346000D02*
X14331000Y-4646000D01*
X14181000Y-4496000D02*
X14481000Y-4496000D01*
X14331000Y-6256000D02*
X14331000Y-6556000D01*
X14181000Y-6406000D02*
X14481000Y-6406000D01*
X14331000Y-8156000D02*
X14331000Y-8456000D01*
X14181000Y-8306000D02*
X14481000Y-8306000D01*
X14331000Y-10066000D02*
X14331000Y-10366000D01*
X14181000Y-10216000D02*
X14481000Y-10216000D01*
X14331000Y-11976000D02*
X14331000Y-12276000D01*
X14181000Y-12126000D02*
X14481000Y-12126000D01*
X15469000Y-4097000D02*
X15469000Y-4397000D01*
X15319000Y-4247000D02*
X15619000Y-4247000D01*
X15469000Y-6006000D02*
X15469000Y-6306000D01*
X15319000Y-6156000D02*
X15619000Y-6156000D01*
X15469000Y-7916000D02*
X15469000Y-8216000D01*
X15319000Y-8066000D02*
X15619000Y-8066000D01*
X15469000Y-9816000D02*
X15469000Y-10116000D01*
X15319000Y-9966000D02*
X15619000Y-9966000D01*
X15469000Y-11716000D02*
X15469000Y-12016000D01*
X15319000Y-11866000D02*
X15619000Y-11866000D01*
X15596000Y-3843000D02*
X15596000Y-4143000D01*
X15446000Y-3993000D02*
X15746000Y-3993000D01*
X15596000Y-5752000D02*
X15596000Y-6052000D01*
X15446000Y-5902000D02*
X15746000Y-5902000D01*
X15596000Y-7662000D02*
X15596000Y-7962000D01*
X15446000Y-7812000D02*
X15746000Y-7812000D01*
X15596000Y-9562000D02*
X15596000Y-9862000D01*
X15446000Y-9712000D02*
X15746000Y-9712000D01*
X15596000Y-11462000D02*
X15596000Y-11762000D01*
X15446000Y-11612000D02*
X15746000Y-11612000D01*
X16104000Y-3843000D02*
X16104000Y-4143000D01*
X15954000Y-3993000D02*
X16254000Y-3993000D01*
X16104000Y-5752000D02*
X16104000Y-6052000D01*
X15954000Y-5902000D02*
X16254000Y-5902000D01*
X16104000Y-7662000D02*
X16104000Y-7962000D01*
X15954000Y-7812000D02*
X16254000Y-7812000D01*
X16104000Y-9562000D02*
X16104000Y-9862000D01*
X15954000Y-9712000D02*
X16254000Y-9712000D01*
X16104000Y-11462000D02*
X16104000Y-11762000D01*
X15954000Y-11612000D02*
X16254000Y-11612000D01*
X16231000Y-4097000D02*
X16231000Y-4397000D01*
X16081000Y-4247000D02*
X16381000Y-4247000D01*
X16231000Y-6006000D02*
X16231000Y-6306000D01*
X16081000Y-6156000D02*
X16381000Y-6156000D01*
X16231000Y-7916000D02*
X16231000Y-8216000D01*
X16081000Y-8066000D02*
X16381000Y-8066000D01*
X16231000Y-9816000D02*
X16231000Y-10116000D01*
X16081000Y-9966000D02*
X16381000Y-9966000D01*
X16231000Y-11716000D02*
X16231000Y-12016000D01*
X16081000Y-11866000D02*
X16381000Y-11866000D01*
X17369000Y-4346000D02*
X17369000Y-4646000D01*
X17219000Y-4496000D02*
X17519000Y-4496000D01*
X17369000Y-6246000D02*
X17369000Y-6546000D01*
X17219000Y-6396000D02*
X17519000Y-6396000D01*
X17369000Y-8156000D02*
X17369000Y-8456000D01*
X17219000Y-8306000D02*
X17519000Y-8306000D01*
X17369000Y-10066000D02*
X17369000Y-10366000D01*
X17219000Y-10216000D02*
X17519000Y-10216000D01*
X17369000Y-11966000D02*
X17369000Y-12266000D01*
X17219000Y-12116000D02*
X17519000Y-12116000D01*
X17496000Y-4092000D02*
X17496000Y-4392000D01*
X17346000Y-4242000D02*
X17646000Y-4242000D01*
X17496000Y-5992000D02*
X17496000Y-6292000D01*
X17346000Y-6142000D02*
X17646000Y-6142000D01*
X17496000Y-7902000D02*
X17496000Y-8202000D01*
X17346000Y-8052000D02*
X17646000Y-8052000D01*
X17496000Y-9812000D02*
X17496000Y-10112000D01*
X17346000Y-9962000D02*
X17646000Y-9962000D01*
X17496000Y-11712000D02*
X17496000Y-12012000D01*
X17346000Y-11862000D02*
X17646000Y-11862000D01*
X18004000Y-4092000D02*
X18004000Y-4392000D01*
X17854000Y-4242000D02*
X18154000Y-4242000D01*
X18004000Y-5992000D02*
X18004000Y-6292000D01*
X17854000Y-6142000D02*
X18154000Y-6142000D01*
X18004000Y-7902000D02*
X18004000Y-8202000D01*
X17854000Y-8052000D02*
X18154000Y-8052000D01*
X18004000Y-9812000D02*
X18004000Y-10112000D01*
X17854000Y-9962000D02*
X18154000Y-9962000D01*
X18004000Y-11712000D02*
X18004000Y-12012000D01*
X17854000Y-11862000D02*
X18154000Y-11862000D01*
X18131000Y-4346000D02*
X18131000Y-4646000D01*
X17981000Y-4496000D02*
X18281000Y-4496000D01*
X18131000Y-6246000D02*
X18131000Y-6546000D01*
X17981000Y-6396000D02*
X18281000Y-6396000D01*
X18131000Y-8156000D02*
X18131000Y-8456000D01*
X17981000Y-8306000D02*
X18281000Y-8306000D01*
X18131000Y-10066000D02*
X18131000Y-10366000D01*
X17981000Y-10216000D02*
X18281000Y-10216000D01*
X18131000Y-11966000D02*
X18131000Y-12266000D01*
X17981000Y-12116000D02*
X18281000Y-12116000D01*
X19269000Y-5246000D02*
X19269000Y-5546000D01*
X19119000Y-5396000D02*
X19419000Y-5396000D01*
X19269000Y-7136000D02*
X19269000Y-7436000D01*
X19119000Y-7286000D02*
X19419000Y-7286000D01*
X19269000Y-9056000D02*
X19269000Y-9356000D01*
X19119000Y-9206000D02*
X19419000Y-9206000D01*
X19269000Y-10956000D02*
X19269000Y-11256000D01*
X19119000Y-11106000D02*
X19419000Y-11106000D01*
X19396000Y-4992000D02*
X19396000Y-5292000D01*
X19246000Y-5142000D02*
X19546000Y-5142000D01*
X19396000Y-6882000D02*
X19396000Y-7182000D01*
X19246000Y-7032000D02*
X19546000Y-7032000D01*
X19396000Y-8802000D02*
X19396000Y-9102000D01*
X19246000Y-8952000D02*
X19546000Y-8952000D01*
X19396000Y-10702000D02*
X19396000Y-11002000D01*
X19246000Y-10852000D02*
X19546000Y-10852000D01*
X19904000Y-4992000D02*
X19904000Y-5292000D01*
X19754000Y-5142000D02*
X20054000Y-5142000D01*
X19904000Y-6882000D02*
X19904000Y-7182000D01*
X19754000Y-7032000D02*
X20054000Y-7032000D01*
X19904000Y-8802000D02*
X19904000Y-9102000D01*
X19754000Y-8952000D02*
X20054000Y-8952000D01*
X19904000Y-10702000D02*
X19904000Y-11002000D01*
X19754000Y-10852000D02*
X20054000Y-10852000D01*
X20031000Y-5246000D02*
X20031000Y-5546000D01*
X19881000Y-5396000D02*
X20181000Y-5396000D01*
X20031000Y-7136000D02*
X20031000Y-7436000D01*
X19881000Y-7286000D02*
X20181000Y-7286000D01*
X20031000Y-9056000D02*
X20031000Y-9356000D01*
X19881000Y-9206000D02*
X20181000Y-9206000D01*
X20031000Y-10956000D02*
X20031000Y-11256000D01*
X19881000Y-11106000D02*
X20181000Y-11106000D01*
X21169000Y-5246000D02*
X21169000Y-5546000D01*
X21019000Y-5396000D02*
X21319000Y-5396000D01*
X21169000Y-7136000D02*
X21169000Y-7436000D01*
X21019000Y-7286000D02*
X21319000Y-7286000D01*
X21169000Y-9056000D02*
X21169000Y-9356000D01*
X21019000Y-9206000D02*
X21319000Y-9206000D01*
X21174000Y-10956000D02*
X21174000Y-11256000D01*
X21024000Y-11106000D02*
X21324000Y-11106000D01*
X21296000Y-4992000D02*
X21296000Y-5292000D01*
X21146000Y-5142000D02*
X21446000Y-5142000D01*
X21296000Y-6882000D02*
X21296000Y-7182000D01*
X21146000Y-7032000D02*
X21446000Y-7032000D01*
X21296000Y-8802000D02*
X21296000Y-9102000D01*
X21146000Y-8952000D02*
X21446000Y-8952000D01*
X21301000Y-10702000D02*
X21301000Y-11002000D01*
X21151000Y-10852000D02*
X21451000Y-10852000D01*
X21804000Y-4992000D02*
X21804000Y-5292000D01*
X21654000Y-5142000D02*
X21954000Y-5142000D01*
X21804000Y-6882000D02*
X21804000Y-7182000D01*
X21654000Y-7032000D02*
X21954000Y-7032000D01*
X21804000Y-8802000D02*
X21804000Y-9102000D01*
X21654000Y-8952000D02*
X21954000Y-8952000D01*
X21809000Y-10702000D02*
X21809000Y-11002000D01*
X21659000Y-10852000D02*
X21959000Y-10852000D01*
X21931000Y-5246000D02*
X21931000Y-5546000D01*
X21781000Y-5396000D02*
X22081000Y-5396000D01*
X21931000Y-7136000D02*
X21931000Y-7436000D01*
X21781000Y-7286000D02*
X22081000Y-7286000D01*
X21931000Y-9056000D02*
X21931000Y-9356000D01*
X21781000Y-9206000D02*
X22081000Y-9206000D01*
X21936000Y-10956000D02*
X21936000Y-11256000D01*
X21786000Y-11106000D02*
X22086000Y-11106000D01*
X9598906Y-7873106D02*
X9598906Y-7643294D01*
X9369094Y-7643294D01*
X9369094Y-7873106D01*
X9598906Y-7873106D01*
X9598906Y-8889106D02*
X9598906Y-8659294D01*
X9369094Y-8659294D01*
X9369094Y-8889106D01*
X9598906Y-8889106D01*
X9599906Y-8001106D02*
X9599906Y-7771294D01*
X9370094Y-7771294D01*
X9370094Y-8001106D01*
X9599906Y-8001106D01*
X9599906Y-9017106D02*
X9599906Y-8787294D01*
X9370094Y-8787294D01*
X9370094Y-9017106D01*
X9599906Y-9017106D01*
X9670000Y-13541000D02*
X9870000Y-13341000D01*
X9670000Y-13141000D01*
X9470000Y-13341000D01*
X9670000Y-13541000D01*
X11760000Y-13040000D02*
X11960000Y-12840000D01*
X11760000Y-12640000D01*
X11560000Y-12840000D01*
X11760000Y-13040000D01*
X12050000Y-5200000D02*
X12250000Y-5000000D01*
X12050000Y-4800000D01*
X11850000Y-5000000D01*
X12050000Y-5200000D01*
X12050000Y-7110000D02*
X12250000Y-6910000D01*
X12050000Y-6710000D01*
X11850000Y-6910000D01*
X12050000Y-7110000D01*
X12050000Y-9010000D02*
X12250000Y-8810000D01*
X12050000Y-8610000D01*
X11850000Y-8810000D01*
X12050000Y-9010000D01*
X12050000Y-10910000D02*
X12250000Y-10710000D01*
X12050000Y-10510000D01*
X11850000Y-10710000D01*
X12050000Y-10910000D01*
X13950000Y-4950000D02*
X14150000Y-4750000D01*
X13950000Y-4550000D01*
X13750000Y-4750000D01*
X13950000Y-4950000D01*
X13950000Y-6860000D02*
X14150000Y-6660000D01*
X13950000Y-6460000D01*
X13750000Y-6660000D01*
X13950000Y-6860000D01*
X13950000Y-8760000D02*
X14150000Y-8560000D01*
X13950000Y-8360000D01*
X13750000Y-8560000D01*
X13950000Y-8760000D01*
X13950000Y-10670000D02*
X14150000Y-10470000D01*
X13950000Y-10270000D01*
X13750000Y-10470000D01*
X13950000Y-10670000D01*
X13950000Y-12580000D02*
X14150000Y-12380000D01*
X13950000Y-12180000D01*
X13750000Y-12380000D01*
X13950000Y-12580000D01*
X15850000Y-4701000D02*
X16050000Y-4501000D01*
X15850000Y-4301000D01*
X15650000Y-4501000D01*
X15850000Y-4701000D01*
X15850000Y-6610000D02*
X16050000Y-6410000D01*
X15850000Y-6210000D01*
X15650000Y-6410000D01*
X15850000Y-6610000D01*
X15850000Y-8520000D02*
X16050000Y-8320000D01*
X15850000Y-8120000D01*
X15650000Y-8320000D01*
X15850000Y-8520000D01*
X15850000Y-10420000D02*
X16050000Y-10220000D01*
X15850000Y-10020000D01*
X15650000Y-10220000D01*
X15850000Y-10420000D01*
X15850000Y-12320000D02*
X16050000Y-12120000D01*
X15850000Y-11920000D01*
X15650000Y-12120000D01*
X15850000Y-12320000D01*
X17750000Y-4950000D02*
X17950000Y-4750000D01*
X17750000Y-4550000D01*
X17550000Y-4750000D01*
X17750000Y-4950000D01*
X17750000Y-6850000D02*
X17950000Y-6650000D01*
X17750000Y-6450000D01*
X17550000Y-6650000D01*
X17750000Y-6850000D01*
X17750000Y-8760000D02*
X17950000Y-8560000D01*
X17750000Y-8360000D01*
X17550000Y-8560000D01*
X17750000Y-8760000D01*
X17750000Y-10670000D02*
X17950000Y-10470000D01*
X17750000Y-10270000D01*
X17550000Y-10470000D01*
X17750000Y-10670000D01*
X17750000Y-12570000D02*
X17950000Y-12370000D01*
X17750000Y-12170000D01*
X17550000Y-12370000D01*
X17750000Y-12570000D01*
X19650000Y-5850000D02*
X19850000Y-5650000D01*
X19650000Y-5450000D01*
X19450000Y-5650000D01*
X19650000Y-5850000D01*
X19650000Y-7740000D02*
X19850000Y-7540000D01*
X19650000Y-7340000D01*
X19450000Y-7540000D01*
X19650000Y-7740000D01*
X19650000Y-9660000D02*
X19850000Y-9460000D01*
X19650000Y-9260000D01*
X19450000Y-9460000D01*
X19650000Y-9660000D01*
X19650000Y-11560000D02*
X19850000Y-11360000D01*
X19650000Y-11160000D01*
X19450000Y-11360000D01*
X19650000Y-11560000D01*
X21550000Y-5850000D02*
X21750000Y-5650000D01*
X21550000Y-5450000D01*
X21350000Y-5650000D01*
X21550000Y-5850000D01*
X21550000Y-7740000D02*
X21750000Y-7540000D01*
X21550000Y-7340000D01*
X21350000Y-7540000D01*
X21550000Y-7740000D01*
X21550000Y-9660000D02*
X21750000Y-9460000D01*
X21550000Y-9260000D01*
X21350000Y-9460000D01*
X21550000Y-9660000D01*
X21555000Y-11560000D02*
X21755000Y-11360000D01*
X21555000Y-11160000D01*
X21355000Y-11360000D01*
X21555000Y-11560000D01*
D12*
X8401928Y-15578414D02*
X8401928Y-15278414D01*
X8473357Y-15278414D01*
X8516214Y-15292700D01*
X8544786Y-15321271D01*
X8559071Y-15349843D01*
X8573357Y-15406986D01*
X8573357Y-15449843D01*
X8559071Y-15506986D01*
X8544786Y-15535557D01*
X8516214Y-15564129D01*
X8473357Y-15578414D01*
X8401928Y-15578414D01*
X8701928Y-15578414D02*
X8701928Y-15378414D01*
X8701928Y-15435557D02*
X8716214Y-15406986D01*
X8730500Y-15392700D01*
X8759071Y-15378414D01*
X8787643Y-15378414D01*
X8887643Y-15578414D02*
X8887643Y-15378414D01*
X8887643Y-15278414D02*
X8873357Y-15292700D01*
X8887643Y-15306986D01*
X8901928Y-15292700D01*
X8887643Y-15278414D01*
X8887643Y-15306986D01*
X9073357Y-15578414D02*
X9044786Y-15564129D01*
X9030500Y-15535557D01*
X9030500Y-15278414D01*
X9230500Y-15578414D02*
X9201928Y-15564129D01*
X9187643Y-15535557D01*
X9187643Y-15278414D01*
X9573357Y-15578414D02*
X9573357Y-15278414D01*
X9673357Y-15492700D01*
X9773357Y-15278414D01*
X9773357Y-15578414D01*
X10044786Y-15578414D02*
X10044786Y-15421271D01*
X10030500Y-15392700D01*
X10001928Y-15378414D01*
X9944786Y-15378414D01*
X9916214Y-15392700D01*
X10044786Y-15564129D02*
X10016214Y-15578414D01*
X9944786Y-15578414D01*
X9916214Y-15564129D01*
X9901928Y-15535557D01*
X9901928Y-15506986D01*
X9916214Y-15478414D01*
X9944786Y-15464129D01*
X10016214Y-15464129D01*
X10044786Y-15449843D01*
X10187643Y-15378414D02*
X10187643Y-15678414D01*
X10187643Y-15392700D02*
X10216214Y-15378414D01*
X10273357Y-15378414D01*
X10301928Y-15392700D01*
X10316214Y-15406986D01*
X10330500Y-15435557D01*
X10330500Y-15521271D01*
X10316214Y-15549843D01*
X10301928Y-15564129D01*
X10273357Y-15578414D01*
X10216214Y-15578414D01*
X10187643Y-15564129D01*
X10459071Y-15549843D02*
X10473357Y-15564129D01*
X10459071Y-15578414D01*
X10444786Y-15564129D01*
X10459071Y-15549843D01*
X10459071Y-15578414D01*
X10459071Y-15392700D02*
X10473357Y-15406986D01*
X10459071Y-15421271D01*
X10444786Y-15406986D01*
X10459071Y-15392700D01*
X10459071Y-15421271D01*
X8040500Y-16035200D02*
X8115500Y-16110200D01*
X8115500Y-16035200D02*
X8040500Y-16110200D01*
X8459071Y-15908414D02*
X8487643Y-15908414D01*
X8516214Y-15922700D01*
X8530500Y-15936986D01*
X8544786Y-15965557D01*
X8559071Y-16022700D01*
X8559071Y-16094129D01*
X8544786Y-16151271D01*
X8530500Y-16179843D01*
X8516214Y-16194129D01*
X8487643Y-16208414D01*
X8459071Y-16208414D01*
X8430500Y-16194129D01*
X8416214Y-16179843D01*
X8401928Y-16151271D01*
X8387643Y-16094129D01*
X8387643Y-16022700D01*
X8401928Y-15965557D01*
X8416214Y-15936986D01*
X8430500Y-15922700D01*
X8459071Y-15908414D01*
X8687643Y-16179843D02*
X8701928Y-16194129D01*
X8687643Y-16208414D01*
X8673357Y-16194129D01*
X8687643Y-16179843D01*
X8687643Y-16208414D01*
X8801928Y-15908414D02*
X9001928Y-15908414D01*
X8873357Y-16208414D01*
X9259071Y-15908414D02*
X9116214Y-15908414D01*
X9101928Y-16051271D01*
X9116214Y-16036986D01*
X9144786Y-16022700D01*
X9216214Y-16022700D01*
X9244786Y-16036986D01*
X9259071Y-16051271D01*
X9273357Y-16079843D01*
X9273357Y-16151271D01*
X9259071Y-16179843D01*
X9244786Y-16194129D01*
X9216214Y-16208414D01*
X9144786Y-16208414D01*
X9116214Y-16194129D01*
X9101928Y-16179843D01*
X9401928Y-16208414D02*
X9401928Y-16008414D01*
X9401928Y-16036986D02*
X9416214Y-16022700D01*
X9444786Y-16008414D01*
X9487643Y-16008414D01*
X9516214Y-16022700D01*
X9530500Y-16051271D01*
X9530500Y-16208414D01*
X9530500Y-16051271D02*
X9544786Y-16022700D01*
X9573357Y-16008414D01*
X9616214Y-16008414D01*
X9644786Y-16022700D01*
X9659071Y-16051271D01*
X9659071Y-16208414D01*
X9801928Y-16208414D02*
X9801928Y-16008414D01*
X9801928Y-16036986D02*
X9816214Y-16022700D01*
X9844786Y-16008414D01*
X9887643Y-16008414D01*
X9916214Y-16022700D01*
X9930500Y-16051271D01*
X9930500Y-16208414D01*
X9930500Y-16051271D02*
X9944786Y-16022700D01*
X9973357Y-16008414D01*
X10016214Y-16008414D01*
X10044786Y-16022700D01*
X10059071Y-16051271D01*
X10059071Y-16208414D01*
X10644786Y-15894129D02*
X10387643Y-16279843D01*
X11030500Y-15908414D02*
X11059071Y-15908414D01*
X11087643Y-15922700D01*
X11101928Y-15936986D01*
X11116214Y-15965557D01*
X11130500Y-16022700D01*
X11130500Y-16094129D01*
X11116214Y-16151271D01*
X11101928Y-16179843D01*
X11087643Y-16194129D01*
X11059071Y-16208414D01*
X11030500Y-16208414D01*
X11001928Y-16194129D01*
X10987643Y-16179843D01*
X10973357Y-16151271D01*
X10959071Y-16094129D01*
X10959071Y-16022700D01*
X10973357Y-15965557D01*
X10987643Y-15936986D01*
X11001928Y-15922700D01*
X11030500Y-15908414D01*
X11259071Y-16179843D02*
X11273357Y-16194129D01*
X11259071Y-16208414D01*
X11244786Y-16194129D01*
X11259071Y-16179843D01*
X11259071Y-16208414D01*
X11459071Y-15908414D02*
X11487643Y-15908414D01*
X11516214Y-15922700D01*
X11530500Y-15936986D01*
X11544786Y-15965557D01*
X11559071Y-16022700D01*
X11559071Y-16094129D01*
X11544786Y-16151271D01*
X11530500Y-16179843D01*
X11516214Y-16194129D01*
X11487643Y-16208414D01*
X11459071Y-16208414D01*
X11430500Y-16194129D01*
X11416214Y-16179843D01*
X11401928Y-16151271D01*
X11387643Y-16094129D01*
X11387643Y-16022700D01*
X11401928Y-15965557D01*
X11416214Y-15936986D01*
X11430500Y-15922700D01*
X11459071Y-15908414D01*
X11659071Y-15908414D02*
X11844786Y-15908414D01*
X11744786Y-16022700D01*
X11787643Y-16022700D01*
X11816214Y-16036986D01*
X11830500Y-16051271D01*
X11844786Y-16079843D01*
X11844786Y-16151271D01*
X11830500Y-16179843D01*
X11816214Y-16194129D01*
X11787643Y-16208414D01*
X11701928Y-16208414D01*
X11673357Y-16194129D01*
X11659071Y-16179843D01*
X12030500Y-15908414D02*
X12059071Y-15908414D01*
X12087643Y-15922700D01*
X12101928Y-15936986D01*
X12116214Y-15965557D01*
X12130500Y-16022700D01*
X12130500Y-16094129D01*
X12116214Y-16151271D01*
X12101928Y-16179843D01*
X12087643Y-16194129D01*
X12059071Y-16208414D01*
X12030500Y-16208414D01*
X12001928Y-16194129D01*
X11987643Y-16179843D01*
X11973357Y-16151271D01*
X11959071Y-16094129D01*
X11959071Y-16022700D01*
X11973357Y-15965557D01*
X11987643Y-15936986D01*
X12001928Y-15922700D01*
X12030500Y-15908414D01*
X12244786Y-15908414D02*
X12244786Y-15965557D01*
X12359071Y-15908414D02*
X12359071Y-15965557D01*
X12801928Y-16322700D02*
X12787643Y-16308414D01*
X12759071Y-16265557D01*
X12744786Y-16236986D01*
X12730500Y-16194129D01*
X12716214Y-16122700D01*
X12716214Y-16065557D01*
X12730500Y-15994129D01*
X12744786Y-15951271D01*
X12759071Y-15922700D01*
X12787643Y-15879843D01*
X12801928Y-15865557D01*
X13044786Y-16008414D02*
X13044786Y-16208414D01*
X12973357Y-15894129D02*
X12901928Y-16108414D01*
X13087643Y-16108414D01*
X13430500Y-16208414D02*
X13430500Y-15908414D01*
X13559071Y-16208414D02*
X13559071Y-16051271D01*
X13544786Y-16022700D01*
X13516214Y-16008414D01*
X13473357Y-16008414D01*
X13444786Y-16022700D01*
X13430500Y-16036986D01*
X13744786Y-16208414D02*
X13716214Y-16194129D01*
X13701928Y-16179843D01*
X13687643Y-16151271D01*
X13687643Y-16065557D01*
X13701928Y-16036986D01*
X13716214Y-16022700D01*
X13744786Y-16008414D01*
X13787643Y-16008414D01*
X13816214Y-16022700D01*
X13830500Y-16036986D01*
X13844786Y-16065557D01*
X13844786Y-16151271D01*
X13830500Y-16179843D01*
X13816214Y-16194129D01*
X13787643Y-16208414D01*
X13744786Y-16208414D01*
X14016214Y-16208414D02*
X13987643Y-16194129D01*
X13973357Y-16165557D01*
X13973357Y-15908414D01*
X14244786Y-16194129D02*
X14216214Y-16208414D01*
X14159071Y-16208414D01*
X14130500Y-16194129D01*
X14116214Y-16165557D01*
X14116214Y-16051271D01*
X14130500Y-16022700D01*
X14159071Y-16008414D01*
X14216214Y-16008414D01*
X14244786Y-16022700D01*
X14259071Y-16051271D01*
X14259071Y-16079843D01*
X14116214Y-16108414D01*
X14373357Y-16194129D02*
X14401928Y-16208414D01*
X14459071Y-16208414D01*
X14487643Y-16194129D01*
X14501928Y-16165557D01*
X14501928Y-16151271D01*
X14487643Y-16122700D01*
X14459071Y-16108414D01*
X14416214Y-16108414D01*
X14387643Y-16094129D01*
X14373357Y-16065557D01*
X14373357Y-16051271D01*
X14387643Y-16022700D01*
X14416214Y-16008414D01*
X14459071Y-16008414D01*
X14487643Y-16022700D01*
X14601928Y-16322700D02*
X14616214Y-16308414D01*
X14644786Y-16265557D01*
X14659071Y-16236986D01*
X14673357Y-16194129D01*
X14687643Y-16122700D01*
X14687643Y-16065557D01*
X14673357Y-15994129D01*
X14659071Y-15951271D01*
X14644786Y-15922700D01*
X14616214Y-15879843D01*
X14601928Y-15865557D01*
X15144786Y-16322700D02*
X15130500Y-16308414D01*
X15101928Y-16265557D01*
X15087643Y-16236986D01*
X15073357Y-16194129D01*
X15059071Y-16122700D01*
X15059071Y-16065557D01*
X15073357Y-15994129D01*
X15087643Y-15951271D01*
X15101928Y-15922700D01*
X15130500Y-15879843D01*
X15144786Y-15865557D01*
X15259071Y-16008414D02*
X15259071Y-16208414D01*
X15259071Y-16036986D02*
X15273357Y-16022700D01*
X15301928Y-16008414D01*
X15344786Y-16008414D01*
X15373357Y-16022700D01*
X15387643Y-16051271D01*
X15387643Y-16208414D01*
X15573357Y-16208414D02*
X15544786Y-16194129D01*
X15530500Y-16179843D01*
X15516214Y-16151271D01*
X15516214Y-16065557D01*
X15530500Y-16036986D01*
X15544786Y-16022700D01*
X15573357Y-16008414D01*
X15616214Y-16008414D01*
X15644786Y-16022700D01*
X15659071Y-16036986D01*
X15673357Y-16065557D01*
X15673357Y-16151271D01*
X15659071Y-16179843D01*
X15644786Y-16194129D01*
X15616214Y-16208414D01*
X15573357Y-16208414D01*
X15759071Y-16008414D02*
X15873357Y-16008414D01*
X15801928Y-15908414D02*
X15801928Y-16165557D01*
X15816214Y-16194129D01*
X15844786Y-16208414D01*
X15873357Y-16208414D01*
X16201928Y-16008414D02*
X16201928Y-16308414D01*
X16201928Y-16022700D02*
X16230500Y-16008414D01*
X16287643Y-16008414D01*
X16316214Y-16022700D01*
X16330500Y-16036986D01*
X16344786Y-16065557D01*
X16344786Y-16151271D01*
X16330500Y-16179843D01*
X16316214Y-16194129D01*
X16287643Y-16208414D01*
X16230500Y-16208414D01*
X16201928Y-16194129D01*
X16516214Y-16208414D02*
X16487643Y-16194129D01*
X16473357Y-16165557D01*
X16473357Y-15908414D01*
X16759071Y-16208414D02*
X16759071Y-16051271D01*
X16744786Y-16022700D01*
X16716214Y-16008414D01*
X16659071Y-16008414D01*
X16630500Y-16022700D01*
X16759071Y-16194129D02*
X16730500Y-16208414D01*
X16659071Y-16208414D01*
X16630500Y-16194129D01*
X16616214Y-16165557D01*
X16616214Y-16136986D01*
X16630500Y-16108414D01*
X16659071Y-16094129D01*
X16730500Y-16094129D01*
X16759071Y-16079843D01*
X16859071Y-16008414D02*
X16973357Y-16008414D01*
X16901928Y-15908414D02*
X16901928Y-16165557D01*
X16916214Y-16194129D01*
X16944786Y-16208414D01*
X16973357Y-16208414D01*
X17187643Y-16194129D02*
X17159071Y-16208414D01*
X17101928Y-16208414D01*
X17073357Y-16194129D01*
X17059071Y-16165557D01*
X17059071Y-16051271D01*
X17073357Y-16022700D01*
X17101928Y-16008414D01*
X17159071Y-16008414D01*
X17187643Y-16022700D01*
X17201928Y-16051271D01*
X17201928Y-16079843D01*
X17059071Y-16108414D01*
X17459071Y-16208414D02*
X17459071Y-15908414D01*
X17459071Y-16194129D02*
X17430500Y-16208414D01*
X17373357Y-16208414D01*
X17344786Y-16194129D01*
X17330500Y-16179843D01*
X17316214Y-16151271D01*
X17316214Y-16065557D01*
X17330500Y-16036986D01*
X17344786Y-16022700D01*
X17373357Y-16008414D01*
X17430500Y-16008414D01*
X17459071Y-16022700D01*
X17573357Y-16322700D02*
X17587643Y-16308414D01*
X17616214Y-16265557D01*
X17630500Y-16236986D01*
X17644786Y-16194129D01*
X17659071Y-16122700D01*
X17659071Y-16065557D01*
X17644786Y-15994129D01*
X17630500Y-15951271D01*
X17616214Y-15922700D01*
X17587643Y-15879843D01*
X17573357Y-15865557D01*
X8115500Y-16468700D02*
G75*
G03*
X8115500Y-16468700I-85000J0D01*
G01*
X8559071Y-16604414D02*
X8387643Y-16604414D01*
X8473357Y-16604414D02*
X8473357Y-16304414D01*
X8444786Y-16347271D01*
X8416214Y-16375843D01*
X8387643Y-16390129D01*
X8687643Y-16575843D02*
X8701928Y-16590129D01*
X8687643Y-16604414D01*
X8673357Y-16590129D01*
X8687643Y-16575843D01*
X8687643Y-16604414D01*
X8801928Y-16304414D02*
X9001928Y-16304414D01*
X8873357Y-16604414D01*
X9173357Y-16304414D02*
X9201928Y-16304414D01*
X9230500Y-16318700D01*
X9244786Y-16332986D01*
X9259071Y-16361557D01*
X9273357Y-16418700D01*
X9273357Y-16490129D01*
X9259071Y-16547271D01*
X9244786Y-16575843D01*
X9230500Y-16590129D01*
X9201928Y-16604414D01*
X9173357Y-16604414D01*
X9144786Y-16590129D01*
X9130500Y-16575843D01*
X9116214Y-16547271D01*
X9101928Y-16490129D01*
X9101928Y-16418700D01*
X9116214Y-16361557D01*
X9130500Y-16332986D01*
X9144786Y-16318700D01*
X9173357Y-16304414D01*
X9401928Y-16604414D02*
X9401928Y-16404414D01*
X9401928Y-16432986D02*
X9416214Y-16418700D01*
X9444786Y-16404414D01*
X9487643Y-16404414D01*
X9516214Y-16418700D01*
X9530500Y-16447271D01*
X9530500Y-16604414D01*
X9530500Y-16447271D02*
X9544786Y-16418700D01*
X9573357Y-16404414D01*
X9616214Y-16404414D01*
X9644786Y-16418700D01*
X9659071Y-16447271D01*
X9659071Y-16604414D01*
X9801928Y-16604414D02*
X9801928Y-16404414D01*
X9801928Y-16432986D02*
X9816214Y-16418700D01*
X9844786Y-16404414D01*
X9887643Y-16404414D01*
X9916214Y-16418700D01*
X9930500Y-16447271D01*
X9930500Y-16604414D01*
X9930500Y-16447271D02*
X9944786Y-16418700D01*
X9973357Y-16404414D01*
X10016214Y-16404414D01*
X10044786Y-16418700D01*
X10059071Y-16447271D01*
X10059071Y-16604414D01*
X10644786Y-16290129D02*
X10387643Y-16675843D01*
X11030500Y-16304414D02*
X11059071Y-16304414D01*
X11087643Y-16318700D01*
X11101928Y-16332986D01*
X11116214Y-16361557D01*
X11130500Y-16418700D01*
X11130500Y-16490129D01*
X11116214Y-16547271D01*
X11101928Y-16575843D01*
X11087643Y-16590129D01*
X11059071Y-16604414D01*
X11030500Y-16604414D01*
X11001928Y-16590129D01*
X10987643Y-16575843D01*
X10973357Y-16547271D01*
X10959071Y-16490129D01*
X10959071Y-16418700D01*
X10973357Y-16361557D01*
X10987643Y-16332986D01*
X11001928Y-16318700D01*
X11030500Y-16304414D01*
X11259071Y-16575843D02*
X11273357Y-16590129D01*
X11259071Y-16604414D01*
X11244786Y-16590129D01*
X11259071Y-16575843D01*
X11259071Y-16604414D01*
X11459071Y-16304414D02*
X11487643Y-16304414D01*
X11516214Y-16318700D01*
X11530500Y-16332986D01*
X11544786Y-16361557D01*
X11559071Y-16418700D01*
X11559071Y-16490129D01*
X11544786Y-16547271D01*
X11530500Y-16575843D01*
X11516214Y-16590129D01*
X11487643Y-16604414D01*
X11459071Y-16604414D01*
X11430500Y-16590129D01*
X11416214Y-16575843D01*
X11401928Y-16547271D01*
X11387643Y-16490129D01*
X11387643Y-16418700D01*
X11401928Y-16361557D01*
X11416214Y-16332986D01*
X11430500Y-16318700D01*
X11459071Y-16304414D01*
X11816214Y-16304414D02*
X11759071Y-16304414D01*
X11730500Y-16318700D01*
X11716214Y-16332986D01*
X11687643Y-16375843D01*
X11673357Y-16432986D01*
X11673357Y-16547271D01*
X11687643Y-16575843D01*
X11701928Y-16590129D01*
X11730500Y-16604414D01*
X11787643Y-16604414D01*
X11816214Y-16590129D01*
X11830500Y-16575843D01*
X11844786Y-16547271D01*
X11844786Y-16475843D01*
X11830500Y-16447271D01*
X11816214Y-16432986D01*
X11787643Y-16418700D01*
X11730500Y-16418700D01*
X11701928Y-16432986D01*
X11687643Y-16447271D01*
X11673357Y-16475843D01*
X11944786Y-16304414D02*
X12144786Y-16304414D01*
X12016214Y-16604414D01*
X12244786Y-16304414D02*
X12244786Y-16361557D01*
X12359071Y-16304414D02*
X12359071Y-16361557D01*
X12801928Y-16718700D02*
X12787643Y-16704414D01*
X12759071Y-16661557D01*
X12744786Y-16632986D01*
X12730500Y-16590129D01*
X12716214Y-16518700D01*
X12716214Y-16461557D01*
X12730500Y-16390129D01*
X12744786Y-16347271D01*
X12759071Y-16318700D01*
X12787643Y-16275843D01*
X12801928Y-16261557D01*
X13059071Y-16304414D02*
X12916214Y-16304414D01*
X12901928Y-16447271D01*
X12916214Y-16432986D01*
X12944786Y-16418700D01*
X13016214Y-16418700D01*
X13044786Y-16432986D01*
X13059071Y-16447271D01*
X13073357Y-16475843D01*
X13073357Y-16547271D01*
X13059071Y-16575843D01*
X13044786Y-16590129D01*
X13016214Y-16604414D01*
X12944786Y-16604414D01*
X12916214Y-16590129D01*
X12901928Y-16575843D01*
X13244786Y-16432986D02*
X13216214Y-16418700D01*
X13201928Y-16404414D01*
X13187643Y-16375843D01*
X13187643Y-16361557D01*
X13201928Y-16332986D01*
X13216214Y-16318700D01*
X13244786Y-16304414D01*
X13301928Y-16304414D01*
X13330500Y-16318700D01*
X13344786Y-16332986D01*
X13359071Y-16361557D01*
X13359071Y-16375843D01*
X13344786Y-16404414D01*
X13330500Y-16418700D01*
X13301928Y-16432986D01*
X13244786Y-16432986D01*
X13216214Y-16447271D01*
X13201928Y-16461557D01*
X13187643Y-16490129D01*
X13187643Y-16547271D01*
X13201928Y-16575843D01*
X13216214Y-16590129D01*
X13244786Y-16604414D01*
X13301928Y-16604414D01*
X13330500Y-16590129D01*
X13344786Y-16575843D01*
X13359071Y-16547271D01*
X13359071Y-16490129D01*
X13344786Y-16461557D01*
X13330500Y-16447271D01*
X13301928Y-16432986D01*
X13716214Y-16604414D02*
X13716214Y-16304414D01*
X13844786Y-16604414D02*
X13844786Y-16447271D01*
X13830500Y-16418700D01*
X13801928Y-16404414D01*
X13759071Y-16404414D01*
X13730500Y-16418700D01*
X13716214Y-16432986D01*
X14030500Y-16604414D02*
X14001928Y-16590129D01*
X13987643Y-16575843D01*
X13973357Y-16547271D01*
X13973357Y-16461557D01*
X13987643Y-16432986D01*
X14001928Y-16418700D01*
X14030500Y-16404414D01*
X14073357Y-16404414D01*
X14101928Y-16418700D01*
X14116214Y-16432986D01*
X14130500Y-16461557D01*
X14130500Y-16547271D01*
X14116214Y-16575843D01*
X14101928Y-16590129D01*
X14073357Y-16604414D01*
X14030500Y-16604414D01*
X14301928Y-16604414D02*
X14273357Y-16590129D01*
X14259071Y-16561557D01*
X14259071Y-16304414D01*
X14530500Y-16590129D02*
X14501928Y-16604414D01*
X14444786Y-16604414D01*
X14416214Y-16590129D01*
X14401928Y-16561557D01*
X14401928Y-16447271D01*
X14416214Y-16418700D01*
X14444786Y-16404414D01*
X14501928Y-16404414D01*
X14530500Y-16418700D01*
X14544786Y-16447271D01*
X14544786Y-16475843D01*
X14401928Y-16504414D01*
X14659071Y-16590129D02*
X14687643Y-16604414D01*
X14744786Y-16604414D01*
X14773357Y-16590129D01*
X14787643Y-16561557D01*
X14787643Y-16547271D01*
X14773357Y-16518700D01*
X14744786Y-16504414D01*
X14701928Y-16504414D01*
X14673357Y-16490129D01*
X14659071Y-16461557D01*
X14659071Y-16447271D01*
X14673357Y-16418700D01*
X14701928Y-16404414D01*
X14744786Y-16404414D01*
X14773357Y-16418700D01*
X14887643Y-16718700D02*
X14901928Y-16704414D01*
X14930500Y-16661557D01*
X14944786Y-16632986D01*
X14959071Y-16590129D01*
X14973357Y-16518700D01*
X14973357Y-16461557D01*
X14959071Y-16390129D01*
X14944786Y-16347271D01*
X14930500Y-16318700D01*
X14901928Y-16275843D01*
X14887643Y-16261557D01*
X15430500Y-16718700D02*
X15416214Y-16704414D01*
X15387643Y-16661557D01*
X15373357Y-16632986D01*
X15359071Y-16590129D01*
X15344786Y-16518700D01*
X15344786Y-16461557D01*
X15359071Y-16390129D01*
X15373357Y-16347271D01*
X15387643Y-16318700D01*
X15416214Y-16275843D01*
X15430500Y-16261557D01*
X15544786Y-16404414D02*
X15544786Y-16604414D01*
X15544786Y-16432986D02*
X15559071Y-16418700D01*
X15587643Y-16404414D01*
X15630500Y-16404414D01*
X15659071Y-16418700D01*
X15673357Y-16447271D01*
X15673357Y-16604414D01*
X15859071Y-16604414D02*
X15830500Y-16590129D01*
X15816214Y-16575843D01*
X15801928Y-16547271D01*
X15801928Y-16461557D01*
X15816214Y-16432986D01*
X15830500Y-16418700D01*
X15859071Y-16404414D01*
X15901928Y-16404414D01*
X15930500Y-16418700D01*
X15944786Y-16432986D01*
X15959071Y-16461557D01*
X15959071Y-16547271D01*
X15944786Y-16575843D01*
X15930500Y-16590129D01*
X15901928Y-16604414D01*
X15859071Y-16604414D01*
X16044786Y-16404414D02*
X16159071Y-16404414D01*
X16087643Y-16304414D02*
X16087643Y-16561557D01*
X16101928Y-16590129D01*
X16130500Y-16604414D01*
X16159071Y-16604414D01*
X16487643Y-16404414D02*
X16487643Y-16704414D01*
X16487643Y-16418700D02*
X16516214Y-16404414D01*
X16573357Y-16404414D01*
X16601928Y-16418700D01*
X16616214Y-16432986D01*
X16630500Y-16461557D01*
X16630500Y-16547271D01*
X16616214Y-16575843D01*
X16601928Y-16590129D01*
X16573357Y-16604414D01*
X16516214Y-16604414D01*
X16487643Y-16590129D01*
X16801928Y-16604414D02*
X16773357Y-16590129D01*
X16759071Y-16561557D01*
X16759071Y-16304414D01*
X17044786Y-16604414D02*
X17044786Y-16447271D01*
X17030500Y-16418700D01*
X17001928Y-16404414D01*
X16944786Y-16404414D01*
X16916214Y-16418700D01*
X17044786Y-16590129D02*
X17016214Y-16604414D01*
X16944786Y-16604414D01*
X16916214Y-16590129D01*
X16901928Y-16561557D01*
X16901928Y-16532986D01*
X16916214Y-16504414D01*
X16944786Y-16490129D01*
X17016214Y-16490129D01*
X17044786Y-16475843D01*
X17144786Y-16404414D02*
X17259071Y-16404414D01*
X17187643Y-16304414D02*
X17187643Y-16561557D01*
X17201928Y-16590129D01*
X17230500Y-16604414D01*
X17259071Y-16604414D01*
X17473357Y-16590129D02*
X17444786Y-16604414D01*
X17387643Y-16604414D01*
X17359071Y-16590129D01*
X17344786Y-16561557D01*
X17344786Y-16447271D01*
X17359071Y-16418700D01*
X17387643Y-16404414D01*
X17444786Y-16404414D01*
X17473357Y-16418700D01*
X17487643Y-16447271D01*
X17487643Y-16475843D01*
X17344786Y-16504414D01*
X17744786Y-16604414D02*
X17744786Y-16304414D01*
X17744786Y-16590129D02*
X17716214Y-16604414D01*
X17659071Y-16604414D01*
X17630500Y-16590129D01*
X17616214Y-16575843D01*
X17601928Y-16547271D01*
X17601928Y-16461557D01*
X17616214Y-16432986D01*
X17630500Y-16418700D01*
X17659071Y-16404414D01*
X17716214Y-16404414D01*
X17744786Y-16418700D01*
X17859071Y-16718700D02*
X17873357Y-16704414D01*
X17901928Y-16661557D01*
X17916214Y-16632986D01*
X17930500Y-16590129D01*
X17944786Y-16518700D01*
X17944786Y-16461557D01*
X17930500Y-16390129D01*
X17916214Y-16347271D01*
X17901928Y-16318700D01*
X17873357Y-16275843D01*
X17859071Y-16261557D01*
X7965500Y-16714700D02*
X7965500Y-17014700D01*
X7815500Y-16864700D02*
X8115500Y-16864700D01*
X8373357Y-16700414D02*
X8559071Y-16700414D01*
X8459071Y-16814700D01*
X8501928Y-16814700D01*
X8530500Y-16828986D01*
X8544786Y-16843272D01*
X8559071Y-16871843D01*
X8559071Y-16943272D01*
X8544786Y-16971843D01*
X8530500Y-16986129D01*
X8501928Y-17000414D01*
X8416214Y-17000414D01*
X8387643Y-16986129D01*
X8373357Y-16971843D01*
X8687643Y-16971843D02*
X8701928Y-16986129D01*
X8687643Y-17000414D01*
X8673357Y-16986129D01*
X8687643Y-16971843D01*
X8687643Y-17000414D01*
X8887643Y-16700414D02*
X8916214Y-16700414D01*
X8944786Y-16714700D01*
X8959071Y-16728986D01*
X8973357Y-16757557D01*
X8987643Y-16814700D01*
X8987643Y-16886129D01*
X8973357Y-16943272D01*
X8959071Y-16971843D01*
X8944786Y-16986129D01*
X8916214Y-17000414D01*
X8887643Y-17000414D01*
X8859071Y-16986129D01*
X8844786Y-16971843D01*
X8830500Y-16943272D01*
X8816214Y-16886129D01*
X8816214Y-16814700D01*
X8830500Y-16757557D01*
X8844786Y-16728986D01*
X8859071Y-16714700D01*
X8887643Y-16700414D01*
X9173357Y-16700414D02*
X9201928Y-16700414D01*
X9230500Y-16714700D01*
X9244786Y-16728986D01*
X9259071Y-16757557D01*
X9273357Y-16814700D01*
X9273357Y-16886129D01*
X9259071Y-16943272D01*
X9244786Y-16971843D01*
X9230500Y-16986129D01*
X9201928Y-17000414D01*
X9173357Y-17000414D01*
X9144786Y-16986129D01*
X9130500Y-16971843D01*
X9116214Y-16943272D01*
X9101928Y-16886129D01*
X9101928Y-16814700D01*
X9116214Y-16757557D01*
X9130500Y-16728986D01*
X9144786Y-16714700D01*
X9173357Y-16700414D01*
X9401928Y-17000414D02*
X9401928Y-16800414D01*
X9401928Y-16828986D02*
X9416214Y-16814700D01*
X9444786Y-16800414D01*
X9487643Y-16800414D01*
X9516214Y-16814700D01*
X9530500Y-16843272D01*
X9530500Y-17000414D01*
X9530500Y-16843272D02*
X9544786Y-16814700D01*
X9573357Y-16800414D01*
X9616214Y-16800414D01*
X9644786Y-16814700D01*
X9659071Y-16843272D01*
X9659071Y-17000414D01*
X9801928Y-17000414D02*
X9801928Y-16800414D01*
X9801928Y-16828986D02*
X9816214Y-16814700D01*
X9844786Y-16800414D01*
X9887643Y-16800414D01*
X9916214Y-16814700D01*
X9930500Y-16843272D01*
X9930500Y-17000414D01*
X9930500Y-16843272D02*
X9944786Y-16814700D01*
X9973357Y-16800414D01*
X10016214Y-16800414D01*
X10044786Y-16814700D01*
X10059071Y-16843272D01*
X10059071Y-17000414D01*
X10644786Y-16686129D02*
X10387643Y-17071843D01*
X11030500Y-16700414D02*
X11059071Y-16700414D01*
X11087643Y-16714700D01*
X11101928Y-16728986D01*
X11116214Y-16757557D01*
X11130500Y-16814700D01*
X11130500Y-16886129D01*
X11116214Y-16943272D01*
X11101928Y-16971843D01*
X11087643Y-16986129D01*
X11059071Y-17000414D01*
X11030500Y-17000414D01*
X11001928Y-16986129D01*
X10987643Y-16971843D01*
X10973357Y-16943272D01*
X10959071Y-16886129D01*
X10959071Y-16814700D01*
X10973357Y-16757557D01*
X10987643Y-16728986D01*
X11001928Y-16714700D01*
X11030500Y-16700414D01*
X11259071Y-16971843D02*
X11273357Y-16986129D01*
X11259071Y-17000414D01*
X11244786Y-16986129D01*
X11259071Y-16971843D01*
X11259071Y-17000414D01*
X11559071Y-17000414D02*
X11387643Y-17000414D01*
X11473357Y-17000414D02*
X11473357Y-16700414D01*
X11444786Y-16743271D01*
X11416214Y-16771843D01*
X11387643Y-16786129D01*
X11844786Y-17000414D02*
X11673357Y-17000414D01*
X11759071Y-17000414D02*
X11759071Y-16700414D01*
X11730500Y-16743271D01*
X11701928Y-16771843D01*
X11673357Y-16786129D01*
X12016214Y-16828986D02*
X11987643Y-16814700D01*
X11973357Y-16800414D01*
X11959071Y-16771843D01*
X11959071Y-16757557D01*
X11973357Y-16728986D01*
X11987643Y-16714700D01*
X12016214Y-16700414D01*
X12073357Y-16700414D01*
X12101928Y-16714700D01*
X12116214Y-16728986D01*
X12130500Y-16757557D01*
X12130500Y-16771843D01*
X12116214Y-16800414D01*
X12101928Y-16814700D01*
X12073357Y-16828986D01*
X12016214Y-16828986D01*
X11987643Y-16843272D01*
X11973357Y-16857557D01*
X11959071Y-16886129D01*
X11959071Y-16943272D01*
X11973357Y-16971843D01*
X11987643Y-16986129D01*
X12016214Y-17000414D01*
X12073357Y-17000414D01*
X12101928Y-16986129D01*
X12116214Y-16971843D01*
X12130500Y-16943272D01*
X12130500Y-16886129D01*
X12116214Y-16857557D01*
X12101928Y-16843272D01*
X12073357Y-16828986D01*
X12244786Y-16700414D02*
X12244786Y-16757557D01*
X12359071Y-16700414D02*
X12359071Y-16757557D01*
X12801928Y-17114700D02*
X12787643Y-17100414D01*
X12759071Y-17057557D01*
X12744786Y-17028986D01*
X12730500Y-16986129D01*
X12716214Y-16914700D01*
X12716214Y-16857557D01*
X12730500Y-16786129D01*
X12744786Y-16743271D01*
X12759071Y-16714700D01*
X12787643Y-16671843D01*
X12801928Y-16657557D01*
X13073357Y-17000414D02*
X12901928Y-17000414D01*
X12987643Y-17000414D02*
X12987643Y-16700414D01*
X12959071Y-16743271D01*
X12930500Y-16771843D01*
X12901928Y-16786129D01*
X13359071Y-17000414D02*
X13187643Y-17000414D01*
X13273357Y-17000414D02*
X13273357Y-16700414D01*
X13244786Y-16743271D01*
X13216214Y-16771843D01*
X13187643Y-16786129D01*
X13616214Y-16700414D02*
X13559071Y-16700414D01*
X13530500Y-16714700D01*
X13516214Y-16728986D01*
X13487643Y-16771843D01*
X13473357Y-16828986D01*
X13473357Y-16943272D01*
X13487643Y-16971843D01*
X13501928Y-16986129D01*
X13530500Y-17000414D01*
X13587643Y-17000414D01*
X13616214Y-16986129D01*
X13630500Y-16971843D01*
X13644786Y-16943272D01*
X13644786Y-16871843D01*
X13630500Y-16843272D01*
X13616214Y-16828986D01*
X13587643Y-16814700D01*
X13530500Y-16814700D01*
X13501928Y-16828986D01*
X13487643Y-16843272D01*
X13473357Y-16871843D01*
X14001928Y-17000414D02*
X14001928Y-16700414D01*
X14130500Y-17000414D02*
X14130500Y-16843272D01*
X14116214Y-16814700D01*
X14087643Y-16800414D01*
X14044786Y-16800414D01*
X14016214Y-16814700D01*
X14001928Y-16828986D01*
X14316214Y-17000414D02*
X14287643Y-16986129D01*
X14273357Y-16971843D01*
X14259071Y-16943272D01*
X14259071Y-16857557D01*
X14273357Y-16828986D01*
X14287643Y-16814700D01*
X14316214Y-16800414D01*
X14359071Y-16800414D01*
X14387643Y-16814700D01*
X14401928Y-16828986D01*
X14416214Y-16857557D01*
X14416214Y-16943272D01*
X14401928Y-16971843D01*
X14387643Y-16986129D01*
X14359071Y-17000414D01*
X14316214Y-17000414D01*
X14587643Y-17000414D02*
X14559071Y-16986129D01*
X14544786Y-16957557D01*
X14544786Y-16700414D01*
X14816214Y-16986129D02*
X14787643Y-17000414D01*
X14730500Y-17000414D01*
X14701928Y-16986129D01*
X14687643Y-16957557D01*
X14687643Y-16843272D01*
X14701928Y-16814700D01*
X14730500Y-16800414D01*
X14787643Y-16800414D01*
X14816214Y-16814700D01*
X14830500Y-16843272D01*
X14830500Y-16871843D01*
X14687643Y-16900414D01*
X14944786Y-16986129D02*
X14973357Y-17000414D01*
X15030500Y-17000414D01*
X15059071Y-16986129D01*
X15073357Y-16957557D01*
X15073357Y-16943272D01*
X15059071Y-16914700D01*
X15030500Y-16900414D01*
X14987643Y-16900414D01*
X14959071Y-16886129D01*
X14944786Y-16857557D01*
X14944786Y-16843272D01*
X14959071Y-16814700D01*
X14987643Y-16800414D01*
X15030500Y-16800414D01*
X15059071Y-16814700D01*
X15173357Y-17114700D02*
X15187643Y-17100414D01*
X15216214Y-17057557D01*
X15230500Y-17028986D01*
X15244786Y-16986129D01*
X15259071Y-16914700D01*
X15259071Y-16857557D01*
X15244786Y-16786129D01*
X15230500Y-16743271D01*
X15216214Y-16714700D01*
X15187643Y-16671843D01*
X15173357Y-16657557D01*
X15716214Y-17114700D02*
X15701928Y-17100414D01*
X15673357Y-17057557D01*
X15659071Y-17028986D01*
X15644786Y-16986129D01*
X15630500Y-16914700D01*
X15630500Y-16857557D01*
X15644786Y-16786129D01*
X15659071Y-16743271D01*
X15673357Y-16714700D01*
X15701928Y-16671843D01*
X15716214Y-16657557D01*
X15830500Y-16800414D02*
X15830500Y-17000414D01*
X15830500Y-16828986D02*
X15844786Y-16814700D01*
X15873357Y-16800414D01*
X15916214Y-16800414D01*
X15944786Y-16814700D01*
X15959071Y-16843272D01*
X15959071Y-17000414D01*
X16144786Y-17000414D02*
X16116214Y-16986129D01*
X16101928Y-16971843D01*
X16087643Y-16943272D01*
X16087643Y-16857557D01*
X16101928Y-16828986D01*
X16116214Y-16814700D01*
X16144786Y-16800414D01*
X16187643Y-16800414D01*
X16216214Y-16814700D01*
X16230500Y-16828986D01*
X16244786Y-16857557D01*
X16244786Y-16943272D01*
X16230500Y-16971843D01*
X16216214Y-16986129D01*
X16187643Y-17000414D01*
X16144786Y-17000414D01*
X16330500Y-16800414D02*
X16444786Y-16800414D01*
X16373357Y-16700414D02*
X16373357Y-16957557D01*
X16387643Y-16986129D01*
X16416214Y-17000414D01*
X16444786Y-17000414D01*
X16773357Y-16800414D02*
X16773357Y-17100414D01*
X16773357Y-16814700D02*
X16801928Y-16800414D01*
X16859071Y-16800414D01*
X16887643Y-16814700D01*
X16901928Y-16828986D01*
X16916214Y-16857557D01*
X16916214Y-16943272D01*
X16901928Y-16971843D01*
X16887643Y-16986129D01*
X16859071Y-17000414D01*
X16801928Y-17000414D01*
X16773357Y-16986129D01*
X17087643Y-17000414D02*
X17059071Y-16986129D01*
X17044786Y-16957557D01*
X17044786Y-16700414D01*
X17330500Y-17000414D02*
X17330500Y-16843272D01*
X17316214Y-16814700D01*
X17287643Y-16800414D01*
X17230500Y-16800414D01*
X17201928Y-16814700D01*
X17330500Y-16986129D02*
X17301928Y-17000414D01*
X17230500Y-17000414D01*
X17201928Y-16986129D01*
X17187643Y-16957557D01*
X17187643Y-16928986D01*
X17201928Y-16900414D01*
X17230500Y-16886129D01*
X17301928Y-16886129D01*
X17330500Y-16871843D01*
X17430500Y-16800414D02*
X17544786Y-16800414D01*
X17473357Y-16700414D02*
X17473357Y-16957557D01*
X17487643Y-16986129D01*
X17516214Y-17000414D01*
X17544786Y-17000414D01*
X17759071Y-16986129D02*
X17730500Y-17000414D01*
X17673357Y-17000414D01*
X17644786Y-16986129D01*
X17630500Y-16957557D01*
X17630500Y-16843272D01*
X17644786Y-16814700D01*
X17673357Y-16800414D01*
X17730500Y-16800414D01*
X17759071Y-16814700D01*
X17773357Y-16843272D01*
X17773357Y-16871843D01*
X17630500Y-16900414D01*
X18030500Y-17000414D02*
X18030500Y-16700414D01*
X18030500Y-16986129D02*
X18001928Y-17000414D01*
X17944786Y-17000414D01*
X17916214Y-16986129D01*
X17901928Y-16971843D01*
X17887643Y-16943272D01*
X17887643Y-16857557D01*
X17901928Y-16828986D01*
X17916214Y-16814700D01*
X17944786Y-16800414D01*
X18001928Y-16800414D01*
X18030500Y-16814700D01*
X18144786Y-17114700D02*
X18159071Y-17100414D01*
X18187643Y-17057557D01*
X18201928Y-17028986D01*
X18216214Y-16986129D01*
X18230500Y-16914700D01*
X18230500Y-16857557D01*
X18216214Y-16786129D01*
X18201928Y-16743271D01*
X18187643Y-16714700D01*
X18159071Y-16671843D01*
X18144786Y-16657557D01*
X8067906Y-17409606D02*
X8067906Y-17179794D01*
X7838094Y-17179794D01*
X7838094Y-17409606D01*
X8067906Y-17409606D01*
X8373357Y-17130414D02*
X8559071Y-17130414D01*
X8459071Y-17244700D01*
X8501928Y-17244700D01*
X8530500Y-17258986D01*
X8544786Y-17273272D01*
X8559071Y-17301843D01*
X8559071Y-17373272D01*
X8544786Y-17401843D01*
X8530500Y-17416129D01*
X8501928Y-17430414D01*
X8416214Y-17430414D01*
X8387643Y-17416129D01*
X8373357Y-17401843D01*
X8687643Y-17401843D02*
X8701928Y-17416129D01*
X8687643Y-17430414D01*
X8673357Y-17416129D01*
X8687643Y-17401843D01*
X8687643Y-17430414D01*
X8816214Y-17158986D02*
X8830500Y-17144700D01*
X8859071Y-17130414D01*
X8930500Y-17130414D01*
X8959071Y-17144700D01*
X8973357Y-17158986D01*
X8987643Y-17187557D01*
X8987643Y-17216129D01*
X8973357Y-17258986D01*
X8801928Y-17430414D01*
X8987643Y-17430414D01*
X9259071Y-17130414D02*
X9116214Y-17130414D01*
X9101928Y-17273272D01*
X9116214Y-17258986D01*
X9144786Y-17244700D01*
X9216214Y-17244700D01*
X9244786Y-17258986D01*
X9259071Y-17273272D01*
X9273357Y-17301843D01*
X9273357Y-17373272D01*
X9259071Y-17401843D01*
X9244786Y-17416129D01*
X9216214Y-17430414D01*
X9144786Y-17430414D01*
X9116214Y-17416129D01*
X9101928Y-17401843D01*
X9401928Y-17430414D02*
X9401928Y-17230414D01*
X9401928Y-17258986D02*
X9416214Y-17244700D01*
X9444786Y-17230414D01*
X9487643Y-17230414D01*
X9516214Y-17244700D01*
X9530500Y-17273272D01*
X9530500Y-17430414D01*
X9530500Y-17273272D02*
X9544786Y-17244700D01*
X9573357Y-17230414D01*
X9616214Y-17230414D01*
X9644786Y-17244700D01*
X9659071Y-17273272D01*
X9659071Y-17430414D01*
X9801928Y-17430414D02*
X9801928Y-17230414D01*
X9801928Y-17258986D02*
X9816214Y-17244700D01*
X9844786Y-17230414D01*
X9887643Y-17230414D01*
X9916214Y-17244700D01*
X9930500Y-17273272D01*
X9930500Y-17430414D01*
X9930500Y-17273272D02*
X9944786Y-17244700D01*
X9973357Y-17230414D01*
X10016214Y-17230414D01*
X10044786Y-17244700D01*
X10059071Y-17273272D01*
X10059071Y-17430414D01*
X10644786Y-17116129D02*
X10387643Y-17501843D01*
X11030500Y-17130414D02*
X11059071Y-17130414D01*
X11087643Y-17144700D01*
X11101928Y-17158986D01*
X11116214Y-17187557D01*
X11130500Y-17244700D01*
X11130500Y-17316129D01*
X11116214Y-17373272D01*
X11101928Y-17401843D01*
X11087643Y-17416129D01*
X11059071Y-17430414D01*
X11030500Y-17430414D01*
X11001928Y-17416129D01*
X10987643Y-17401843D01*
X10973357Y-17373272D01*
X10959071Y-17316129D01*
X10959071Y-17244700D01*
X10973357Y-17187557D01*
X10987643Y-17158986D01*
X11001928Y-17144700D01*
X11030500Y-17130414D01*
X11259071Y-17401843D02*
X11273357Y-17416129D01*
X11259071Y-17430414D01*
X11244786Y-17416129D01*
X11259071Y-17401843D01*
X11259071Y-17430414D01*
X11559071Y-17430414D02*
X11387643Y-17430414D01*
X11473357Y-17430414D02*
X11473357Y-17130414D01*
X11444786Y-17173272D01*
X11416214Y-17201843D01*
X11387643Y-17216129D01*
X11673357Y-17158986D02*
X11687643Y-17144700D01*
X11716214Y-17130414D01*
X11787643Y-17130414D01*
X11816214Y-17144700D01*
X11830500Y-17158986D01*
X11844786Y-17187557D01*
X11844786Y-17216129D01*
X11830500Y-17258986D01*
X11659071Y-17430414D01*
X11844786Y-17430414D01*
X12016214Y-17258986D02*
X11987643Y-17244700D01*
X11973357Y-17230414D01*
X11959071Y-17201843D01*
X11959071Y-17187557D01*
X11973357Y-17158986D01*
X11987643Y-17144700D01*
X12016214Y-17130414D01*
X12073357Y-17130414D01*
X12101928Y-17144700D01*
X12116214Y-17158986D01*
X12130500Y-17187557D01*
X12130500Y-17201843D01*
X12116214Y-17230414D01*
X12101928Y-17244700D01*
X12073357Y-17258986D01*
X12016214Y-17258986D01*
X11987643Y-17273272D01*
X11973357Y-17287557D01*
X11959071Y-17316129D01*
X11959071Y-17373272D01*
X11973357Y-17401843D01*
X11987643Y-17416129D01*
X12016214Y-17430414D01*
X12073357Y-17430414D01*
X12101928Y-17416129D01*
X12116214Y-17401843D01*
X12130500Y-17373272D01*
X12130500Y-17316129D01*
X12116214Y-17287557D01*
X12101928Y-17273272D01*
X12073357Y-17258986D01*
X12244786Y-17130414D02*
X12244786Y-17187557D01*
X12359071Y-17130414D02*
X12359071Y-17187557D01*
X12801928Y-17544700D02*
X12787643Y-17530414D01*
X12759071Y-17487557D01*
X12744786Y-17458986D01*
X12730500Y-17416129D01*
X12716214Y-17344700D01*
X12716214Y-17287557D01*
X12730500Y-17216129D01*
X12744786Y-17173272D01*
X12759071Y-17144700D01*
X12787643Y-17101843D01*
X12801928Y-17087557D01*
X13044786Y-17230414D02*
X13044786Y-17430414D01*
X12973357Y-17116129D02*
X12901928Y-17330414D01*
X13087643Y-17330414D01*
X13430500Y-17430414D02*
X13430500Y-17130414D01*
X13559071Y-17430414D02*
X13559071Y-17273272D01*
X13544786Y-17244700D01*
X13516214Y-17230414D01*
X13473357Y-17230414D01*
X13444786Y-17244700D01*
X13430500Y-17258986D01*
X13744786Y-17430414D02*
X13716214Y-17416129D01*
X13701928Y-17401843D01*
X13687643Y-17373272D01*
X13687643Y-17287557D01*
X13701928Y-17258986D01*
X13716214Y-17244700D01*
X13744786Y-17230414D01*
X13787643Y-17230414D01*
X13816214Y-17244700D01*
X13830500Y-17258986D01*
X13844786Y-17287557D01*
X13844786Y-17373272D01*
X13830500Y-17401843D01*
X13816214Y-17416129D01*
X13787643Y-17430414D01*
X13744786Y-17430414D01*
X14016214Y-17430414D02*
X13987643Y-17416129D01*
X13973357Y-17387557D01*
X13973357Y-17130414D01*
X14244786Y-17416129D02*
X14216214Y-17430414D01*
X14159071Y-17430414D01*
X14130500Y-17416129D01*
X14116214Y-17387557D01*
X14116214Y-17273272D01*
X14130500Y-17244700D01*
X14159071Y-17230414D01*
X14216214Y-17230414D01*
X14244786Y-17244700D01*
X14259071Y-17273272D01*
X14259071Y-17301843D01*
X14116214Y-17330414D01*
X14373357Y-17416129D02*
X14401928Y-17430414D01*
X14459071Y-17430414D01*
X14487643Y-17416129D01*
X14501928Y-17387557D01*
X14501928Y-17373272D01*
X14487643Y-17344700D01*
X14459071Y-17330414D01*
X14416214Y-17330414D01*
X14387643Y-17316129D01*
X14373357Y-17287557D01*
X14373357Y-17273272D01*
X14387643Y-17244700D01*
X14416214Y-17230414D01*
X14459071Y-17230414D01*
X14487643Y-17244700D01*
X14601928Y-17544700D02*
X14616214Y-17530414D01*
X14644786Y-17487557D01*
X14659071Y-17458986D01*
X14673357Y-17416129D01*
X14687643Y-17344700D01*
X14687643Y-17287557D01*
X14673357Y-17216129D01*
X14659071Y-17173272D01*
X14644786Y-17144700D01*
X14616214Y-17101843D01*
X14601928Y-17087557D01*
X15144786Y-17544700D02*
X15130500Y-17530414D01*
X15101928Y-17487557D01*
X15087643Y-17458986D01*
X15073357Y-17416129D01*
X15059071Y-17344700D01*
X15059071Y-17287557D01*
X15073357Y-17216129D01*
X15087643Y-17173272D01*
X15101928Y-17144700D01*
X15130500Y-17101843D01*
X15144786Y-17087557D01*
X15259071Y-17230414D02*
X15259071Y-17430414D01*
X15259071Y-17258986D02*
X15273357Y-17244700D01*
X15301928Y-17230414D01*
X15344786Y-17230414D01*
X15373357Y-17244700D01*
X15387643Y-17273272D01*
X15387643Y-17430414D01*
X15573357Y-17430414D02*
X15544786Y-17416129D01*
X15530500Y-17401843D01*
X15516214Y-17373272D01*
X15516214Y-17287557D01*
X15530500Y-17258986D01*
X15544786Y-17244700D01*
X15573357Y-17230414D01*
X15616214Y-17230414D01*
X15644786Y-17244700D01*
X15659071Y-17258986D01*
X15673357Y-17287557D01*
X15673357Y-17373272D01*
X15659071Y-17401843D01*
X15644786Y-17416129D01*
X15616214Y-17430414D01*
X15573357Y-17430414D01*
X15759071Y-17230414D02*
X15873357Y-17230414D01*
X15801928Y-17130414D02*
X15801928Y-17387557D01*
X15816214Y-17416129D01*
X15844786Y-17430414D01*
X15873357Y-17430414D01*
X16201928Y-17230414D02*
X16201928Y-17530414D01*
X16201928Y-17244700D02*
X16230500Y-17230414D01*
X16287643Y-17230414D01*
X16316214Y-17244700D01*
X16330500Y-17258986D01*
X16344786Y-17287557D01*
X16344786Y-17373272D01*
X16330500Y-17401843D01*
X16316214Y-17416129D01*
X16287643Y-17430414D01*
X16230500Y-17430414D01*
X16201928Y-17416129D01*
X16516214Y-17430414D02*
X16487643Y-17416129D01*
X16473357Y-17387557D01*
X16473357Y-17130414D01*
X16759071Y-17430414D02*
X16759071Y-17273272D01*
X16744786Y-17244700D01*
X16716214Y-17230414D01*
X16659071Y-17230414D01*
X16630500Y-17244700D01*
X16759071Y-17416129D02*
X16730500Y-17430414D01*
X16659071Y-17430414D01*
X16630500Y-17416129D01*
X16616214Y-17387557D01*
X16616214Y-17358986D01*
X16630500Y-17330414D01*
X16659071Y-17316129D01*
X16730500Y-17316129D01*
X16759071Y-17301843D01*
X16859071Y-17230414D02*
X16973357Y-17230414D01*
X16901928Y-17130414D02*
X16901928Y-17387557D01*
X16916214Y-17416129D01*
X16944786Y-17430414D01*
X16973357Y-17430414D01*
X17187643Y-17416129D02*
X17159071Y-17430414D01*
X17101928Y-17430414D01*
X17073357Y-17416129D01*
X17059071Y-17387557D01*
X17059071Y-17273272D01*
X17073357Y-17244700D01*
X17101928Y-17230414D01*
X17159071Y-17230414D01*
X17187643Y-17244700D01*
X17201928Y-17273272D01*
X17201928Y-17301843D01*
X17059071Y-17330414D01*
X17459071Y-17430414D02*
X17459071Y-17130414D01*
X17459071Y-17416129D02*
X17430500Y-17430414D01*
X17373357Y-17430414D01*
X17344786Y-17416129D01*
X17330500Y-17401843D01*
X17316214Y-17373272D01*
X17316214Y-17287557D01*
X17330500Y-17258986D01*
X17344786Y-17244700D01*
X17373357Y-17230414D01*
X17430500Y-17230414D01*
X17459071Y-17244700D01*
X17573357Y-17544700D02*
X17587643Y-17530414D01*
X17616214Y-17487557D01*
X17630500Y-17458986D01*
X17644786Y-17416129D01*
X17659071Y-17344700D01*
X17659071Y-17287557D01*
X17644786Y-17216129D01*
X17630500Y-17173272D01*
X17616214Y-17144700D01*
X17587643Y-17101843D01*
X17573357Y-17087557D01*
X7915500Y-17949700D02*
X8115500Y-17749700D01*
X7915500Y-17549700D01*
X7715500Y-17749700D01*
X7915500Y-17949700D01*
X8530500Y-17685414D02*
X8530500Y-17885414D01*
X8459071Y-17571129D02*
X8387643Y-17785414D01*
X8573357Y-17785414D01*
X8687643Y-17856843D02*
X8701928Y-17871129D01*
X8687643Y-17885414D01*
X8673357Y-17871129D01*
X8687643Y-17856843D01*
X8687643Y-17885414D01*
X8887643Y-17585414D02*
X8916214Y-17585414D01*
X8944786Y-17599700D01*
X8959071Y-17613986D01*
X8973357Y-17642557D01*
X8987643Y-17699700D01*
X8987643Y-17771129D01*
X8973357Y-17828272D01*
X8959071Y-17856843D01*
X8944786Y-17871129D01*
X8916214Y-17885414D01*
X8887643Y-17885414D01*
X8859071Y-17871129D01*
X8844786Y-17856843D01*
X8830500Y-17828272D01*
X8816214Y-17771129D01*
X8816214Y-17699700D01*
X8830500Y-17642557D01*
X8844786Y-17613986D01*
X8859071Y-17599700D01*
X8887643Y-17585414D01*
X9173357Y-17585414D02*
X9201928Y-17585414D01*
X9230500Y-17599700D01*
X9244786Y-17613986D01*
X9259071Y-17642557D01*
X9273357Y-17699700D01*
X9273357Y-17771129D01*
X9259071Y-17828272D01*
X9244786Y-17856843D01*
X9230500Y-17871129D01*
X9201928Y-17885414D01*
X9173357Y-17885414D01*
X9144786Y-17871129D01*
X9130500Y-17856843D01*
X9116214Y-17828272D01*
X9101928Y-17771129D01*
X9101928Y-17699700D01*
X9116214Y-17642557D01*
X9130500Y-17613986D01*
X9144786Y-17599700D01*
X9173357Y-17585414D01*
X9401928Y-17885414D02*
X9401928Y-17685414D01*
X9401928Y-17713986D02*
X9416214Y-17699700D01*
X9444786Y-17685414D01*
X9487643Y-17685414D01*
X9516214Y-17699700D01*
X9530500Y-17728272D01*
X9530500Y-17885414D01*
X9530500Y-17728272D02*
X9544786Y-17699700D01*
X9573357Y-17685414D01*
X9616214Y-17685414D01*
X9644786Y-17699700D01*
X9659071Y-17728272D01*
X9659071Y-17885414D01*
X9801928Y-17885414D02*
X9801928Y-17685414D01*
X9801928Y-17713986D02*
X9816214Y-17699700D01*
X9844786Y-17685414D01*
X9887643Y-17685414D01*
X9916214Y-17699700D01*
X9930500Y-17728272D01*
X9930500Y-17885414D01*
X9930500Y-17728272D02*
X9944786Y-17699700D01*
X9973357Y-17685414D01*
X10016214Y-17685414D01*
X10044786Y-17699700D01*
X10059071Y-17728272D01*
X10059071Y-17885414D01*
X10644786Y-17571129D02*
X10387643Y-17956843D01*
X11030500Y-17585414D02*
X11059071Y-17585414D01*
X11087643Y-17599700D01*
X11101928Y-17613986D01*
X11116214Y-17642557D01*
X11130500Y-17699700D01*
X11130500Y-17771129D01*
X11116214Y-17828272D01*
X11101928Y-17856843D01*
X11087643Y-17871129D01*
X11059071Y-17885414D01*
X11030500Y-17885414D01*
X11001928Y-17871129D01*
X10987643Y-17856843D01*
X10973357Y-17828272D01*
X10959071Y-17771129D01*
X10959071Y-17699700D01*
X10973357Y-17642557D01*
X10987643Y-17613986D01*
X11001928Y-17599700D01*
X11030500Y-17585414D01*
X11259071Y-17856843D02*
X11273357Y-17871129D01*
X11259071Y-17885414D01*
X11244786Y-17871129D01*
X11259071Y-17856843D01*
X11259071Y-17885414D01*
X11559071Y-17885414D02*
X11387643Y-17885414D01*
X11473357Y-17885414D02*
X11473357Y-17585414D01*
X11444786Y-17628272D01*
X11416214Y-17656843D01*
X11387643Y-17671129D01*
X11830500Y-17585414D02*
X11687643Y-17585414D01*
X11673357Y-17728272D01*
X11687643Y-17713986D01*
X11716214Y-17699700D01*
X11787643Y-17699700D01*
X11816214Y-17713986D01*
X11830500Y-17728272D01*
X11844786Y-17756843D01*
X11844786Y-17828272D01*
X11830500Y-17856843D01*
X11816214Y-17871129D01*
X11787643Y-17885414D01*
X11716214Y-17885414D01*
X11687643Y-17871129D01*
X11673357Y-17856843D01*
X11944786Y-17585414D02*
X12144786Y-17585414D01*
X12016214Y-17885414D01*
X12244786Y-17585414D02*
X12244786Y-17642557D01*
X12359071Y-17585414D02*
X12359071Y-17642557D01*
X12801928Y-17999700D02*
X12787643Y-17985414D01*
X12759071Y-17942557D01*
X12744786Y-17913986D01*
X12730500Y-17871129D01*
X12716214Y-17799700D01*
X12716214Y-17742557D01*
X12730500Y-17671129D01*
X12744786Y-17628272D01*
X12759071Y-17599700D01*
X12787643Y-17556843D01*
X12801928Y-17542557D01*
X12901928Y-17613986D02*
X12916214Y-17599700D01*
X12944786Y-17585414D01*
X13016214Y-17585414D01*
X13044786Y-17599700D01*
X13059071Y-17613986D01*
X13073357Y-17642557D01*
X13073357Y-17671129D01*
X13059071Y-17713986D01*
X12887643Y-17885414D01*
X13073357Y-17885414D01*
X13216214Y-17885414D02*
X13273357Y-17885414D01*
X13301928Y-17871129D01*
X13316214Y-17856843D01*
X13344786Y-17813986D01*
X13359071Y-17756843D01*
X13359071Y-17642557D01*
X13344786Y-17613986D01*
X13330500Y-17599700D01*
X13301928Y-17585414D01*
X13244786Y-17585414D01*
X13216214Y-17599700D01*
X13201928Y-17613986D01*
X13187643Y-17642557D01*
X13187643Y-17713986D01*
X13201928Y-17742557D01*
X13216214Y-17756843D01*
X13244786Y-17771129D01*
X13301928Y-17771129D01*
X13330500Y-17756843D01*
X13344786Y-17742557D01*
X13359071Y-17713986D01*
X13716214Y-17885414D02*
X13716214Y-17585414D01*
X13844786Y-17885414D02*
X13844786Y-17728272D01*
X13830500Y-17699700D01*
X13801928Y-17685414D01*
X13759071Y-17685414D01*
X13730500Y-17699700D01*
X13716214Y-17713986D01*
X14030500Y-17885414D02*
X14001928Y-17871129D01*
X13987643Y-17856843D01*
X13973357Y-17828272D01*
X13973357Y-17742557D01*
X13987643Y-17713986D01*
X14001928Y-17699700D01*
X14030500Y-17685414D01*
X14073357Y-17685414D01*
X14101928Y-17699700D01*
X14116214Y-17713986D01*
X14130500Y-17742557D01*
X14130500Y-17828272D01*
X14116214Y-17856843D01*
X14101928Y-17871129D01*
X14073357Y-17885414D01*
X14030500Y-17885414D01*
X14301928Y-17885414D02*
X14273357Y-17871129D01*
X14259071Y-17842557D01*
X14259071Y-17585414D01*
X14530500Y-17871129D02*
X14501928Y-17885414D01*
X14444786Y-17885414D01*
X14416214Y-17871129D01*
X14401928Y-17842557D01*
X14401928Y-17728272D01*
X14416214Y-17699700D01*
X14444786Y-17685414D01*
X14501928Y-17685414D01*
X14530500Y-17699700D01*
X14544786Y-17728272D01*
X14544786Y-17756843D01*
X14401928Y-17785414D01*
X14659071Y-17871129D02*
X14687643Y-17885414D01*
X14744786Y-17885414D01*
X14773357Y-17871129D01*
X14787643Y-17842557D01*
X14787643Y-17828272D01*
X14773357Y-17799700D01*
X14744786Y-17785414D01*
X14701928Y-17785414D01*
X14673357Y-17771129D01*
X14659071Y-17742557D01*
X14659071Y-17728272D01*
X14673357Y-17699700D01*
X14701928Y-17685414D01*
X14744786Y-17685414D01*
X14773357Y-17699700D01*
X14887643Y-17999700D02*
X14901928Y-17985414D01*
X14930500Y-17942557D01*
X14944786Y-17913986D01*
X14959071Y-17871129D01*
X14973357Y-17799700D01*
X14973357Y-17742557D01*
X14959071Y-17671129D01*
X14944786Y-17628272D01*
X14930500Y-17599700D01*
X14901928Y-17556843D01*
X14887643Y-17542557D01*
X15430500Y-17999700D02*
X15416214Y-17985414D01*
X15387643Y-17942557D01*
X15373357Y-17913986D01*
X15359071Y-17871129D01*
X15344786Y-17799700D01*
X15344786Y-17742557D01*
X15359071Y-17671129D01*
X15373357Y-17628272D01*
X15387643Y-17599700D01*
X15416214Y-17556843D01*
X15430500Y-17542557D01*
X15544786Y-17685414D02*
X15544786Y-17885414D01*
X15544786Y-17713986D02*
X15559071Y-17699700D01*
X15587643Y-17685414D01*
X15630500Y-17685414D01*
X15659071Y-17699700D01*
X15673357Y-17728272D01*
X15673357Y-17885414D01*
X15859071Y-17885414D02*
X15830500Y-17871129D01*
X15816214Y-17856843D01*
X15801928Y-17828272D01*
X15801928Y-17742557D01*
X15816214Y-17713986D01*
X15830500Y-17699700D01*
X15859071Y-17685414D01*
X15901928Y-17685414D01*
X15930500Y-17699700D01*
X15944786Y-17713986D01*
X15959071Y-17742557D01*
X15959071Y-17828272D01*
X15944786Y-17856843D01*
X15930500Y-17871129D01*
X15901928Y-17885414D01*
X15859071Y-17885414D01*
X16044786Y-17685414D02*
X16159071Y-17685414D01*
X16087643Y-17585414D02*
X16087643Y-17842557D01*
X16101928Y-17871129D01*
X16130500Y-17885414D01*
X16159071Y-17885414D01*
X16487643Y-17685414D02*
X16487643Y-17985414D01*
X16487643Y-17699700D02*
X16516214Y-17685414D01*
X16573357Y-17685414D01*
X16601928Y-17699700D01*
X16616214Y-17713986D01*
X16630500Y-17742557D01*
X16630500Y-17828272D01*
X16616214Y-17856843D01*
X16601928Y-17871129D01*
X16573357Y-17885414D01*
X16516214Y-17885414D01*
X16487643Y-17871129D01*
X16801928Y-17885414D02*
X16773357Y-17871129D01*
X16759071Y-17842557D01*
X16759071Y-17585414D01*
X17044786Y-17885414D02*
X17044786Y-17728272D01*
X17030500Y-17699700D01*
X17001928Y-17685414D01*
X16944786Y-17685414D01*
X16916214Y-17699700D01*
X17044786Y-17871129D02*
X17016214Y-17885414D01*
X16944786Y-17885414D01*
X16916214Y-17871129D01*
X16901928Y-17842557D01*
X16901928Y-17813986D01*
X16916214Y-17785414D01*
X16944786Y-17771129D01*
X17016214Y-17771129D01*
X17044786Y-17756843D01*
X17144786Y-17685414D02*
X17259071Y-17685414D01*
X17187643Y-17585414D02*
X17187643Y-17842557D01*
X17201928Y-17871129D01*
X17230500Y-17885414D01*
X17259071Y-17885414D01*
X17473357Y-17871129D02*
X17444786Y-17885414D01*
X17387643Y-17885414D01*
X17359071Y-17871129D01*
X17344786Y-17842557D01*
X17344786Y-17728272D01*
X17359071Y-17699700D01*
X17387643Y-17685414D01*
X17444786Y-17685414D01*
X17473357Y-17699700D01*
X17487643Y-17728272D01*
X17487643Y-17756843D01*
X17344786Y-17785414D01*
X17744786Y-17885414D02*
X17744786Y-17585414D01*
X17744786Y-17871129D02*
X17716214Y-17885414D01*
X17659071Y-17885414D01*
X17630500Y-17871129D01*
X17616214Y-17856843D01*
X17601928Y-17828272D01*
X17601928Y-17742557D01*
X17616214Y-17713986D01*
X17630500Y-17699700D01*
X17659071Y-17685414D01*
X17716214Y-17685414D01*
X17744786Y-17699700D01*
X17859071Y-17999700D02*
X17873357Y-17985414D01*
X17901928Y-17942557D01*
X17916214Y-17913986D01*
X17930500Y-17871129D01*
X17944786Y-17799700D01*
X17944786Y-17742557D01*
X17930500Y-17671129D01*
X17916214Y-17628272D01*
X17901928Y-17599700D01*
X17873357Y-17556843D01*
X17859071Y-17542557D01*
M02*
