## Footprint report - date 02/06/21 18:30:15
## Created by Pcbnew version kicad (5.1.9)-1
## Unit = mm, Angle = deg.

$BeginDESCRIPTION

$BOARD
upper_left_corner 45.453293 -45.002765
lower_right_corner 224.805001 151.127001
$EndBOARD

$MODULE "REF**"
reference "REF**"
value "Panasonic_EVQPUL_EVQPUC"
footprint "Button_Switch_SMD:Panasonic_EVQPUL_EVQPUC"
attribut smd
position 100.336228 42.680970  orientation 0.00
layer front
$PAD ""
Shape Circle Layer both
position  0.000000 -1.375000  size  0.750000  0.750000  orientation 180.00
drill  0.750000
shape_offset  0.000000  0.000000
$EndPAD
$PAD ""
Shape Circle Layer both
position  0.000000  1.375000  size  0.750000  0.750000  orientation 180.00
drill  0.750000
shape_offset  0.000000  0.000000
$EndPAD
$PAD "1"
Shape Rect Layer front
position  2.625000 -0.850000  size  1.550000  1.000000  orientation 180.00
drill  0.000000
shape_offset  0.000000  0.000000
$EndPAD
$PAD "1"
Shape Rect Layer front
position -2.625000 -0.850000  size  1.550000  1.000000  orientation 180.00
drill  0.000000
shape_offset  0.000000  0.000000
$EndPAD
$PAD "2"
Shape Rect Layer front
position -2.625000  0.850000  size  1.550000  1.000000  orientation 180.00
drill  0.000000
shape_offset  0.000000  0.000000
$EndPAD
$PAD "2"
Shape Rect Layer front
position  2.625000  0.850000  size  1.550000  1.000000  orientation 180.00
drill  0.000000
shape_offset  0.000000  0.000000
$EndPAD
$EndMODULE  REF**

$MODULE "REF**"
reference "REF**"
value "Panasonic_EVQPUL_EVQPUC"
footprint "Button_Switch_SMD:Panasonic_EVQPUL_EVQPUC"
attribut smd
position 100.352147 42.695691  orientation 180.00
layer back
$PAD ""
Shape Circle Layer both
position  0.000000  1.375000  size  0.750000  0.750000  orientation -180.00
drill  0.750000
shape_offset  0.000000  0.000000
$EndPAD
$PAD ""
Shape Circle Layer both
position  0.000000 -1.375000  size  0.750000  0.750000  orientation -180.00
drill  0.750000
shape_offset  0.000000  0.000000
$EndPAD
$PAD "1"
Shape Rect Layer back
position  2.625000  0.850000  size  1.550000  1.000000  orientation -180.00
drill  0.000000
shape_offset  0.000000  0.000000
$EndPAD
$PAD "1"
Shape Rect Layer back
position -2.625000  0.850000  size  1.550000  1.000000  orientation -180.00
drill  0.000000
shape_offset  0.000000  0.000000
$EndPAD
$PAD "2"
Shape Rect Layer back
position -2.625000 -0.850000  size  1.550000  1.000000  orientation -180.00
drill  0.000000
shape_offset  0.000000  0.000000
$EndPAD
$PAD "2"
Shape Rect Layer back
position  2.625000 -0.850000  size  1.550000  1.000000  orientation -180.00
drill  0.000000
shape_offset  0.000000  0.000000
$EndPAD
$EndMODULE  REF**

$MODULE "REF**"
reference "REF**"
value "RJ12_Amphenol_54601"
footprint "Connector_RJ:RJ12_Amphenol_54601"
attribut none
position 103.740000 87.112000  orientation 90.00
layer back
$PAD "1"
Shape Rect Layer both
position  0.000000  0.000000  size  1.520000  1.520000  orientation 0.00
drill  0.760000
shape_offset  0.000000  0.000000
$EndPAD
$PAD ""
Shape Circle Layer both
position -1.910000 -8.890000  size  3.250000  3.250000  orientation 0.00
drill  3.250000
shape_offset  0.000000  0.000000
$EndPAD
$PAD "2"
Shape Circle Layer both
position  1.270000 -2.540000  size  1.520000  1.520000  orientation 0.00
drill  0.760000
shape_offset  0.000000  0.000000
$EndPAD
$PAD "3"
Shape Circle Layer both
position  2.540000  0.000000  size  1.520000  1.520000  orientation 0.00
drill  0.760000
shape_offset  0.000000  0.000000
$EndPAD
$PAD "4"
Shape Circle Layer both
position  3.810000 -2.540000  size  1.520000  1.520000  orientation 0.00
drill  0.760000
shape_offset  0.000000  0.000000
$EndPAD
$PAD "5"
Shape Circle Layer both
position  5.080000  0.000000  size  1.520000  1.520000  orientation 0.00
drill  0.760000
shape_offset  0.000000  0.000000
$EndPAD
$PAD "6"
Shape Circle Layer both
position  6.350000 -2.540000  size  1.520000  1.520000  orientation 0.00
drill  0.760000
shape_offset  0.000000  0.000000
$EndPAD
$PAD ""
Shape Circle Layer both
position  8.250000 -8.890000  size  3.250000  3.250000  orientation 0.00
drill  3.250000
shape_offset  0.000000  0.000000
$EndPAD
$EndMODULE  REF**

$MODULE "REF**"
reference "REF**"
value "RJ12_Amphenol_54601"
footprint "Connector_RJ:RJ12_Amphenol_54601"
attribut none
position 103.730000 79.492000  orientation 270.00
layer front
$PAD "1"
Shape Rect Layer both
position  0.000000  0.000000  size  1.520000  1.520000  orientation 0.00
drill  0.760000
shape_offset  0.000000  0.000000
$EndPAD
$PAD ""
Shape Circle Layer both
position -1.910000  8.890000  size  3.250000  3.250000  orientation 0.00
drill  3.250000
shape_offset  0.000000  0.000000
$EndPAD
$PAD "2"
Shape Circle Layer both
position  1.270000  2.540000  size  1.520000  1.520000  orientation 0.00
drill  0.760000
shape_offset  0.000000  0.000000
$EndPAD
$PAD "3"
Shape Circle Layer both
position  2.540000  0.000000  size  1.520000  1.520000  orientation 0.00
drill  0.760000
shape_offset  0.000000  0.000000
$EndPAD
$PAD "4"
Shape Circle Layer both
position  3.810000  2.540000  size  1.520000  1.520000  orientation 0.00
drill  0.760000
shape_offset  0.000000  0.000000
$EndPAD
$PAD "5"
Shape Circle Layer both
position  5.080000  0.000000  size  1.520000  1.520000  orientation 0.00
drill  0.760000
shape_offset  0.000000  0.000000
$EndPAD
$PAD "6"
Shape Circle Layer both
position  6.350000  2.540000  size  1.520000  1.520000  orientation 0.00
drill  0.760000
shape_offset  0.000000  0.000000
$EndPAD
$PAD ""
Shape Circle Layer both
position  8.250000  8.890000  size  3.250000  3.250000  orientation 0.00
drill  3.250000
shape_offset  0.000000  0.000000
$EndPAD
$EndMODULE  REF**

$MODULE "Ref**"
reference "Ref**"
value "Val**"
footprint "SofleKeyboard-footprint:SofleLogoSmall"
attribut none
position 205.280000 89.752000  orientation 180.00
layer back
$EndMODULE  Ref**

$MODULE "Ref**"
reference "Ref**"
value "Val**"
footprint "SofleKeyboard-footprint:SofleLogoSmall"
attribut none
position 206.780000 89.752000  orientation 0.00
layer front
$EndMODULE  Ref**

$MODULE "Ref**"
reference "Ref**"
value "Val**"
footprint "SofleKeyboard-footprint:SofleLogoSmall"
attribut none
position 95.230000 125.902000  orientation 180.00
layer back
$EndMODULE  Ref**

$MODULE "Ref**"
reference "Ref**"
value "Val**"
footprint "SofleKeyboard-footprint:SofleLogoSmall"
attribut none
position 96.880000 125.952000  orientation 0.00
layer front
$EndMODULE  Ref**

$MODULE "U1"
reference "U1"
value "ProMicro"
footprint "SofleKeyboard-footprint:ArduinoProMicro-ZigZag-DoubleSided"
attribut none
position 100.000000 56.710000  orientation 270.00
layer front
$PAD "24"
Shape Circle Layer both
position -13.970000 -7.848600  size  1.752600  1.752600  orientation 0.00
drill  1.092200
shape_offset  0.000000  0.000000
$EndPAD
$PAD "12"
Shape Circle Layer both
position 13.970000  7.391400  size  1.752600  1.752600  orientation 0.00
drill  1.092200
shape_offset  0.000000  0.000000
$EndPAD
$PAD "23"
Shape Circle Layer both
position -11.430000 -7.391400  size  1.752600  1.752600  orientation 0.00
drill  1.092200
shape_offset  0.000000  0.000000
$EndPAD
$PAD "22"
Shape Circle Layer both
position -8.890000 -7.848600  size  1.752600  1.752600  orientation 0.00
drill  1.092200
shape_offset  0.000000  0.000000
$EndPAD
$PAD "21"
Shape Circle Layer both
position -6.350000 -7.391400  size  1.752600  1.752600  orientation 0.00
drill  1.092200
shape_offset  0.000000  0.000000
$EndPAD
$PAD "20"
Shape Circle Layer both
position -3.810000 -7.848600  size  1.752600  1.752600  orientation 0.00
drill  1.092200
shape_offset  0.000000  0.000000
$EndPAD
$PAD "19"
Shape Circle Layer both
position -1.270000 -7.391400  size  1.752600  1.752600  orientation 0.00
drill  1.092200
shape_offset  0.000000  0.000000
$EndPAD
$PAD "18"
Shape Circle Layer both
position  1.270000 -7.848600  size  1.752600  1.752600  orientation 0.00
drill  1.092200
shape_offset  0.000000  0.000000
$EndPAD
$PAD "17"
Shape Circle Layer both
position  3.810000 -7.391400  size  1.752600  1.752600  orientation 0.00
drill  1.092200
shape_offset  0.000000  0.000000
$EndPAD
$PAD "16"
Shape Circle Layer both
position  6.350000 -7.848600  size  1.752600  1.752600  orientation 0.00
drill  1.092200
shape_offset  0.000000  0.000000
$EndPAD
$PAD "15"
Shape Circle Layer both
position  8.890000 -7.391400  size  1.752600  1.752600  orientation 0.00
drill  1.092200
shape_offset  0.000000  0.000000
$EndPAD
$PAD "14"
Shape Circle Layer both
position 11.430000 -7.848600  size  1.752600  1.752600  orientation 0.00
drill  1.092200
shape_offset  0.000000  0.000000
$EndPAD
$PAD "13"
Shape Circle Layer both
position 13.970000 -7.391400  size  1.752600  1.752600  orientation 0.00
drill  1.092200
shape_offset  0.000000  0.000000
$EndPAD
$PAD "11"
Shape Circle Layer both
position 11.430000  7.848600  size  1.752600  1.752600  orientation 0.00
drill  1.092200
shape_offset  0.000000  0.000000
$EndPAD
$PAD "10"
Shape Circle Layer both
position  8.890000  7.391400  size  1.752600  1.752600  orientation 0.00
drill  1.092200
shape_offset  0.000000  0.000000
$EndPAD
$PAD "9"
Shape Circle Layer both
position  6.350000  7.848600  size  1.752600  1.752600  orientation 0.00
drill  1.092200
shape_offset  0.000000  0.000000
$EndPAD
$PAD "8"
Shape Circle Layer both
position  3.810000  7.391400  size  1.752600  1.752600  orientation 0.00
drill  1.092200
shape_offset  0.000000  0.000000
$EndPAD
$PAD "7"
Shape Circle Layer both
position  1.270000  7.848600  size  1.752600  1.752600  orientation 0.00
drill  1.092200
shape_offset  0.000000  0.000000
$EndPAD
$PAD "6"
Shape Circle Layer both
position -1.270000  7.391400  size  1.752600  1.752600  orientation 0.00
drill  1.092200
shape_offset  0.000000  0.000000
$EndPAD
$PAD "5"
Shape Circle Layer both
position -3.810000  7.848600  size  1.752600  1.752600  orientation 0.00
drill  1.092200
shape_offset  0.000000  0.000000
$EndPAD
$PAD "4"
Shape Circle Layer both
position -6.350000  7.391400  size  1.752600  1.752600  orientation 0.00
drill  1.092200
shape_offset  0.000000  0.000000
$EndPAD
$PAD "3"
Shape Circle Layer both
position -8.890000  7.848600  size  1.752600  1.752600  orientation 0.00
drill  1.092200
shape_offset  0.000000  0.000000
$EndPAD
$PAD "2"
Shape Circle Layer both
position -11.430000  7.391400  size  1.752600  1.752600  orientation 0.00
drill  1.092200
shape_offset  0.000000  0.000000
$EndPAD
$PAD "1"
Shape Rect Layer both
position -13.970000  7.848600  size  1.752600  1.752600  orientation 0.00
drill  1.092200
shape_offset  0.000000  0.000000
$EndPAD
$EndMODULE  U1

$MODULE "SW26"
reference "SW26"
value "SW_PUSH"
footprint "SofleKeyboard-footprint:CherryMX_Hotswap_1.5"
attribut none
position 96.700000 133.410000  orientation 300.00
layer front
$PAD "1"
Shape CustomShape Layer front
position -7.200000 -5.100000  size  0.700000  1.500000  orientation 0.00
drill  0.000000
shape_offset  0.000000  0.000000
$EndPAD
$PAD "2"
Shape CustomShape Layer back
position  7.200000 -5.100000  size  0.700000  1.500000  orientation 0.00
drill  0.000000
shape_offset  0.000000  0.000000
$EndPAD
$PAD "1"
Shape CustomShape Layer back
position -8.500000 -2.500000  size  0.700000  1.500000  orientation 0.00
drill  0.000000
shape_offset  0.000000  0.000000
$EndPAD
$PAD "2"
Shape CustomShape Layer front
position  8.500000 -2.500000  size  0.700000  1.500000  orientation 0.00
drill  0.000000
shape_offset  0.000000  0.000000
$EndPAD
$PAD ""
Shape Circle Layer both
position -3.810000 -2.540001  size  3.000000  3.000000  orientation -180.00
drill  3.000000
shape_offset  0.000000  0.000000
$EndPAD
$PAD ""
Shape Circle Layer both
position -5.080000  0.000000  size  1.700000  1.700000  orientation 0.00
drill  1.700000
shape_offset  0.000000  0.000000
$EndPAD
$PAD ""
Shape Circle Layer both
position  5.080000  0.000000  size  1.700000  1.700000  orientation 0.00
drill  1.700000
shape_offset  0.000000  0.000000
$EndPAD
$PAD ""
Shape Circle Layer both
position  0.000000  0.000000  size  4.000000  4.000000  orientation -270.00
drill  4.000000
shape_offset  0.000000  0.000000
$EndPAD
$PAD ""
Shape Circle Layer both
position  2.540000 -5.080000  size  3.000000  3.000000  orientation -180.00
drill  3.000000
shape_offset  0.000000  0.000000
$EndPAD
$PAD ""
Shape Circle Layer both
position -2.540000 -5.080000  size  3.000000  3.000000  orientation -180.00
drill  3.000000
shape_offset  0.000000  0.000000
$EndPAD
$PAD ""
Shape Circle Layer both
position  3.810000 -2.540000  size  3.000000  3.000000  orientation -180.00
drill  3.000000
shape_offset  0.000000  0.000000
$EndPAD
$EndMODULE  SW26

$MODULE "SW30"
reference "SW30"
value "SW_PUSH"
footprint "SofleKeyboard-footprint:CherryMX_Hotswap"
attribut none
position 177.500000 123.700000  orientation 0.00
layer front
$PAD "1"
Shape CustomShape Layer front
position -7.200000 -5.100000  size  0.700000  1.500000  orientation 0.00
drill  0.000000
shape_offset  0.000000  0.000000
$EndPAD
$PAD "2"
Shape CustomShape Layer back
position  7.200000 -5.100000  size  0.700000  1.500000  orientation 0.00
drill  0.000000
shape_offset  0.000000  0.000000
$EndPAD
$PAD "1"
Shape CustomShape Layer back
position -8.500000 -2.500000  size  0.700000  1.500000  orientation 0.00
drill  0.000000
shape_offset  0.000000  0.000000
$EndPAD
$PAD "2"
Shape CustomShape Layer front
position  8.500000 -2.500000  size  0.700000  1.500000  orientation 0.00
drill  0.000000
shape_offset  0.000000  0.000000
$EndPAD
$PAD ""
Shape Circle Layer both
position -3.810000 -2.540001  size  3.000000  3.000000  orientation 180.00
drill  3.000000
shape_offset  0.000000  0.000000
$EndPAD
$PAD ""
Shape Circle Layer both
position -5.080000  0.000000  size  1.700000  1.700000  orientation 0.00
drill  1.700000
shape_offset  0.000000  0.000000
$EndPAD
$PAD ""
Shape Circle Layer both
position  5.080000  0.000000  size  1.700000  1.700000  orientation 0.00
drill  1.700000
shape_offset  0.000000  0.000000
$EndPAD
$PAD ""
Shape Circle Layer both
position  0.000000  0.000000  size  4.000000  4.000000  orientation 90.00
drill  4.000000
shape_offset  0.000000  0.000000
$EndPAD
$PAD ""
Shape Circle Layer both
position  2.540000 -5.080000  size  3.000000  3.000000  orientation 180.00
drill  3.000000
shape_offset  0.000000  0.000000
$EndPAD
$PAD ""
Shape Circle Layer both
position -2.540000 -5.080000  size  3.000000  3.000000  orientation 180.00
drill  3.000000
shape_offset  0.000000  0.000000
$EndPAD
$PAD ""
Shape Circle Layer both
position  3.810000 -2.540000  size  3.000000  3.000000  orientation 180.00
drill  3.000000
shape_offset  0.000000  0.000000
$EndPAD
$EndMODULE  SW30

$MODULE "SW29"
reference "SW29"
value "SW_PUSH"
footprint "SofleKeyboard-footprint:CherryMX_Hotswap"
attribut none
position 158.500000 121.200000  orientation 0.00
layer front
$PAD "1"
Shape CustomShape Layer front
position -7.200000 -5.100000  size  0.700000  1.500000  orientation 0.00
drill  0.000000
shape_offset  0.000000  0.000000
$EndPAD
$PAD "2"
Shape CustomShape Layer back
position  7.200000 -5.100000  size  0.700000  1.500000  orientation 0.00
drill  0.000000
shape_offset  0.000000  0.000000
$EndPAD
$PAD "1"
Shape CustomShape Layer back
position -8.500000 -2.500000  size  0.700000  1.500000  orientation 0.00
drill  0.000000
shape_offset  0.000000  0.000000
$EndPAD
$PAD "2"
Shape CustomShape Layer front
position  8.500000 -2.500000  size  0.700000  1.500000  orientation 0.00
drill  0.000000
shape_offset  0.000000  0.000000
$EndPAD
$PAD ""
Shape Circle Layer both
position -3.810000 -2.540001  size  3.000000  3.000000  orientation 180.00
drill  3.000000
shape_offset  0.000000  0.000000
$EndPAD
$PAD ""
Shape Circle Layer both
position -5.080000  0.000000  size  1.700000  1.700000  orientation 0.00
drill  1.700000
shape_offset  0.000000  0.000000
$EndPAD
$PAD ""
Shape Circle Layer both
position  5.080000  0.000000  size  1.700000  1.700000  orientation 0.00
drill  1.700000
shape_offset  0.000000  0.000000
$EndPAD
$PAD ""
Shape Circle Layer both
position  0.000000  0.000000  size  4.000000  4.000000  orientation 90.00
drill  4.000000
shape_offset  0.000000  0.000000
$EndPAD
$PAD ""
Shape Circle Layer both
position  2.540000 -5.080000  size  3.000000  3.000000  orientation 180.00
drill  3.000000
shape_offset  0.000000  0.000000
$EndPAD
$PAD ""
Shape Circle Layer both
position -2.540000 -5.080000  size  3.000000  3.000000  orientation 180.00
drill  3.000000
shape_offset  0.000000  0.000000
$EndPAD
$PAD ""
Shape Circle Layer both
position  3.810000 -2.540000  size  3.000000  3.000000  orientation 180.00
drill  3.000000
shape_offset  0.000000  0.000000
$EndPAD
$EndMODULE  SW29

$MODULE "SW28"
reference "SW28"
value "SW_PUSH"
footprint "SofleKeyboard-footprint:CherryMX_Hotswap"
attribut none
position 139.500000 123.800000  orientation 0.00
layer front
$PAD "1"
Shape CustomShape Layer front
position -7.200000 -5.100000  size  0.700000  1.500000  orientation 0.00
drill  0.000000
shape_offset  0.000000  0.000000
$EndPAD
$PAD "2"
Shape CustomShape Layer back
position  7.200000 -5.100000  size  0.700000  1.500000  orientation 0.00
drill  0.000000
shape_offset  0.000000  0.000000
$EndPAD
$PAD "1"
Shape CustomShape Layer back
position -8.500000 -2.500000  size  0.700000  1.500000  orientation 0.00
drill  0.000000
shape_offset  0.000000  0.000000
$EndPAD
$PAD "2"
Shape CustomShape Layer front
position  8.500000 -2.500000  size  0.700000  1.500000  orientation 0.00
drill  0.000000
shape_offset  0.000000  0.000000
$EndPAD
$PAD ""
Shape Circle Layer both
position -3.810000 -2.540001  size  3.000000  3.000000  orientation 180.00
drill  3.000000
shape_offset  0.000000  0.000000
$EndPAD
$PAD ""
Shape Circle Layer both
position -5.080000  0.000000  size  1.700000  1.700000  orientation 0.00
drill  1.700000
shape_offset  0.000000  0.000000
$EndPAD
$PAD ""
Shape Circle Layer both
position  5.080000  0.000000  size  1.700000  1.700000  orientation 0.00
drill  1.700000
shape_offset  0.000000  0.000000
$EndPAD
$PAD ""
Shape Circle Layer both
position  0.000000  0.000000  size  4.000000  4.000000  orientation 90.00
drill  4.000000
shape_offset  0.000000  0.000000
$EndPAD
$PAD ""
Shape Circle Layer both
position  2.540000 -5.080000  size  3.000000  3.000000  orientation 180.00
drill  3.000000
shape_offset  0.000000  0.000000
$EndPAD
$PAD ""
Shape Circle Layer both
position -2.540000 -5.080000  size  3.000000  3.000000  orientation 180.00
drill  3.000000
shape_offset  0.000000  0.000000
$EndPAD
$PAD ""
Shape Circle Layer both
position  3.810000 -2.540000  size  3.000000  3.000000  orientation 180.00
drill  3.000000
shape_offset  0.000000  0.000000
$EndPAD
$EndMODULE  SW28

$MODULE "SW27"
reference "SW27"
value "SW_PUSH"
footprint "SofleKeyboard-footprint:CherryMX_Hotswap"
attribut none
position 117.600000 128.400000  orientation 23.00
layer front
$PAD "1"
Shape CustomShape Layer front
position -7.200000 -5.100000  size  0.700000  1.500000  orientation 0.00
drill  0.000000
shape_offset  0.000000  0.000000
$EndPAD
$PAD "2"
Shape CustomShape Layer back
position  7.200000 -5.100000  size  0.700000  1.500000  orientation 0.00
drill  0.000000
shape_offset  0.000000  0.000000
$EndPAD
$PAD "1"
Shape CustomShape Layer back
position -8.500000 -2.500000  size  0.700000  1.500000  orientation 0.00
drill  0.000000
shape_offset  0.000000  0.000000
$EndPAD
$PAD "2"
Shape CustomShape Layer front
position  8.500000 -2.500000  size  0.700000  1.500000  orientation 0.00
drill  0.000000
shape_offset  0.000000  0.000000
$EndPAD
$PAD ""
Shape Circle Layer both
position -3.810000 -2.540001  size  3.000000  3.000000  orientation 180.00
drill  3.000000
shape_offset  0.000000  0.000000
$EndPAD
$PAD ""
Shape Circle Layer both
position -5.080000  0.000000  size  1.700000  1.700000  orientation 0.00
drill  1.700000
shape_offset  0.000000  0.000000
$EndPAD
$PAD ""
Shape Circle Layer both
position  5.080000  0.000000  size  1.700000  1.700000  orientation 0.00
drill  1.700000
shape_offset  0.000000  0.000000
$EndPAD
$PAD ""
Shape Circle Layer both
position  0.000000  0.000000  size  4.000000  4.000000  orientation 90.00
drill  4.000000
shape_offset  0.000000  0.000000
$EndPAD
$PAD ""
Shape Circle Layer both
position  2.540000 -5.080000  size  3.000000  3.000000  orientation 180.00
drill  3.000000
shape_offset  0.000000  0.000000
$EndPAD
$PAD ""
Shape Circle Layer both
position -2.540000 -5.080000  size  3.000000  3.000000  orientation 180.00
drill  3.000000
shape_offset  0.000000  0.000000
$EndPAD
$PAD ""
Shape Circle Layer both
position  3.810000 -2.540000  size  3.000000  3.000000  orientation 180.00
drill  3.000000
shape_offset  0.000000  0.000000
$EndPAD
$EndMODULE  SW27

$MODULE "SW24"
reference "SW24"
value "SW_PUSH"
footprint "SofleKeyboard-footprint:CherryMX_Hotswap"
attribut none
position 215.550000 113.600000  orientation 0.00
layer front
$PAD "1"
Shape CustomShape Layer front
position -7.200000 -5.100000  size  0.700000  1.500000  orientation 0.00
drill  0.000000
shape_offset  0.000000  0.000000
$EndPAD
$PAD "2"
Shape CustomShape Layer back
position  7.200000 -5.100000  size  0.700000  1.500000  orientation 0.00
drill  0.000000
shape_offset  0.000000  0.000000
$EndPAD
$PAD "1"
Shape CustomShape Layer back
position -8.500000 -2.500000  size  0.700000  1.500000  orientation 0.00
drill  0.000000
shape_offset  0.000000  0.000000
$EndPAD
$PAD "2"
Shape CustomShape Layer front
position  8.500000 -2.500000  size  0.700000  1.500000  orientation 0.00
drill  0.000000
shape_offset  0.000000  0.000000
$EndPAD
$PAD ""
Shape Circle Layer both
position -3.810000 -2.540001  size  3.000000  3.000000  orientation 180.00
drill  3.000000
shape_offset  0.000000  0.000000
$EndPAD
$PAD ""
Shape Circle Layer both
position -5.080000  0.000000  size  1.700000  1.700000  orientation 0.00
drill  1.700000
shape_offset  0.000000  0.000000
$EndPAD
$PAD ""
Shape Circle Layer both
position  5.080000  0.000000  size  1.700000  1.700000  orientation 0.00
drill  1.700000
shape_offset  0.000000  0.000000
$EndPAD
$PAD ""
Shape Circle Layer both
position  0.000000  0.000000  size  4.000000  4.000000  orientation 90.00
drill  4.000000
shape_offset  0.000000  0.000000
$EndPAD
$PAD ""
Shape Circle Layer both
position  2.540000 -5.080000  size  3.000000  3.000000  orientation 180.00
drill  3.000000
shape_offset  0.000000  0.000000
$EndPAD
$PAD ""
Shape Circle Layer both
position -2.540000 -5.080000  size  3.000000  3.000000  orientation 180.00
drill  3.000000
shape_offset  0.000000  0.000000
$EndPAD
$PAD ""
Shape Circle Layer both
position  3.810000 -2.540000  size  3.000000  3.000000  orientation 180.00
drill  3.000000
shape_offset  0.000000  0.000000
$EndPAD
$EndMODULE  SW24

$MODULE "SW23"
reference "SW23"
value "SW_PUSH"
footprint "SofleKeyboard-footprint:CherryMX_Hotswap"
attribut none
position 196.500000 113.600000  orientation 0.00
layer front
$PAD "1"
Shape CustomShape Layer front
position -7.200000 -5.100000  size  0.700000  1.500000  orientation 0.00
drill  0.000000
shape_offset  0.000000  0.000000
$EndPAD
$PAD "2"
Shape CustomShape Layer back
position  7.200000 -5.100000  size  0.700000  1.500000  orientation 0.00
drill  0.000000
shape_offset  0.000000  0.000000
$EndPAD
$PAD "1"
Shape CustomShape Layer back
position -8.500000 -2.500000  size  0.700000  1.500000  orientation 0.00
drill  0.000000
shape_offset  0.000000  0.000000
$EndPAD
$PAD "2"
Shape CustomShape Layer front
position  8.500000 -2.500000  size  0.700000  1.500000  orientation 0.00
drill  0.000000
shape_offset  0.000000  0.000000
$EndPAD
$PAD ""
Shape Circle Layer both
position -3.810000 -2.540001  size  3.000000  3.000000  orientation 180.00
drill  3.000000
shape_offset  0.000000  0.000000
$EndPAD
$PAD ""
Shape Circle Layer both
position -5.080000  0.000000  size  1.700000  1.700000  orientation 0.00
drill  1.700000
shape_offset  0.000000  0.000000
$EndPAD
$PAD ""
Shape Circle Layer both
position  5.080000  0.000000  size  1.700000  1.700000  orientation 0.00
drill  1.700000
shape_offset  0.000000  0.000000
$EndPAD
$PAD ""
Shape Circle Layer both
position  0.000000  0.000000  size  4.000000  4.000000  orientation 90.00
drill  4.000000
shape_offset  0.000000  0.000000
$EndPAD
$PAD ""
Shape Circle Layer both
position  2.540000 -5.080000  size  3.000000  3.000000  orientation 180.00
drill  3.000000
shape_offset  0.000000  0.000000
$EndPAD
$PAD ""
Shape Circle Layer both
position -2.540000 -5.080000  size  3.000000  3.000000  orientation 180.00
drill  3.000000
shape_offset  0.000000  0.000000
$EndPAD
$PAD ""
Shape Circle Layer both
position  3.810000 -2.540000  size  3.000000  3.000000  orientation 180.00
drill  3.000000
shape_offset  0.000000  0.000000
$EndPAD
$EndMODULE  SW23

$MODULE "SW22"
reference "SW22"
value "SW_PUSH"
footprint "SofleKeyboard-footprint:CherryMX_Hotswap"
attribut none
position 177.500000 104.700000  orientation 0.00
layer front
$PAD "1"
Shape CustomShape Layer front
position -7.200000 -5.100000  size  0.700000  1.500000  orientation 0.00
drill  0.000000
shape_offset  0.000000  0.000000
$EndPAD
$PAD "2"
Shape CustomShape Layer back
position  7.200000 -5.100000  size  0.700000  1.500000  orientation 0.00
drill  0.000000
shape_offset  0.000000  0.000000
$EndPAD
$PAD "1"
Shape CustomShape Layer back
position -8.500000 -2.500000  size  0.700000  1.500000  orientation 0.00
drill  0.000000
shape_offset  0.000000  0.000000
$EndPAD
$PAD "2"
Shape CustomShape Layer front
position  8.500000 -2.500000  size  0.700000  1.500000  orientation 0.00
drill  0.000000
shape_offset  0.000000  0.000000
$EndPAD
$PAD ""
Shape Circle Layer both
position -3.810000 -2.540001  size  3.000000  3.000000  orientation 180.00
drill  3.000000
shape_offset  0.000000  0.000000
$EndPAD
$PAD ""
Shape Circle Layer both
position -5.080000  0.000000  size  1.700000  1.700000  orientation 0.00
drill  1.700000
shape_offset  0.000000  0.000000
$EndPAD
$PAD ""
Shape Circle Layer both
position  5.080000  0.000000  size  1.700000  1.700000  orientation 0.00
drill  1.700000
shape_offset  0.000000  0.000000
$EndPAD
$PAD ""
Shape Circle Layer both
position  0.000000  0.000000  size  4.000000  4.000000  orientation 90.00
drill  4.000000
shape_offset  0.000000  0.000000
$EndPAD
$PAD ""
Shape Circle Layer both
position  2.540000 -5.080000  size  3.000000  3.000000  orientation 180.00
drill  3.000000
shape_offset  0.000000  0.000000
$EndPAD
$PAD ""
Shape Circle Layer both
position -2.540000 -5.080000  size  3.000000  3.000000  orientation 180.00
drill  3.000000
shape_offset  0.000000  0.000000
$EndPAD
$PAD ""
Shape Circle Layer both
position  3.810000 -2.540000  size  3.000000  3.000000  orientation 180.00
drill  3.000000
shape_offset  0.000000  0.000000
$EndPAD
$EndMODULE  SW22

$MODULE "SW21"
reference "SW21"
value "SW_PUSH"
footprint "SofleKeyboard-footprint:CherryMX_Hotswap"
attribut none
position 158.500000 102.200000  orientation 0.00
layer front
$PAD "1"
Shape CustomShape Layer front
position -7.200000 -5.100000  size  0.700000  1.500000  orientation 0.00
drill  0.000000
shape_offset  0.000000  0.000000
$EndPAD
$PAD "2"
Shape CustomShape Layer back
position  7.200000 -5.100000  size  0.700000  1.500000  orientation 0.00
drill  0.000000
shape_offset  0.000000  0.000000
$EndPAD
$PAD "1"
Shape CustomShape Layer back
position -8.500000 -2.500000  size  0.700000  1.500000  orientation 0.00
drill  0.000000
shape_offset  0.000000  0.000000
$EndPAD
$PAD "2"
Shape CustomShape Layer front
position  8.500000 -2.500000  size  0.700000  1.500000  orientation 0.00
drill  0.000000
shape_offset  0.000000  0.000000
$EndPAD
$PAD ""
Shape Circle Layer both
position -3.810000 -2.540001  size  3.000000  3.000000  orientation 180.00
drill  3.000000
shape_offset  0.000000  0.000000
$EndPAD
$PAD ""
Shape Circle Layer both
position -5.080000  0.000000  size  1.700000  1.700000  orientation 0.00
drill  1.700000
shape_offset  0.000000  0.000000
$EndPAD
$PAD ""
Shape Circle Layer both
position  5.080000  0.000000  size  1.700000  1.700000  orientation 0.00
drill  1.700000
shape_offset  0.000000  0.000000
$EndPAD
$PAD ""
Shape Circle Layer both
position  0.000000  0.000000  size  4.000000  4.000000  orientation 90.00
drill  4.000000
shape_offset  0.000000  0.000000
$EndPAD
$PAD ""
Shape Circle Layer both
position  2.540000 -5.080000  size  3.000000  3.000000  orientation 180.00
drill  3.000000
shape_offset  0.000000  0.000000
$EndPAD
$PAD ""
Shape Circle Layer both
position -2.540000 -5.080000  size  3.000000  3.000000  orientation 180.00
drill  3.000000
shape_offset  0.000000  0.000000
$EndPAD
$PAD ""
Shape Circle Layer both
position  3.810000 -2.540000  size  3.000000  3.000000  orientation 180.00
drill  3.000000
shape_offset  0.000000  0.000000
$EndPAD
$EndMODULE  SW21

$MODULE "SW20"
reference "SW20"
value "SW_PUSH"
footprint "SofleKeyboard-footprint:CherryMX_Hotswap"
attribut none
position 139.500000 104.700000  orientation 0.00
layer front
$PAD "1"
Shape CustomShape Layer front
position -7.200000 -5.100000  size  0.700000  1.500000  orientation 0.00
drill  0.000000
shape_offset  0.000000  0.000000
$EndPAD
$PAD "2"
Shape CustomShape Layer back
position  7.200000 -5.100000  size  0.700000  1.500000  orientation 0.00
drill  0.000000
shape_offset  0.000000  0.000000
$EndPAD
$PAD "1"
Shape CustomShape Layer back
position -8.500000 -2.500000  size  0.700000  1.500000  orientation 0.00
drill  0.000000
shape_offset  0.000000  0.000000
$EndPAD
$PAD "2"
Shape CustomShape Layer front
position  8.500000 -2.500000  size  0.700000  1.500000  orientation 0.00
drill  0.000000
shape_offset  0.000000  0.000000
$EndPAD
$PAD ""
Shape Circle Layer both
position -3.810000 -2.540001  size  3.000000  3.000000  orientation 180.00
drill  3.000000
shape_offset  0.000000  0.000000
$EndPAD
$PAD ""
Shape Circle Layer both
position -5.080000  0.000000  size  1.700000  1.700000  orientation 0.00
drill  1.700000
shape_offset  0.000000  0.000000
$EndPAD
$PAD ""
Shape Circle Layer both
position  5.080000  0.000000  size  1.700000  1.700000  orientation 0.00
drill  1.700000
shape_offset  0.000000  0.000000
$EndPAD
$PAD ""
Shape Circle Layer both
position  0.000000  0.000000  size  4.000000  4.000000  orientation 90.00
drill  4.000000
shape_offset  0.000000  0.000000
$EndPAD
$PAD ""
Shape Circle Layer both
position  2.540000 -5.080000  size  3.000000  3.000000  orientation 180.00
drill  3.000000
shape_offset  0.000000  0.000000
$EndPAD
$PAD ""
Shape Circle Layer both
position -2.540000 -5.080000  size  3.000000  3.000000  orientation 180.00
drill  3.000000
shape_offset  0.000000  0.000000
$EndPAD
$PAD ""
Shape Circle Layer both
position  3.810000 -2.540000  size  3.000000  3.000000  orientation 180.00
drill  3.000000
shape_offset  0.000000  0.000000
$EndPAD
$EndMODULE  SW20

$MODULE "SW19"
reference "SW19"
value "SW_PUSH"
footprint "SofleKeyboard-footprint:CherryMX_Hotswap"
attribut none
position 120.500000 107.100000  orientation 0.00
layer front
$PAD "1"
Shape CustomShape Layer front
position -7.200000 -5.100000  size  0.700000  1.500000  orientation 0.00
drill  0.000000
shape_offset  0.000000  0.000000
$EndPAD
$PAD "2"
Shape CustomShape Layer back
position  7.200000 -5.100000  size  0.700000  1.500000  orientation 0.00
drill  0.000000
shape_offset  0.000000  0.000000
$EndPAD
$PAD "1"
Shape CustomShape Layer back
position -8.500000 -2.500000  size  0.700000  1.500000  orientation 0.00
drill  0.000000
shape_offset  0.000000  0.000000
$EndPAD
$PAD "2"
Shape CustomShape Layer front
position  8.500000 -2.500000  size  0.700000  1.500000  orientation 0.00
drill  0.000000
shape_offset  0.000000  0.000000
$EndPAD
$PAD ""
Shape Circle Layer both
position -3.810000 -2.540001  size  3.000000  3.000000  orientation 180.00
drill  3.000000
shape_offset  0.000000  0.000000
$EndPAD
$PAD ""
Shape Circle Layer both
position -5.080000  0.000000  size  1.700000  1.700000  orientation 0.00
drill  1.700000
shape_offset  0.000000  0.000000
$EndPAD
$PAD ""
Shape Circle Layer both
position  5.080000  0.000000  size  1.700000  1.700000  orientation 0.00
drill  1.700000
shape_offset  0.000000  0.000000
$EndPAD
$PAD ""
Shape Circle Layer both
position  0.000000  0.000000  size  4.000000  4.000000  orientation 90.00
drill  4.000000
shape_offset  0.000000  0.000000
$EndPAD
$PAD ""
Shape Circle Layer both
position  2.540000 -5.080000  size  3.000000  3.000000  orientation 180.00
drill  3.000000
shape_offset  0.000000  0.000000
$EndPAD
$PAD ""
Shape Circle Layer both
position -2.540000 -5.080000  size  3.000000  3.000000  orientation 180.00
drill  3.000000
shape_offset  0.000000  0.000000
$EndPAD
$PAD ""
Shape Circle Layer both
position  3.810000 -2.540000  size  3.000000  3.000000  orientation 180.00
drill  3.000000
shape_offset  0.000000  0.000000
$EndPAD
$EndMODULE  SW19

$MODULE "SW18"
reference "SW18"
value "SW_PUSH"
footprint "SofleKeyboard-footprint:CherryMX_Hotswap"
attribut none
position 215.500000 94.600000  orientation 0.00
layer front
$PAD "1"
Shape CustomShape Layer front
position -7.200000 -5.100000  size  0.700000  1.500000  orientation 0.00
drill  0.000000
shape_offset  0.000000  0.000000
$EndPAD
$PAD "2"
Shape CustomShape Layer back
position  7.200000 -5.100000  size  0.700000  1.500000  orientation 0.00
drill  0.000000
shape_offset  0.000000  0.000000
$EndPAD
$PAD "1"
Shape CustomShape Layer back
position -8.500000 -2.500000  size  0.700000  1.500000  orientation 0.00
drill  0.000000
shape_offset  0.000000  0.000000
$EndPAD
$PAD "2"
Shape CustomShape Layer front
position  8.500000 -2.500000  size  0.700000  1.500000  orientation 0.00
drill  0.000000
shape_offset  0.000000  0.000000
$EndPAD
$PAD ""
Shape Circle Layer both
position -3.810000 -2.540001  size  3.000000  3.000000  orientation 180.00
drill  3.000000
shape_offset  0.000000  0.000000
$EndPAD
$PAD ""
Shape Circle Layer both
position -5.080000  0.000000  size  1.700000  1.700000  orientation 0.00
drill  1.700000
shape_offset  0.000000  0.000000
$EndPAD
$PAD ""
Shape Circle Layer both
position  5.080000  0.000000  size  1.700000  1.700000  orientation 0.00
drill  1.700000
shape_offset  0.000000  0.000000
$EndPAD
$PAD ""
Shape Circle Layer both
position  0.000000  0.000000  size  4.000000  4.000000  orientation 90.00
drill  4.000000
shape_offset  0.000000  0.000000
$EndPAD
$PAD ""
Shape Circle Layer both
position  2.540000 -5.080000  size  3.000000  3.000000  orientation 180.00
drill  3.000000
shape_offset  0.000000  0.000000
$EndPAD
$PAD ""
Shape Circle Layer both
position -2.540000 -5.080000  size  3.000000  3.000000  orientation 180.00
drill  3.000000
shape_offset  0.000000  0.000000
$EndPAD
$PAD ""
Shape Circle Layer both
position  3.810000 -2.540000  size  3.000000  3.000000  orientation 180.00
drill  3.000000
shape_offset  0.000000  0.000000
$EndPAD
$EndMODULE  SW18

$MODULE "SW17"
reference "SW17"
value "SW_PUSH"
footprint "SofleKeyboard-footprint:CherryMX_Hotswap"
attribut none
position 196.500000 94.600000  orientation 0.00
layer front
$PAD "1"
Shape CustomShape Layer front
position -7.200000 -5.100000  size  0.700000  1.500000  orientation 0.00
drill  0.000000
shape_offset  0.000000  0.000000
$EndPAD
$PAD "2"
Shape CustomShape Layer back
position  7.200000 -5.100000  size  0.700000  1.500000  orientation 0.00
drill  0.000000
shape_offset  0.000000  0.000000
$EndPAD
$PAD "1"
Shape CustomShape Layer back
position -8.500000 -2.500000  size  0.700000  1.500000  orientation 0.00
drill  0.000000
shape_offset  0.000000  0.000000
$EndPAD
$PAD "2"
Shape CustomShape Layer front
position  8.500000 -2.500000  size  0.700000  1.500000  orientation 0.00
drill  0.000000
shape_offset  0.000000  0.000000
$EndPAD
$PAD ""
Shape Circle Layer both
position -3.810000 -2.540001  size  3.000000  3.000000  orientation 180.00
drill  3.000000
shape_offset  0.000000  0.000000
$EndPAD
$PAD ""
Shape Circle Layer both
position -5.080000  0.000000  size  1.700000  1.700000  orientation 0.00
drill  1.700000
shape_offset  0.000000  0.000000
$EndPAD
$PAD ""
Shape Circle Layer both
position  5.080000  0.000000  size  1.700000  1.700000  orientation 0.00
drill  1.700000
shape_offset  0.000000  0.000000
$EndPAD
$PAD ""
Shape Circle Layer both
position  0.000000  0.000000  size  4.000000  4.000000  orientation 90.00
drill  4.000000
shape_offset  0.000000  0.000000
$EndPAD
$PAD ""
Shape Circle Layer both
position  2.540000 -5.080000  size  3.000000  3.000000  orientation 180.00
drill  3.000000
shape_offset  0.000000  0.000000
$EndPAD
$PAD ""
Shape Circle Layer both
position -2.540000 -5.080000  size  3.000000  3.000000  orientation 180.00
drill  3.000000
shape_offset  0.000000  0.000000
$EndPAD
$PAD ""
Shape Circle Layer both
position  3.810000 -2.540000  size  3.000000  3.000000  orientation 180.00
drill  3.000000
shape_offset  0.000000  0.000000
$EndPAD
$EndMODULE  SW17

$MODULE "SW16"
reference "SW16"
value "SW_PUSH"
footprint "SofleKeyboard-footprint:CherryMX_Hotswap"
attribut none
position 177.500000 85.600000  orientation 0.00
layer front
$PAD "1"
Shape CustomShape Layer front
position -7.200000 -5.100000  size  0.700000  1.500000  orientation 0.00
drill  0.000000
shape_offset  0.000000  0.000000
$EndPAD
$PAD "2"
Shape CustomShape Layer back
position  7.200000 -5.100000  size  0.700000  1.500000  orientation 0.00
drill  0.000000
shape_offset  0.000000  0.000000
$EndPAD
$PAD "1"
Shape CustomShape Layer back
position -8.500000 -2.500000  size  0.700000  1.500000  orientation 0.00
drill  0.000000
shape_offset  0.000000  0.000000
$EndPAD
$PAD "2"
Shape CustomShape Layer front
position  8.500000 -2.500000  size  0.700000  1.500000  orientation 0.00
drill  0.000000
shape_offset  0.000000  0.000000
$EndPAD
$PAD ""
Shape Circle Layer both
position -3.810000 -2.540001  size  3.000000  3.000000  orientation 180.00
drill  3.000000
shape_offset  0.000000  0.000000
$EndPAD
$PAD ""
Shape Circle Layer both
position -5.080000  0.000000  size  1.700000  1.700000  orientation 0.00
drill  1.700000
shape_offset  0.000000  0.000000
$EndPAD
$PAD ""
Shape Circle Layer both
position  5.080000  0.000000  size  1.700000  1.700000  orientation 0.00
drill  1.700000
shape_offset  0.000000  0.000000
$EndPAD
$PAD ""
Shape Circle Layer both
position  0.000000  0.000000  size  4.000000  4.000000  orientation 90.00
drill  4.000000
shape_offset  0.000000  0.000000
$EndPAD
$PAD ""
Shape Circle Layer both
position  2.540000 -5.080000  size  3.000000  3.000000  orientation 180.00
drill  3.000000
shape_offset  0.000000  0.000000
$EndPAD
$PAD ""
Shape Circle Layer both
position -2.540000 -5.080000  size  3.000000  3.000000  orientation 180.00
drill  3.000000
shape_offset  0.000000  0.000000
$EndPAD
$PAD ""
Shape Circle Layer both
position  3.810000 -2.540000  size  3.000000  3.000000  orientation 180.00
drill  3.000000
shape_offset  0.000000  0.000000
$EndPAD
$EndMODULE  SW16

$MODULE "SW15"
reference "SW15"
value "SW_PUSH"
footprint "SofleKeyboard-footprint:CherryMX_Hotswap"
attribut none
position 158.500000 83.200000  orientation 0.00
layer front
$PAD "1"
Shape CustomShape Layer front
position -7.200000 -5.100000  size  0.700000  1.500000  orientation 0.00
drill  0.000000
shape_offset  0.000000  0.000000
$EndPAD
$PAD "2"
Shape CustomShape Layer back
position  7.200000 -5.100000  size  0.700000  1.500000  orientation 0.00
drill  0.000000
shape_offset  0.000000  0.000000
$EndPAD
$PAD "1"
Shape CustomShape Layer back
position -8.500000 -2.500000  size  0.700000  1.500000  orientation 0.00
drill  0.000000
shape_offset  0.000000  0.000000
$EndPAD
$PAD "2"
Shape CustomShape Layer front
position  8.500000 -2.500000  size  0.700000  1.500000  orientation 0.00
drill  0.000000
shape_offset  0.000000  0.000000
$EndPAD
$PAD ""
Shape Circle Layer both
position -3.810000 -2.540001  size  3.000000  3.000000  orientation 180.00
drill  3.000000
shape_offset  0.000000  0.000000
$EndPAD
$PAD ""
Shape Circle Layer both
position -5.080000  0.000000  size  1.700000  1.700000  orientation 0.00
drill  1.700000
shape_offset  0.000000  0.000000
$EndPAD
$PAD ""
Shape Circle Layer both
position  5.080000  0.000000  size  1.700000  1.700000  orientation 0.00
drill  1.700000
shape_offset  0.000000  0.000000
$EndPAD
$PAD ""
Shape Circle Layer both
position  0.000000  0.000000  size  4.000000  4.000000  orientation 90.00
drill  4.000000
shape_offset  0.000000  0.000000
$EndPAD
$PAD ""
Shape Circle Layer both
position  2.540000 -5.080000  size  3.000000  3.000000  orientation 180.00
drill  3.000000
shape_offset  0.000000  0.000000
$EndPAD
$PAD ""
Shape Circle Layer both
position -2.540000 -5.080000  size  3.000000  3.000000  orientation 180.00
drill  3.000000
shape_offset  0.000000  0.000000
$EndPAD
$PAD ""
Shape Circle Layer both
position  3.810000 -2.540000  size  3.000000  3.000000  orientation 180.00
drill  3.000000
shape_offset  0.000000  0.000000
$EndPAD
$EndMODULE  SW15

$MODULE "SW14"
reference "SW14"
value "SW_PUSH"
footprint "SofleKeyboard-footprint:CherryMX_Hotswap"
attribut none
position 139.500000 85.600000  orientation 0.00
layer front
$PAD "1"
Shape CustomShape Layer front
position -7.200000 -5.100000  size  0.700000  1.500000  orientation 0.00
drill  0.000000
shape_offset  0.000000  0.000000
$EndPAD
$PAD "2"
Shape CustomShape Layer back
position  7.200000 -5.100000  size  0.700000  1.500000  orientation 0.00
drill  0.000000
shape_offset  0.000000  0.000000
$EndPAD
$PAD "1"
Shape CustomShape Layer back
position -8.500000 -2.500000  size  0.700000  1.500000  orientation 0.00
drill  0.000000
shape_offset  0.000000  0.000000
$EndPAD
$PAD "2"
Shape CustomShape Layer front
position  8.500000 -2.500000  size  0.700000  1.500000  orientation 0.00
drill  0.000000
shape_offset  0.000000  0.000000
$EndPAD
$PAD ""
Shape Circle Layer both
position -3.810000 -2.540001  size  3.000000  3.000000  orientation 180.00
drill  3.000000
shape_offset  0.000000  0.000000
$EndPAD
$PAD ""
Shape Circle Layer both
position -5.080000  0.000000  size  1.700000  1.700000  orientation 0.00
drill  1.700000
shape_offset  0.000000  0.000000
$EndPAD
$PAD ""
Shape Circle Layer both
position  5.080000  0.000000  size  1.700000  1.700000  orientation 0.00
drill  1.700000
shape_offset  0.000000  0.000000
$EndPAD
$PAD ""
Shape Circle Layer both
position  0.000000  0.000000  size  4.000000  4.000000  orientation 90.00
drill  4.000000
shape_offset  0.000000  0.000000
$EndPAD
$PAD ""
Shape Circle Layer both
position  2.540000 -5.080000  size  3.000000  3.000000  orientation 180.00
drill  3.000000
shape_offset  0.000000  0.000000
$EndPAD
$PAD ""
Shape Circle Layer both
position -2.540000 -5.080000  size  3.000000  3.000000  orientation 180.00
drill  3.000000
shape_offset  0.000000  0.000000
$EndPAD
$PAD ""
Shape Circle Layer both
position  3.810000 -2.540000  size  3.000000  3.000000  orientation 180.00
drill  3.000000
shape_offset  0.000000  0.000000
$EndPAD
$EndMODULE  SW14

$MODULE "SW13"
reference "SW13"
value "SW_PUSH"
footprint "SofleKeyboard-footprint:CherryMX_Hotswap"
attribut none
position 120.500000 88.100000  orientation 0.00
layer front
$PAD "1"
Shape CustomShape Layer front
position -7.200000 -5.100000  size  0.700000  1.500000  orientation 0.00
drill  0.000000
shape_offset  0.000000  0.000000
$EndPAD
$PAD "2"
Shape CustomShape Layer back
position  7.200000 -5.100000  size  0.700000  1.500000  orientation 0.00
drill  0.000000
shape_offset  0.000000  0.000000
$EndPAD
$PAD "1"
Shape CustomShape Layer back
position -8.500000 -2.500000  size  0.700000  1.500000  orientation 0.00
drill  0.000000
shape_offset  0.000000  0.000000
$EndPAD
$PAD "2"
Shape CustomShape Layer front
position  8.500000 -2.500000  size  0.700000  1.500000  orientation 0.00
drill  0.000000
shape_offset  0.000000  0.000000
$EndPAD
$PAD ""
Shape Circle Layer both
position -3.810000 -2.540001  size  3.000000  3.000000  orientation 180.00
drill  3.000000
shape_offset  0.000000  0.000000
$EndPAD
$PAD ""
Shape Circle Layer both
position -5.080000  0.000000  size  1.700000  1.700000  orientation 0.00
drill  1.700000
shape_offset  0.000000  0.000000
$EndPAD
$PAD ""
Shape Circle Layer both
position  5.080000  0.000000  size  1.700000  1.700000  orientation 0.00
drill  1.700000
shape_offset  0.000000  0.000000
$EndPAD
$PAD ""
Shape Circle Layer both
position  0.000000  0.000000  size  4.000000  4.000000  orientation 90.00
drill  4.000000
shape_offset  0.000000  0.000000
$EndPAD
$PAD ""
Shape Circle Layer both
position  2.540000 -5.080000  size  3.000000  3.000000  orientation 180.00
drill  3.000000
shape_offset  0.000000  0.000000
$EndPAD
$PAD ""
Shape Circle Layer both
position -2.540000 -5.080000  size  3.000000  3.000000  orientation 180.00
drill  3.000000
shape_offset  0.000000  0.000000
$EndPAD
$PAD ""
Shape Circle Layer both
position  3.810000 -2.540000  size  3.000000  3.000000  orientation 180.00
drill  3.000000
shape_offset  0.000000  0.000000
$EndPAD
$EndMODULE  SW13

$MODULE "SW12"
reference "SW12"
value "SW_PUSH"
footprint "SofleKeyboard-footprint:CherryMX_Hotswap"
attribut none
position 215.500000 75.400000  orientation 0.00
layer front
$PAD "1"
Shape CustomShape Layer front
position -7.200000 -5.100000  size  0.700000  1.500000  orientation 0.00
drill  0.000000
shape_offset  0.000000  0.000000
$EndPAD
$PAD "2"
Shape CustomShape Layer back
position  7.200000 -5.100000  size  0.700000  1.500000  orientation 0.00
drill  0.000000
shape_offset  0.000000  0.000000
$EndPAD
$PAD "1"
Shape CustomShape Layer back
position -8.500000 -2.500000  size  0.700000  1.500000  orientation 0.00
drill  0.000000
shape_offset  0.000000  0.000000
$EndPAD
$PAD "2"
Shape CustomShape Layer front
position  8.500000 -2.500000  size  0.700000  1.500000  orientation 0.00
drill  0.000000
shape_offset  0.000000  0.000000
$EndPAD
$PAD ""
Shape Circle Layer both
position -3.810000 -2.540001  size  3.000000  3.000000  orientation 180.00
drill  3.000000
shape_offset  0.000000  0.000000
$EndPAD
$PAD ""
Shape Circle Layer both
position -5.080000  0.000000  size  1.700000  1.700000  orientation 0.00
drill  1.700000
shape_offset  0.000000  0.000000
$EndPAD
$PAD ""
Shape Circle Layer both
position  5.080000  0.000000  size  1.700000  1.700000  orientation 0.00
drill  1.700000
shape_offset  0.000000  0.000000
$EndPAD
$PAD ""
Shape Circle Layer both
position  0.000000  0.000000  size  4.000000  4.000000  orientation 90.00
drill  4.000000
shape_offset  0.000000  0.000000
$EndPAD
$PAD ""
Shape Circle Layer both
position  2.540000 -5.080000  size  3.000000  3.000000  orientation 180.00
drill  3.000000
shape_offset  0.000000  0.000000
$EndPAD
$PAD ""
Shape Circle Layer both
position -2.540000 -5.080000  size  3.000000  3.000000  orientation 180.00
drill  3.000000
shape_offset  0.000000  0.000000
$EndPAD
$PAD ""
Shape Circle Layer both
position  3.810000 -2.540000  size  3.000000  3.000000  orientation 180.00
drill  3.000000
shape_offset  0.000000  0.000000
$EndPAD
$EndMODULE  SW12

$MODULE "SW11"
reference "SW11"
value "SW_PUSH"
footprint "SofleKeyboard-footprint:CherryMX_Hotswap"
attribut none
position 196.500000 75.400000  orientation 0.00
layer front
$PAD "1"
Shape CustomShape Layer front
position -7.200000 -5.100000  size  0.700000  1.500000  orientation 0.00
drill  0.000000
shape_offset  0.000000  0.000000
$EndPAD
$PAD "2"
Shape CustomShape Layer back
position  7.200000 -5.100000  size  0.700000  1.500000  orientation 0.00
drill  0.000000
shape_offset  0.000000  0.000000
$EndPAD
$PAD "1"
Shape CustomShape Layer back
position -8.500000 -2.500000  size  0.700000  1.500000  orientation 0.00
drill  0.000000
shape_offset  0.000000  0.000000
$EndPAD
$PAD "2"
Shape CustomShape Layer front
position  8.500000 -2.500000  size  0.700000  1.500000  orientation 0.00
drill  0.000000
shape_offset  0.000000  0.000000
$EndPAD
$PAD ""
Shape Circle Layer both
position -3.810000 -2.540001  size  3.000000  3.000000  orientation 180.00
drill  3.000000
shape_offset  0.000000  0.000000
$EndPAD
$PAD ""
Shape Circle Layer both
position -5.080000  0.000000  size  1.700000  1.700000  orientation 0.00
drill  1.700000
shape_offset  0.000000  0.000000
$EndPAD
$PAD ""
Shape Circle Layer both
position  5.080000  0.000000  size  1.700000  1.700000  orientation 0.00
drill  1.700000
shape_offset  0.000000  0.000000
$EndPAD
$PAD ""
Shape Circle Layer both
position  0.000000  0.000000  size  4.000000  4.000000  orientation 90.00
drill  4.000000
shape_offset  0.000000  0.000000
$EndPAD
$PAD ""
Shape Circle Layer both
position  2.540000 -5.080000  size  3.000000  3.000000  orientation 180.00
drill  3.000000
shape_offset  0.000000  0.000000
$EndPAD
$PAD ""
Shape Circle Layer both
position -2.540000 -5.080000  size  3.000000  3.000000  orientation 180.00
drill  3.000000
shape_offset  0.000000  0.000000
$EndPAD
$PAD ""
Shape Circle Layer both
position  3.810000 -2.540000  size  3.000000  3.000000  orientation 180.00
drill  3.000000
shape_offset  0.000000  0.000000
$EndPAD
$EndMODULE  SW11

$MODULE "SW10"
reference "SW10"
value "SW_PUSH"
footprint "SofleKeyboard-footprint:CherryMX_Hotswap"
attribut none
position 177.500000 66.500000  orientation 0.00
layer front
$PAD "1"
Shape CustomShape Layer front
position -7.200000 -5.100000  size  0.700000  1.500000  orientation 0.00
drill  0.000000
shape_offset  0.000000  0.000000
$EndPAD
$PAD "2"
Shape CustomShape Layer back
position  7.200000 -5.100000  size  0.700000  1.500000  orientation 0.00
drill  0.000000
shape_offset  0.000000  0.000000
$EndPAD
$PAD "1"
Shape CustomShape Layer back
position -8.500000 -2.500000  size  0.700000  1.500000  orientation 0.00
drill  0.000000
shape_offset  0.000000  0.000000
$EndPAD
$PAD "2"
Shape CustomShape Layer front
position  8.500000 -2.500000  size  0.700000  1.500000  orientation 0.00
drill  0.000000
shape_offset  0.000000  0.000000
$EndPAD
$PAD ""
Shape Circle Layer both
position -3.810000 -2.540001  size  3.000000  3.000000  orientation 180.00
drill  3.000000
shape_offset  0.000000  0.000000
$EndPAD
$PAD ""
Shape Circle Layer both
position -5.080000  0.000000  size  1.700000  1.700000  orientation 0.00
drill  1.700000
shape_offset  0.000000  0.000000
$EndPAD
$PAD ""
Shape Circle Layer both
position  5.080000  0.000000  size  1.700000  1.700000  orientation 0.00
drill  1.700000
shape_offset  0.000000  0.000000
$EndPAD
$PAD ""
Shape Circle Layer both
position  0.000000  0.000000  size  4.000000  4.000000  orientation 90.00
drill  4.000000
shape_offset  0.000000  0.000000
$EndPAD
$PAD ""
Shape Circle Layer both
position  2.540000 -5.080000  size  3.000000  3.000000  orientation 180.00
drill  3.000000
shape_offset  0.000000  0.000000
$EndPAD
$PAD ""
Shape Circle Layer both
position -2.540000 -5.080000  size  3.000000  3.000000  orientation 180.00
drill  3.000000
shape_offset  0.000000  0.000000
$EndPAD
$PAD ""
Shape Circle Layer both
position  3.810000 -2.540000  size  3.000000  3.000000  orientation 180.00
drill  3.000000
shape_offset  0.000000  0.000000
$EndPAD
$EndMODULE  SW10

$MODULE "SW9"
reference "SW9"
value "SW_PUSH"
footprint "SofleKeyboard-footprint:CherryMX_Hotswap"
attribut none
position 158.500000 64.100000  orientation 0.00
layer front
$PAD "1"
Shape CustomShape Layer front
position -7.200000 -5.100000  size  0.700000  1.500000  orientation 0.00
drill  0.000000
shape_offset  0.000000  0.000000
$EndPAD
$PAD "2"
Shape CustomShape Layer back
position  7.200000 -5.100000  size  0.700000  1.500000  orientation 0.00
drill  0.000000
shape_offset  0.000000  0.000000
$EndPAD
$PAD "1"
Shape CustomShape Layer back
position -8.500000 -2.500000  size  0.700000  1.500000  orientation 0.00
drill  0.000000
shape_offset  0.000000  0.000000
$EndPAD
$PAD "2"
Shape CustomShape Layer front
position  8.500000 -2.500000  size  0.700000  1.500000  orientation 0.00
drill  0.000000
shape_offset  0.000000  0.000000
$EndPAD
$PAD ""
Shape Circle Layer both
position -3.810000 -2.540001  size  3.000000  3.000000  orientation 180.00
drill  3.000000
shape_offset  0.000000  0.000000
$EndPAD
$PAD ""
Shape Circle Layer both
position -5.080000  0.000000  size  1.700000  1.700000  orientation 0.00
drill  1.700000
shape_offset  0.000000  0.000000
$EndPAD
$PAD ""
Shape Circle Layer both
position  5.080000  0.000000  size  1.700000  1.700000  orientation 0.00
drill  1.700000
shape_offset  0.000000  0.000000
$EndPAD
$PAD ""
Shape Circle Layer both
position  0.000000  0.000000  size  4.000000  4.000000  orientation 90.00
drill  4.000000
shape_offset  0.000000  0.000000
$EndPAD
$PAD ""
Shape Circle Layer both
position  2.540000 -5.080000  size  3.000000  3.000000  orientation 180.00
drill  3.000000
shape_offset  0.000000  0.000000
$EndPAD
$PAD ""
Shape Circle Layer both
position -2.540000 -5.080000  size  3.000000  3.000000  orientation 180.00
drill  3.000000
shape_offset  0.000000  0.000000
$EndPAD
$PAD ""
Shape Circle Layer both
position  3.810000 -2.540000  size  3.000000  3.000000  orientation 180.00
drill  3.000000
shape_offset  0.000000  0.000000
$EndPAD
$EndMODULE  SW9

$MODULE "SW8"
reference "SW8"
value "SW_PUSH"
footprint "SofleKeyboard-footprint:CherryMX_Hotswap"
attribut none
position 139.500000 66.600000  orientation 0.00
layer front
$PAD "1"
Shape CustomShape Layer front
position -7.200000 -5.100000  size  0.700000  1.500000  orientation 0.00
drill  0.000000
shape_offset  0.000000  0.000000
$EndPAD
$PAD "2"
Shape CustomShape Layer back
position  7.200000 -5.100000  size  0.700000  1.500000  orientation 0.00
drill  0.000000
shape_offset  0.000000  0.000000
$EndPAD
$PAD "1"
Shape CustomShape Layer back
position -8.500000 -2.500000  size  0.700000  1.500000  orientation 0.00
drill  0.000000
shape_offset  0.000000  0.000000
$EndPAD
$PAD "2"
Shape CustomShape Layer front
position  8.500000 -2.500000  size  0.700000  1.500000  orientation 0.00
drill  0.000000
shape_offset  0.000000  0.000000
$EndPAD
$PAD ""
Shape Circle Layer both
position -3.810000 -2.540001  size  3.000000  3.000000  orientation 180.00
drill  3.000000
shape_offset  0.000000  0.000000
$EndPAD
$PAD ""
Shape Circle Layer both
position -5.080000  0.000000  size  1.700000  1.700000  orientation 0.00
drill  1.700000
shape_offset  0.000000  0.000000
$EndPAD
$PAD ""
Shape Circle Layer both
position  5.080000  0.000000  size  1.700000  1.700000  orientation 0.00
drill  1.700000
shape_offset  0.000000  0.000000
$EndPAD
$PAD ""
Shape Circle Layer both
position  0.000000  0.000000  size  4.000000  4.000000  orientation 90.00
drill  4.000000
shape_offset  0.000000  0.000000
$EndPAD
$PAD ""
Shape Circle Layer both
position  2.540000 -5.080000  size  3.000000  3.000000  orientation 180.00
drill  3.000000
shape_offset  0.000000  0.000000
$EndPAD
$PAD ""
Shape Circle Layer both
position -2.540000 -5.080000  size  3.000000  3.000000  orientation 180.00
drill  3.000000
shape_offset  0.000000  0.000000
$EndPAD
$PAD ""
Shape Circle Layer both
position  3.810000 -2.540000  size  3.000000  3.000000  orientation 180.00
drill  3.000000
shape_offset  0.000000  0.000000
$EndPAD
$EndMODULE  SW8

$MODULE "SW7"
reference "SW7"
value "SW_PUSH"
footprint "SofleKeyboard-footprint:CherryMX_Hotswap"
attribut none
position 120.500000 69.100000  orientation 0.00
layer front
$PAD "1"
Shape CustomShape Layer front
position -7.200000 -5.100000  size  0.700000  1.500000  orientation 0.00
drill  0.000000
shape_offset  0.000000  0.000000
$EndPAD
$PAD "2"
Shape CustomShape Layer back
position  7.200000 -5.100000  size  0.700000  1.500000  orientation 0.00
drill  0.000000
shape_offset  0.000000  0.000000
$EndPAD
$PAD "1"
Shape CustomShape Layer back
position -8.500000 -2.500000  size  0.700000  1.500000  orientation 0.00
drill  0.000000
shape_offset  0.000000  0.000000
$EndPAD
$PAD "2"
Shape CustomShape Layer front
position  8.500000 -2.500000  size  0.700000  1.500000  orientation 0.00
drill  0.000000
shape_offset  0.000000  0.000000
$EndPAD
$PAD ""
Shape Circle Layer both
position -3.810000 -2.540001  size  3.000000  3.000000  orientation 180.00
drill  3.000000
shape_offset  0.000000  0.000000
$EndPAD
$PAD ""
Shape Circle Layer both
position -5.080000  0.000000  size  1.700000  1.700000  orientation 0.00
drill  1.700000
shape_offset  0.000000  0.000000
$EndPAD
$PAD ""
Shape Circle Layer both
position  5.080000  0.000000  size  1.700000  1.700000  orientation 0.00
drill  1.700000
shape_offset  0.000000  0.000000
$EndPAD
$PAD ""
Shape Circle Layer both
position  0.000000  0.000000  size  4.000000  4.000000  orientation 90.00
drill  4.000000
shape_offset  0.000000  0.000000
$EndPAD
$PAD ""
Shape Circle Layer both
position  2.540000 -5.080000  size  3.000000  3.000000  orientation 180.00
drill  3.000000
shape_offset  0.000000  0.000000
$EndPAD
$PAD ""
Shape Circle Layer both
position -2.540000 -5.080000  size  3.000000  3.000000  orientation 180.00
drill  3.000000
shape_offset  0.000000  0.000000
$EndPAD
$PAD ""
Shape Circle Layer both
position  3.810000 -2.540000  size  3.000000  3.000000  orientation 180.00
drill  3.000000
shape_offset  0.000000  0.000000
$EndPAD
$EndMODULE  SW7

$MODULE "SW6"
reference "SW6"
value "SW_PUSH"
footprint "SofleKeyboard-footprint:CherryMX_Hotswap"
attribut none
position 215.500000 56.500000  orientation 0.00
layer front
$PAD "1"
Shape CustomShape Layer front
position -7.200000 -5.100000  size  0.700000  1.500000  orientation 0.00
drill  0.000000
shape_offset  0.000000  0.000000
$EndPAD
$PAD "2"
Shape CustomShape Layer back
position  7.200000 -5.100000  size  0.700000  1.500000  orientation 0.00
drill  0.000000
shape_offset  0.000000  0.000000
$EndPAD
$PAD "1"
Shape CustomShape Layer back
position -8.500000 -2.500000  size  0.700000  1.500000  orientation 0.00
drill  0.000000
shape_offset  0.000000  0.000000
$EndPAD
$PAD "2"
Shape CustomShape Layer front
position  8.500000 -2.500000  size  0.700000  1.500000  orientation 0.00
drill  0.000000
shape_offset  0.000000  0.000000
$EndPAD
$PAD ""
Shape Circle Layer both
position -3.810000 -2.540001  size  3.000000  3.000000  orientation 180.00
drill  3.000000
shape_offset  0.000000  0.000000
$EndPAD
$PAD ""
Shape Circle Layer both
position -5.080000  0.000000  size  1.700000  1.700000  orientation 0.00
drill  1.700000
shape_offset  0.000000  0.000000
$EndPAD
$PAD ""
Shape Circle Layer both
position  5.080000  0.000000  size  1.700000  1.700000  orientation 0.00
drill  1.700000
shape_offset  0.000000  0.000000
$EndPAD
$PAD ""
Shape Circle Layer both
position  0.000000  0.000000  size  4.000000  4.000000  orientation 90.00
drill  4.000000
shape_offset  0.000000  0.000000
$EndPAD
$PAD ""
Shape Circle Layer both
position  2.540000 -5.080000  size  3.000000  3.000000  orientation 180.00
drill  3.000000
shape_offset  0.000000  0.000000
$EndPAD
$PAD ""
Shape Circle Layer both
position -2.540000 -5.080000  size  3.000000  3.000000  orientation 180.00
drill  3.000000
shape_offset  0.000000  0.000000
$EndPAD
$PAD ""
Shape Circle Layer both
position  3.810000 -2.540000  size  3.000000  3.000000  orientation 180.00
drill  3.000000
shape_offset  0.000000  0.000000
$EndPAD
$EndMODULE  SW6

$MODULE "SW5"
reference "SW5"
value "SW_PUSH"
footprint "SofleKeyboard-footprint:CherryMX_Hotswap"
attribut none
position 196.500000 56.500000  orientation 0.00
layer front
$PAD "1"
Shape CustomShape Layer front
position -7.200000 -5.100000  size  0.700000  1.500000  orientation 0.00
drill  0.000000
shape_offset  0.000000  0.000000
$EndPAD
$PAD "2"
Shape CustomShape Layer back
position  7.200000 -5.100000  size  0.700000  1.500000  orientation 0.00
drill  0.000000
shape_offset  0.000000  0.000000
$EndPAD
$PAD "1"
Shape CustomShape Layer back
position -8.500000 -2.500000  size  0.700000  1.500000  orientation 0.00
drill  0.000000
shape_offset  0.000000  0.000000
$EndPAD
$PAD "2"
Shape CustomShape Layer front
position  8.500000 -2.500000  size  0.700000  1.500000  orientation 0.00
drill  0.000000
shape_offset  0.000000  0.000000
$EndPAD
$PAD ""
Shape Circle Layer both
position -3.810000 -2.540001  size  3.000000  3.000000  orientation 180.00
drill  3.000000
shape_offset  0.000000  0.000000
$EndPAD
$PAD ""
Shape Circle Layer both
position -5.080000  0.000000  size  1.700000  1.700000  orientation 0.00
drill  1.700000
shape_offset  0.000000  0.000000
$EndPAD
$PAD ""
Shape Circle Layer both
position  5.080000  0.000000  size  1.700000  1.700000  orientation 0.00
drill  1.700000
shape_offset  0.000000  0.000000
$EndPAD
$PAD ""
Shape Circle Layer both
position  0.000000  0.000000  size  4.000000  4.000000  orientation 90.00
drill  4.000000
shape_offset  0.000000  0.000000
$EndPAD
$PAD ""
Shape Circle Layer both
position  2.540000 -5.080000  size  3.000000  3.000000  orientation 180.00
drill  3.000000
shape_offset  0.000000  0.000000
$EndPAD
$PAD ""
Shape Circle Layer both
position -2.540000 -5.080000  size  3.000000  3.000000  orientation 180.00
drill  3.000000
shape_offset  0.000000  0.000000
$EndPAD
$PAD ""
Shape Circle Layer both
position  3.810000 -2.540000  size  3.000000  3.000000  orientation 180.00
drill  3.000000
shape_offset  0.000000  0.000000
$EndPAD
$EndMODULE  SW5

$MODULE "SW4"
reference "SW4"
value "SW_PUSH"
footprint "SofleKeyboard-footprint:CherryMX_Hotswap"
attribut none
position 177.500000 47.500000  orientation 0.00
layer front
$PAD "1"
Shape CustomShape Layer front
position -7.200000 -5.100000  size  0.700000  1.500000  orientation 0.00
drill  0.000000
shape_offset  0.000000  0.000000
$EndPAD
$PAD "2"
Shape CustomShape Layer back
position  7.200000 -5.100000  size  0.700000  1.500000  orientation 0.00
drill  0.000000
shape_offset  0.000000  0.000000
$EndPAD
$PAD "1"
Shape CustomShape Layer back
position -8.500000 -2.500000  size  0.700000  1.500000  orientation 0.00
drill  0.000000
shape_offset  0.000000  0.000000
$EndPAD
$PAD "2"
Shape CustomShape Layer front
position  8.500000 -2.500000  size  0.700000  1.500000  orientation 0.00
drill  0.000000
shape_offset  0.000000  0.000000
$EndPAD
$PAD ""
Shape Circle Layer both
position -3.810000 -2.540001  size  3.000000  3.000000  orientation 180.00
drill  3.000000
shape_offset  0.000000  0.000000
$EndPAD
$PAD ""
Shape Circle Layer both
position -5.080000  0.000000  size  1.700000  1.700000  orientation 0.00
drill  1.700000
shape_offset  0.000000  0.000000
$EndPAD
$PAD ""
Shape Circle Layer both
position  5.080000  0.000000  size  1.700000  1.700000  orientation 0.00
drill  1.700000
shape_offset  0.000000  0.000000
$EndPAD
$PAD ""
Shape Circle Layer both
position  0.000000  0.000000  size  4.000000  4.000000  orientation 90.00
drill  4.000000
shape_offset  0.000000  0.000000
$EndPAD
$PAD ""
Shape Circle Layer both
position  2.540000 -5.080000  size  3.000000  3.000000  orientation 180.00
drill  3.000000
shape_offset  0.000000  0.000000
$EndPAD
$PAD ""
Shape Circle Layer both
position -2.540000 -5.080000  size  3.000000  3.000000  orientation 180.00
drill  3.000000
shape_offset  0.000000  0.000000
$EndPAD
$PAD ""
Shape Circle Layer both
position  3.810000 -2.540000  size  3.000000  3.000000  orientation 180.00
drill  3.000000
shape_offset  0.000000  0.000000
$EndPAD
$EndMODULE  SW4

$MODULE "SW3"
reference "SW3"
value "SW_PUSH"
footprint "SofleKeyboard-footprint:CherryMX_Hotswap"
attribut none
position 158.500000 45.010000  orientation 0.00
layer front
$PAD "1"
Shape CustomShape Layer front
position -7.200000 -5.100000  size  0.700000  1.500000  orientation 0.00
drill  0.000000
shape_offset  0.000000  0.000000
$EndPAD
$PAD "2"
Shape CustomShape Layer back
position  7.200000 -5.100000  size  0.700000  1.500000  orientation 0.00
drill  0.000000
shape_offset  0.000000  0.000000
$EndPAD
$PAD "1"
Shape CustomShape Layer back
position -8.500000 -2.500000  size  0.700000  1.500000  orientation 0.00
drill  0.000000
shape_offset  0.000000  0.000000
$EndPAD
$PAD "2"
Shape CustomShape Layer front
position  8.500000 -2.500000  size  0.700000  1.500000  orientation 0.00
drill  0.000000
shape_offset  0.000000  0.000000
$EndPAD
$PAD ""
Shape Circle Layer both
position -3.810000 -2.540001  size  3.000000  3.000000  orientation 180.00
drill  3.000000
shape_offset  0.000000  0.000000
$EndPAD
$PAD ""
Shape Circle Layer both
position -5.080000  0.000000  size  1.700000  1.700000  orientation 0.00
drill  1.700000
shape_offset  0.000000  0.000000
$EndPAD
$PAD ""
Shape Circle Layer both
position  5.080000  0.000000  size  1.700000  1.700000  orientation 0.00
drill  1.700000
shape_offset  0.000000  0.000000
$EndPAD
$PAD ""
Shape Circle Layer both
position  0.000000  0.000000  size  4.000000  4.000000  orientation 90.00
drill  4.000000
shape_offset  0.000000  0.000000
$EndPAD
$PAD ""
Shape Circle Layer both
position  2.540000 -5.080000  size  3.000000  3.000000  orientation 180.00
drill  3.000000
shape_offset  0.000000  0.000000
$EndPAD
$PAD ""
Shape Circle Layer both
position -2.540000 -5.080000  size  3.000000  3.000000  orientation 180.00
drill  3.000000
shape_offset  0.000000  0.000000
$EndPAD
$PAD ""
Shape Circle Layer both
position  3.810000 -2.540000  size  3.000000  3.000000  orientation 180.00
drill  3.000000
shape_offset  0.000000  0.000000
$EndPAD
$EndMODULE  SW3

$MODULE "SW2"
reference "SW2"
value "SW_PUSH"
footprint "SofleKeyboard-footprint:CherryMX_Hotswap"
attribut none
position 139.500000 47.500000  orientation 0.00
layer front
$PAD "1"
Shape CustomShape Layer front
position -7.200000 -5.100000  size  0.700000  1.500000  orientation 0.00
drill  0.000000
shape_offset  0.000000  0.000000
$EndPAD
$PAD "2"
Shape CustomShape Layer back
position  7.200000 -5.100000  size  0.700000  1.500000  orientation 0.00
drill  0.000000
shape_offset  0.000000  0.000000
$EndPAD
$PAD "1"
Shape CustomShape Layer back
position -8.500000 -2.500000  size  0.700000  1.500000  orientation 0.00
drill  0.000000
shape_offset  0.000000  0.000000
$EndPAD
$PAD "2"
Shape CustomShape Layer front
position  8.500000 -2.500000  size  0.700000  1.500000  orientation 0.00
drill  0.000000
shape_offset  0.000000  0.000000
$EndPAD
$PAD ""
Shape Circle Layer both
position -3.810000 -2.540001  size  3.000000  3.000000  orientation 180.00
drill  3.000000
shape_offset  0.000000  0.000000
$EndPAD
$PAD ""
Shape Circle Layer both
position -5.080000  0.000000  size  1.700000  1.700000  orientation 0.00
drill  1.700000
shape_offset  0.000000  0.000000
$EndPAD
$PAD ""
Shape Circle Layer both
position  5.080000  0.000000  size  1.700000  1.700000  orientation 0.00
drill  1.700000
shape_offset  0.000000  0.000000
$EndPAD
$PAD ""
Shape Circle Layer both
position  0.000000  0.000000  size  4.000000  4.000000  orientation 90.00
drill  4.000000
shape_offset  0.000000  0.000000
$EndPAD
$PAD ""
Shape Circle Layer both
position  2.540000 -5.080000  size  3.000000  3.000000  orientation 180.00
drill  3.000000
shape_offset  0.000000  0.000000
$EndPAD
$PAD ""
Shape Circle Layer both
position -2.540000 -5.080000  size  3.000000  3.000000  orientation 180.00
drill  3.000000
shape_offset  0.000000  0.000000
$EndPAD
$PAD ""
Shape Circle Layer both
position  3.810000 -2.540000  size  3.000000  3.000000  orientation 180.00
drill  3.000000
shape_offset  0.000000  0.000000
$EndPAD
$EndMODULE  SW2

$MODULE "SW1"
reference "SW1"
value "SW_PUSH"
footprint "SofleKeyboard-footprint:CherryMX_Hotswap"
attribut none
position 120.500000 50.000000  orientation 0.00
layer front
$PAD "1"
Shape CustomShape Layer front
position -7.200000 -5.100000  size  0.700000  1.500000  orientation 0.00
drill  0.000000
shape_offset  0.000000  0.000000
$EndPAD
$PAD "2"
Shape CustomShape Layer back
position  7.200000 -5.100000  size  0.700000  1.500000  orientation 0.00
drill  0.000000
shape_offset  0.000000  0.000000
$EndPAD
$PAD "1"
Shape CustomShape Layer back
position -8.500000 -2.500000  size  0.700000  1.500000  orientation 0.00
drill  0.000000
shape_offset  0.000000  0.000000
$EndPAD
$PAD "2"
Shape CustomShape Layer front
position  8.500000 -2.500000  size  0.700000  1.500000  orientation 0.00
drill  0.000000
shape_offset  0.000000  0.000000
$EndPAD
$PAD ""
Shape Circle Layer both
position -3.810000 -2.540001  size  3.000000  3.000000  orientation 180.00
drill  3.000000
shape_offset  0.000000  0.000000
$EndPAD
$PAD ""
Shape Circle Layer both
position -5.080000  0.000000  size  1.700000  1.700000  orientation 0.00
drill  1.700000
shape_offset  0.000000  0.000000
$EndPAD
$PAD ""
Shape Circle Layer both
position  5.080000  0.000000  size  1.700000  1.700000  orientation 0.00
drill  1.700000
shape_offset  0.000000  0.000000
$EndPAD
$PAD ""
Shape Circle Layer both
position  0.000000  0.000000  size  4.000000  4.000000  orientation 90.00
drill  4.000000
shape_offset  0.000000  0.000000
$EndPAD
$PAD ""
Shape Circle Layer both
position  2.540000 -5.080000  size  3.000000  3.000000  orientation 180.00
drill  3.000000
shape_offset  0.000000  0.000000
$EndPAD
$PAD ""
Shape Circle Layer both
position -2.540000 -5.080000  size  3.000000  3.000000  orientation 180.00
drill  3.000000
shape_offset  0.000000  0.000000
$EndPAD
$PAD ""
Shape Circle Layer both
position  3.810000 -2.540000  size  3.000000  3.000000  orientation 180.00
drill  3.000000
shape_offset  0.000000  0.000000
$EndPAD
$EndMODULE  SW1

$MODULE "D29"
reference "D29"
value "D"
footprint "SofleKeyboard-footprint:Diode_SOD123"
attribut none
position 162.400000 112.810000  orientation 0.00
layer front
$PAD "2"
Shape Rect Layer both
position  1.700000  0.000000  size  1.800000  1.500000  orientation 0.00
drill  0.400000
shape_offset  0.000000  0.000000
$EndPAD
$PAD "1"
Shape Rect Layer both
position -1.700000  0.000000  size  1.800000  1.500000  orientation 0.00
drill  0.400000
shape_offset  0.000000  0.000000
$EndPAD
$EndMODULE  D29

$MODULE "D28"
reference "D28"
value "D"
footprint "SofleKeyboard-footprint:Diode_SOD123"
attribut none
position 142.900000 115.800000  orientation 0.00
layer front
$PAD "2"
Shape Rect Layer both
position  1.700000  0.000000  size  1.800000  1.500000  orientation 0.00
drill  0.400000
shape_offset  0.000000  0.000000
$EndPAD
$PAD "1"
Shape Rect Layer both
position -1.700000  0.000000  size  1.800000  1.500000  orientation 0.00
drill  0.400000
shape_offset  0.000000  0.000000
$EndPAD
$EndMODULE  D28

$MODULE "D27"
reference "D27"
value "D"
footprint "SofleKeyboard-footprint:Diode_SOD123"
attribut none
position 123.900000 118.000000  orientation 0.00
layer front
$PAD "2"
Shape Rect Layer both
position  1.700000  0.000000  size  1.800000  1.500000  orientation 0.00
drill  0.400000
shape_offset  0.000000  0.000000
$EndPAD
$PAD "1"
Shape Rect Layer both
position -1.700000  0.000000  size  1.800000  1.500000  orientation 0.00
drill  0.400000
shape_offset  0.000000  0.000000
$EndPAD
$EndMODULE  D27

$MODULE "D26"
reference "D26"
value "D"
footprint "SofleKeyboard-footprint:Diode_SOD123"
attribut none
position 109.800000 119.300000  orientation 300.00
layer front
$PAD "2"
Shape Rect Layer both
position  1.700000  0.000000  size  1.800000  1.500000  orientation 0.00
drill  0.400000
shape_offset  0.000000  0.000000
$EndPAD
$PAD "1"
Shape Rect Layer both
position -1.700000  0.000000  size  1.800000  1.500000  orientation 0.00
drill  0.400000
shape_offset  0.000000  0.000000
$EndPAD
$EndMODULE  D26

$MODULE "D25"
reference "D25"
value "D"
footprint "SofleKeyboard-footprint:Diode_SOD123"
attribut none
position 106.700000 99.010000  orientation 0.00
layer front
$PAD "2"
Shape Rect Layer both
position  1.700000  0.000000  size  1.800000  1.500000  orientation 0.00
drill  0.400000
shape_offset  0.000000  0.000000
$EndPAD
$PAD "1"
Shape Rect Layer both
position -1.700000  0.000000  size  1.800000  1.500000  orientation 0.00
drill  0.400000
shape_offset  0.000000  0.000000
$EndPAD
$EndMODULE  D25

$MODULE "D24"
reference "D24"
value "D"
footprint "SofleKeyboard-footprint:Diode_SOD123"
attribut none
position 221.700000 106.000000  orientation 0.00
layer front
$PAD "2"
Shape Rect Layer both
position  1.700000  0.000000  size  1.800000  1.500000  orientation 0.00
drill  0.400000
shape_offset  0.000000  0.000000
$EndPAD
$PAD "1"
Shape Rect Layer both
position -1.700000  0.000000  size  1.800000  1.500000  orientation 0.00
drill  0.400000
shape_offset  0.000000  0.000000
$EndPAD
$EndMODULE  D24

$MODULE "D23"
reference "D23"
value "D"
footprint "SofleKeyboard-footprint:Diode_SOD123"
attribut none
position 190.200000 106.000000  orientation 0.00
layer front
$PAD "2"
Shape Rect Layer both
position  1.700000  0.000000  size  1.800000  1.500000  orientation 0.00
drill  0.400000
shape_offset  0.000000  0.000000
$EndPAD
$PAD "1"
Shape Rect Layer both
position -1.700000  0.000000  size  1.800000  1.500000  orientation 0.00
drill  0.400000
shape_offset  0.000000  0.000000
$EndPAD
$EndMODULE  D23

$MODULE "D22"
reference "D22"
value "D"
footprint "SofleKeyboard-footprint:Diode_SOD123"
attribut none
position 171.500000 96.800000  orientation 0.00
layer front
$PAD "2"
Shape Rect Layer both
position  1.700000  0.000000  size  1.800000  1.500000  orientation 0.00
drill  0.400000
shape_offset  0.000000  0.000000
$EndPAD
$PAD "1"
Shape Rect Layer both
position -1.700000  0.000000  size  1.800000  1.500000  orientation 0.00
drill  0.400000
shape_offset  0.000000  0.000000
$EndPAD
$EndMODULE  D22

$MODULE "D21"
reference "D21"
value "D"
footprint "SofleKeyboard-footprint:Diode_SOD123"
attribut none
position 152.500000 94.500000  orientation 0.00
layer front
$PAD "2"
Shape Rect Layer both
position  1.700000  0.000000  size  1.800000  1.500000  orientation 0.00
drill  0.400000
shape_offset  0.000000  0.000000
$EndPAD
$PAD "1"
Shape Rect Layer both
position -1.700000  0.000000  size  1.800000  1.500000  orientation 0.00
drill  0.400000
shape_offset  0.000000  0.000000
$EndPAD
$EndMODULE  D21

$MODULE "D20"
reference "D20"
value "D"
footprint "SofleKeyboard-footprint:Diode_SOD123"
attribut none
position 135.300000 96.800000  orientation 0.00
layer front
$PAD "2"
Shape Rect Layer both
position  1.700000  0.000000  size  1.800000  1.500000  orientation 0.00
drill  0.400000
shape_offset  0.000000  0.000000
$EndPAD
$PAD "1"
Shape Rect Layer both
position -1.700000  0.000000  size  1.800000  1.500000  orientation 0.00
drill  0.400000
shape_offset  0.000000  0.000000
$EndPAD
$EndMODULE  D20

$MODULE "D19"
reference "D19"
value "D"
footprint "SofleKeyboard-footprint:Diode_SOD123"
attribut none
position 114.400000 99.100000  orientation 0.00
layer front
$PAD "2"
Shape Rect Layer both
position  1.700000  0.000000  size  1.800000  1.500000  orientation 0.00
drill  0.400000
shape_offset  0.000000  0.000000
$EndPAD
$PAD "1"
Shape Rect Layer both
position -1.700000  0.000000  size  1.800000  1.500000  orientation 0.00
drill  0.400000
shape_offset  0.000000  0.000000
$EndPAD
$EndMODULE  D19

$MODULE "D18"
reference "D18"
value "D"
footprint "SofleKeyboard-footprint:Diode_SOD123"
attribut none
position 221.600000 102.800000  orientation 0.00
layer front
$PAD "2"
Shape Rect Layer both
position  1.700000  0.000000  size  1.800000  1.500000  orientation 0.00
drill  0.400000
shape_offset  0.000000  0.000000
$EndPAD
$PAD "1"
Shape Rect Layer both
position -1.700000  0.000000  size  1.800000  1.500000  orientation 0.00
drill  0.400000
shape_offset  0.000000  0.000000
$EndPAD
$EndMODULE  D18

$MODULE "D17"
reference "D17"
value "D"
footprint "SofleKeyboard-footprint:Diode_SOD123"
attribut none
position 190.200000 102.800000  orientation 0.00
layer front
$PAD "2"
Shape Rect Layer both
position  1.700000  0.000000  size  1.800000  1.500000  orientation 0.00
drill  0.400000
shape_offset  0.000000  0.000000
$EndPAD
$PAD "1"
Shape Rect Layer both
position -1.700000  0.000000  size  1.800000  1.500000  orientation 0.00
drill  0.400000
shape_offset  0.000000  0.000000
$EndPAD
$EndMODULE  D17

$MODULE "D16"
reference "D16"
value "D"
footprint "SofleKeyboard-footprint:Diode_SOD123"
attribut none
position 171.500000 93.600000  orientation 0.00
layer front
$PAD "2"
Shape Rect Layer both
position  1.700000  0.000000  size  1.800000  1.500000  orientation 0.00
drill  0.400000
shape_offset  0.000000  0.000000
$EndPAD
$PAD "1"
Shape Rect Layer both
position -1.700000  0.000000  size  1.800000  1.500000  orientation 0.00
drill  0.400000
shape_offset  0.000000  0.000000
$EndPAD
$EndMODULE  D16

$MODULE "D15"
reference "D15"
value "D"
footprint "SofleKeyboard-footprint:Diode_SOD123"
attribut none
position 152.500000 91.400000  orientation 0.00
layer front
$PAD "2"
Shape Rect Layer both
position  1.700000  0.000000  size  1.800000  1.500000  orientation 0.00
drill  0.400000
shape_offset  0.000000  0.000000
$EndPAD
$PAD "1"
Shape Rect Layer both
position -1.700000  0.000000  size  1.800000  1.500000  orientation 0.00
drill  0.400000
shape_offset  0.000000  0.000000
$EndPAD
$EndMODULE  D15

$MODULE "D14"
reference "D14"
value "D"
footprint "SofleKeyboard-footprint:Diode_SOD123"
attribut none
position 134.300000 93.800000  orientation 0.00
layer front
$PAD "2"
Shape Rect Layer both
position  1.700000  0.000000  size  1.800000  1.500000  orientation 0.00
drill  0.400000
shape_offset  0.000000  0.000000
$EndPAD
$PAD "1"
Shape Rect Layer both
position -1.700000  0.000000  size  1.800000  1.500000  orientation 0.00
drill  0.400000
shape_offset  0.000000  0.000000
$EndPAD
$EndMODULE  D14

$MODULE "D13"
reference "D13"
value "D"
footprint "SofleKeyboard-footprint:Diode_SOD123"
attribut none
position 114.400000 96.000000  orientation 0.00
layer front
$PAD "2"
Shape Rect Layer both
position  1.700000  0.000000  size  1.800000  1.500000  orientation 0.00
drill  0.400000
shape_offset  0.000000  0.000000
$EndPAD
$PAD "1"
Shape Rect Layer both
position -1.700000  0.000000  size  1.800000  1.500000  orientation 0.00
drill  0.400000
shape_offset  0.000000  0.000000
$EndPAD
$EndMODULE  D13

$MODULE "D12"
reference "D12"
value "D"
footprint "SofleKeyboard-footprint:Diode_SOD123"
attribut none
position 221.900000 67.700000  orientation 0.00
layer front
$PAD "2"
Shape Rect Layer both
position  1.700000  0.000000  size  1.800000  1.500000  orientation 0.00
drill  0.400000
shape_offset  0.000000  0.000000
$EndPAD
$PAD "1"
Shape Rect Layer both
position -1.700000  0.000000  size  1.800000  1.500000  orientation 0.00
drill  0.400000
shape_offset  0.000000  0.000000
$EndPAD
$EndMODULE  D12

$MODULE "D11"
reference "D11"
value "D"
footprint "SofleKeyboard-footprint:Diode_SOD123"
attribut none
position 190.400000 67.700000  orientation 0.00
layer front
$PAD "2"
Shape Rect Layer both
position  1.700000  0.000000  size  1.800000  1.500000  orientation 0.00
drill  0.400000
shape_offset  0.000000  0.000000
$EndPAD
$PAD "1"
Shape Rect Layer both
position -1.700000  0.000000  size  1.800000  1.500000  orientation 0.00
drill  0.400000
shape_offset  0.000000  0.000000
$EndPAD
$EndMODULE  D11

$MODULE "D10"
reference "D10"
value "D"
footprint "SofleKeyboard-footprint:Diode_SOD123"
attribut none
position 171.500000 58.700000  orientation 0.00
layer front
$PAD "2"
Shape Rect Layer both
position  1.700000  0.000000  size  1.800000  1.500000  orientation 0.00
drill  0.400000
shape_offset  0.000000  0.000000
$EndPAD
$PAD "1"
Shape Rect Layer both
position -1.700000  0.000000  size  1.800000  1.500000  orientation 0.00
drill  0.400000
shape_offset  0.000000  0.000000
$EndPAD
$EndMODULE  D10

$MODULE "D9"
reference "D9"
value "D"
footprint "SofleKeyboard-footprint:Diode_SOD123"
attribut none
position 152.500000 56.500000  orientation 0.00
layer front
$PAD "2"
Shape Rect Layer both
position  1.700000  0.000000  size  1.800000  1.500000  orientation 0.00
drill  0.400000
shape_offset  0.000000  0.000000
$EndPAD
$PAD "1"
Shape Rect Layer both
position -1.700000  0.000000  size  1.800000  1.500000  orientation 0.00
drill  0.400000
shape_offset  0.000000  0.000000
$EndPAD
$EndMODULE  D9

$MODULE "D8"
reference "D8"
value "D"
footprint "SofleKeyboard-footprint:Diode_SOD123"
attribut none
position 135.300000 58.700000  orientation 0.00
layer front
$PAD "2"
Shape Rect Layer both
position  1.700000  0.000000  size  1.800000  1.500000  orientation 0.00
drill  0.400000
shape_offset  0.000000  0.000000
$EndPAD
$PAD "1"
Shape Rect Layer both
position -1.700000  0.000000  size  1.800000  1.500000  orientation 0.00
drill  0.400000
shape_offset  0.000000  0.000000
$EndPAD
$EndMODULE  D8

$MODULE "D7"
reference "D7"
value "D"
footprint "SofleKeyboard-footprint:Diode_SOD123"
attribut none
position 114.400000 61.100000  orientation 0.00
layer front
$PAD "2"
Shape Rect Layer both
position  1.700000  0.000000  size  1.800000  1.500000  orientation 0.00
drill  0.400000
shape_offset  0.000000  0.000000
$EndPAD
$PAD "1"
Shape Rect Layer both
position -1.700000  0.000000  size  1.800000  1.500000  orientation 0.00
drill  0.400000
shape_offset  0.000000  0.000000
$EndPAD
$EndMODULE  D7

$MODULE "D6"
reference "D6"
value "D"
footprint "SofleKeyboard-footprint:Diode_SOD123"
attribut none
position 221.900000 64.600000  orientation 0.00
layer front
$PAD "2"
Shape Rect Layer both
position  1.700000  0.000000  size  1.800000  1.500000  orientation 0.00
drill  0.400000
shape_offset  0.000000  0.000000
$EndPAD
$PAD "1"
Shape Rect Layer both
position -1.700000  0.000000  size  1.800000  1.500000  orientation 0.00
drill  0.400000
shape_offset  0.000000  0.000000
$EndPAD
$EndMODULE  D6

$MODULE "D5"
reference "D5"
value "D"
footprint "SofleKeyboard-footprint:Diode_SOD123"
attribut none
position 190.400000 64.800000  orientation 0.00
layer front
$PAD "2"
Shape Rect Layer both
position  1.700000  0.000000  size  1.800000  1.500000  orientation 0.00
drill  0.400000
shape_offset  0.000000  0.000000
$EndPAD
$PAD "1"
Shape Rect Layer both
position -1.700000  0.000000  size  1.800000  1.500000  orientation 0.00
drill  0.400000
shape_offset  0.000000  0.000000
$EndPAD
$EndMODULE  D5

$MODULE "D4"
reference "D4"
value "D"
footprint "SofleKeyboard-footprint:Diode_SOD123"
attribut none
position 171.500000 55.600000  orientation 0.00
layer front
$PAD "2"
Shape Rect Layer both
position  1.700000  0.000000  size  1.800000  1.500000  orientation 0.00
drill  0.400000
shape_offset  0.000000  0.000000
$EndPAD
$PAD "1"
Shape Rect Layer both
position -1.700000  0.000000  size  1.800000  1.500000  orientation 0.00
drill  0.400000
shape_offset  0.000000  0.000000
$EndPAD
$EndMODULE  D4

$MODULE "D3"
reference "D3"
value "D"
footprint "SofleKeyboard-footprint:Diode_SOD123"
attribut none
position 152.400000 53.300000  orientation 0.00
layer front
$PAD "2"
Shape Rect Layer both
position  1.700000  0.000000  size  1.800000  1.500000  orientation 0.00
drill  0.400000
shape_offset  0.000000  0.000000
$EndPAD
$PAD "1"
Shape Rect Layer both
position -1.700000  0.000000  size  1.800000  1.500000  orientation 0.00
drill  0.400000
shape_offset  0.000000  0.000000
$EndPAD
$EndMODULE  D3

$MODULE "D2"
reference "D2"
value "D"
footprint "SofleKeyboard-footprint:Diode_SOD123"
attribut none
position 134.300000 55.700000  orientation 0.00
layer front
$PAD "2"
Shape Rect Layer both
position  1.700000  0.000000  size  1.800000  1.500000  orientation 0.00
drill  0.400000
shape_offset  0.000000  0.000000
$EndPAD
$PAD "1"
Shape Rect Layer both
position -1.700000  0.000000  size  1.800000  1.500000  orientation 0.00
drill  0.400000
shape_offset  0.000000  0.000000
$EndPAD
$EndMODULE  D2

$MODULE "D1"
reference "D1"
value "D"
footprint "SofleKeyboard-footprint:Diode_SOD123"
attribut none
position 114.400000 58.000000  orientation 0.00
layer front
$PAD "2"
Shape Rect Layer both
position  1.700000  0.000000  size  1.800000  1.500000  orientation 0.00
drill  0.400000
shape_offset  0.000000  0.000000
$EndPAD
$PAD "1"
Shape Rect Layer both
position -1.700000  0.000000  size  1.800000  1.500000  orientation 0.00
drill  0.400000
shape_offset  0.000000  0.000000
$EndPAD
$EndMODULE  D1

$MODULE "D30"
reference "D30"
value "D"
footprint "SofleKeyboard-footprint:Diode_SOD123"
attribut none
position 180.600000 115.310000  orientation 0.00
layer front
$PAD "2"
Shape Rect Layer both
position  1.700000  0.000000  size  1.800000  1.500000  orientation 0.00
drill  0.400000
shape_offset  0.000000  0.000000
$EndPAD
$PAD "1"
Shape Rect Layer both
position -1.700000  0.000000  size  1.800000  1.500000  orientation 0.00
drill  0.400000
shape_offset  0.000000  0.000000
$EndPAD
$EndMODULE  D30

$MODULE "R2"
reference "R2"
value "R"
footprint "SofleKeyboard-footprint:R_1206_DoubleSided"
attribut smd
position 99.000000 52.010000  orientation 270.00
layer back
$PAD "2"
Shape Roundrect Layer both
position  1.400000  0.000000  size  1.250000  1.750000  orientation 0.00
drill  0.400000
shape_offset  0.000000  0.000000
$EndPAD
$PAD "1"
Shape Roundrect Layer front
position -1.400000  0.000000  size  1.250000  1.750000  orientation 0.00
drill  0.000000
shape_offset  0.000000  0.000000
$EndPAD
$PAD "2"
Shape Roundrect Layer front
position  1.400000  0.000000  size  1.250000  1.750000  orientation 0.00
drill  0.000000
shape_offset  0.000000  0.000000
$EndPAD
$PAD "1"
Shape Roundrect Layer both
position -1.400000  0.000000  size  1.250000  1.750000  orientation 0.00
drill  0.400000
shape_offset  0.000000  0.000000
$EndPAD
$EndMODULE  R2

$MODULE "R1"
reference "R1"
value "R"
footprint "SofleKeyboard-footprint:R_1206_DoubleSided"
attribut smd
position 102.200000 52.010000  orientation 270.00
layer back
$PAD "2"
Shape Roundrect Layer both
position  1.400000  0.000000  size  1.250000  1.750000  orientation 0.00
drill  0.400000
shape_offset  0.000000  0.000000
$EndPAD
$PAD "1"
Shape Roundrect Layer front
position -1.400000  0.000000  size  1.250000  1.750000  orientation 0.00
drill  0.000000
shape_offset  0.000000  0.000000
$EndPAD
$PAD "2"
Shape Roundrect Layer front
position  1.400000  0.000000  size  1.250000  1.750000  orientation 0.00
drill  0.000000
shape_offset  0.000000  0.000000
$EndPAD
$PAD "1"
Shape Roundrect Layer both
position -1.400000  0.000000  size  1.250000  1.750000  orientation 0.00
drill  0.400000
shape_offset  0.000000  0.000000
$EndPAD
$EndMODULE  R1

$MODULE "JP11"
reference "JP11"
value "Serial"
footprint "Jumper:SolderJumper-2_P1.3mm_Bridged2Bar_Pad1.0x1.5mm"
attribut virtual
position 99.400000 59.410000  orientation 270.00
layer back
$PAD "2"
Shape Rect Layer back
position  0.650000  0.000000  size  1.000000  1.500000  orientation 0.00
drill  0.000000
shape_offset  0.000000  0.000000
$EndPAD
$PAD "1"
Shape Rect Layer back
position -0.650000  0.000000  size  1.000000  1.500000  orientation 0.00
drill  0.000000
shape_offset  0.000000  0.000000
$EndPAD
$EndMODULE  JP11

$MODULE "JP10"
reference "JP10"
value "IC2SDA"
footprint "Jumper:SolderJumper-2_P1.3mm_Open_TrianglePad1.0x1.5mm"
attribut virtual
position 100.675000 60.110000  orientation 0.00
layer front
$PAD "1"
Shape CustomShape Layer front
position -0.725000  0.000000  size  0.300000  0.300000  orientation 0.00
drill  0.000000
shape_offset  0.000000  0.000000
$EndPAD
$PAD "2"
Shape CustomShape Layer front
position  0.725000  0.000000  size  0.300000  0.300000  orientation 0.00
drill  0.000000
shape_offset  0.000000  0.000000
$EndPAD
$EndMODULE  JP10

$MODULE "JP9"
reference "JP9"
value "I2CSCL"
footprint "Jumper:SolderJumper-2_P1.3mm_Open_TrianglePad1.0x1.5mm"
attribut virtual
position 100.700000 62.810000  orientation 180.00
layer front
$PAD "1"
Shape CustomShape Layer front
position -0.725000  0.000000  size  0.300000  0.300000  orientation 0.00
drill  0.000000
shape_offset  0.000000  0.000000
$EndPAD
$PAD "2"
Shape CustomShape Layer front
position  0.725000  0.000000  size  0.300000  0.300000  orientation 0.00
drill  0.000000
shape_offset  0.000000  0.000000
$EndPAD
$EndMODULE  JP9

$MODULE "TH2"
reference "TH2"
value "HOLE"
footprint "SofleKeyboard-footprint:M2_HOLE_PCB"
attribut none
position 105.130000 93.336000  orientation 0.00
layer front
$PAD ""
Shape Circle Layer both
position  0.000000  0.000000  size  4.000000  4.000000  orientation 0.00
drill  2.200000
shape_offset  0.000000  0.000000
$EndPAD
$EndMODULE  TH2

$MODULE "TH1"
reference "TH1"
value "HOLE"
footprint "SofleKeyboard-footprint:M2_HOLE_PCB"
attribut none
position 95.130000 93.352000  orientation 0.00
layer front
$PAD ""
Shape Circle Layer both
position  0.000000  0.000000  size  4.000000  4.000000  orientation 0.00
drill  2.200000
shape_offset  0.000000  0.000000
$EndPAD
$EndMODULE  TH1

$MODULE "J3"
reference "J3"
value "OLED"
footprint "SofleKeyboard-footprint:OLED_4Pin"
attribut none
position 96.300000 74.410000  orientation 0.00
layer front
$PAD "4"
Shape Circle Layer both
position  7.620000  0.000000  size  1.397000  1.397000  orientation 0.00
drill  0.812800
shape_offset  0.000000  0.000000
$EndPAD
$PAD "3"
Shape Circle Layer both
position  5.080000  0.000000  size  1.397000  1.397000  orientation 0.00
drill  0.812800
shape_offset  0.000000  0.000000
$EndPAD
$PAD "2"
Shape Circle Layer both
position  2.540000  0.000000  size  1.397000  1.397000  orientation 0.00
drill  0.812800
shape_offset  0.000000  0.000000
$EndPAD
$PAD "1"
Shape Circle Layer both
position  0.000000  0.000000  size  1.397000  1.397000  orientation 0.00
drill  0.812800
shape_offset  0.000000  0.000000
$EndPAD
$EndMODULE  J3

$MODULE "JP8"
reference "JP8"
value "Jumper_NO_Small"
footprint "SofleKeyboard-footprint:Jumper"
attribut smd
position 96.300000 69.700000  orientation 90.00
layer back
$PAD "2"
Shape Rect Layer back
position  0.500380  0.000000  size  0.635000  1.143000  orientation 0.00
drill  0.000000
shape_offset  0.000000  0.000000
$EndPAD
$PAD "1"
Shape Rect Layer back
position -0.500380  0.000000  size  0.635000  1.143000  orientation 0.00
drill  0.000000
shape_offset  0.000000  0.000000
$EndPAD
$EndMODULE  JP8

$MODULE "JP7"
reference "JP7"
value "Jumper_NO_Small"
footprint "SofleKeyboard-footprint:Jumper"
attribut smd
position 98.800000 69.700000  orientation 90.00
layer back
$PAD "2"
Shape Rect Layer back
position  0.500380  0.000000  size  0.635000  1.143000  orientation 0.00
drill  0.000000
shape_offset  0.000000  0.000000
$EndPAD
$PAD "1"
Shape Rect Layer back
position -0.500380  0.000000  size  0.635000  1.143000  orientation 0.00
drill  0.000000
shape_offset  0.000000  0.000000
$EndPAD
$EndMODULE  JP7

$MODULE "JP6"
reference "JP6"
value "Jumper_NO_Small"
footprint "SofleKeyboard-footprint:Jumper"
attribut smd
position 101.300000 69.700000  orientation 90.00
layer back
$PAD "2"
Shape Rect Layer back
position  0.500380  0.000000  size  0.635000  1.143000  orientation 0.00
drill  0.000000
shape_offset  0.000000  0.000000
$EndPAD
$PAD "1"
Shape Rect Layer back
position -0.500380  0.000000  size  0.635000  1.143000  orientation 0.00
drill  0.000000
shape_offset  0.000000  0.000000
$EndPAD
$EndMODULE  JP6

$MODULE "JP5"
reference "JP5"
value "Jumper_NO_Small"
footprint "SofleKeyboard-footprint:Jumper"
attribut smd
position 103.900000 69.700000  orientation 90.00
layer back
$PAD "2"
Shape Rect Layer back
position  0.500380  0.000000  size  0.635000  1.143000  orientation 0.00
drill  0.000000
shape_offset  0.000000  0.000000
$EndPAD
$PAD "1"
Shape Rect Layer back
position -0.500380  0.000000  size  0.635000  1.143000  orientation 0.00
drill  0.000000
shape_offset  0.000000  0.000000
$EndPAD
$EndMODULE  JP5

$MODULE "JP4"
reference "JP4"
value "Jumper_NO_Small"
footprint "SofleKeyboard-footprint:Jumper"
attribut smd
position 96.300000 69.700000  orientation 90.00
layer front
$PAD "2"
Shape Rect Layer front
position  0.500380  0.000000  size  0.635000  1.143000  orientation 0.00
drill  0.000000
shape_offset  0.000000  0.000000
$EndPAD
$PAD "1"
Shape Rect Layer front
position -0.500380  0.000000  size  0.635000  1.143000  orientation 0.00
drill  0.000000
shape_offset  0.000000  0.000000
$EndPAD
$EndMODULE  JP4

$MODULE "JP3"
reference "JP3"
value "Jumper_NO_Small"
footprint "SofleKeyboard-footprint:Jumper"
attribut smd
position 98.800000 69.700000  orientation 90.00
layer front
$PAD "2"
Shape Rect Layer front
position  0.500380  0.000000  size  0.635000  1.143000  orientation 0.00
drill  0.000000
shape_offset  0.000000  0.000000
$EndPAD
$PAD "1"
Shape Rect Layer front
position -0.500380  0.000000  size  0.635000  1.143000  orientation 0.00
drill  0.000000
shape_offset  0.000000  0.000000
$EndPAD
$EndMODULE  JP3

$MODULE "JP2"
reference "JP2"
value "Jumper_NO_Small"
footprint "SofleKeyboard-footprint:Jumper"
attribut smd
position 101.300000 69.700000  orientation 90.00
layer front
$PAD "2"
Shape Rect Layer front
position  0.500380  0.000000  size  0.635000  1.143000  orientation 0.00
drill  0.000000
shape_offset  0.000000  0.000000
$EndPAD
$PAD "1"
Shape Rect Layer front
position -0.500380  0.000000  size  0.635000  1.143000  orientation 0.00
drill  0.000000
shape_offset  0.000000  0.000000
$EndPAD
$EndMODULE  JP2

$MODULE "JP1"
reference "JP1"
value "Jumper_NO_Small"
footprint "SofleKeyboard-footprint:Jumper"
attribut smd
position 103.900000 69.700000  orientation 90.00
layer front
$PAD "2"
Shape Rect Layer front
position  0.500380  0.000000  size  0.635000  1.143000  orientation 0.00
drill  0.000000
shape_offset  0.000000  0.000000
$EndPAD
$PAD "1"
Shape Rect Layer front
position -0.500380  0.000000  size  0.635000  1.143000  orientation 0.00
drill  0.000000
shape_offset  0.000000  0.000000
$EndPAD
$EndMODULE  JP1

$MODULE "TH6"
reference "TH6"
value "HOLE"
footprint "SofleKeyboard-footprint:HOLE_M2_TH"
attribut none
position 205.800000 104.510000  orientation 0.00
layer front
$PAD ""
Shape Circle Layer both
position  0.000000  0.000000  size  4.700000  4.700000  orientation 90.00
drill  4.100000
shape_offset  0.000000  0.000000
$EndPAD
$EndMODULE  TH6

$MODULE "TH5"
reference "TH5"
value "HOLE"
footprint "SofleKeyboard-footprint:HOLE_M2_TH"
attribut none
position 129.300000 97.510000  orientation 0.00
layer front
$PAD ""
Shape Circle Layer both
position  0.000000  0.000000  size  4.700000  4.700000  orientation 90.00
drill  4.100000
shape_offset  0.000000  0.000000
$EndPAD
$EndMODULE  TH5

$MODULE "TH3"
reference "TH3"
value "HOLE"
footprint "SofleKeyboard-footprint:HOLE_M2_TH"
attribut none
position 129.300000 59.600000  orientation 0.00
layer front
$PAD ""
Shape Circle Layer both
position  0.000000  0.000000  size  4.700000  4.700000  orientation 90.00
drill  4.100000
shape_offset  0.000000  0.000000
$EndPAD
$EndMODULE  TH3

$MODULE "SW25"
reference "SW25"
value "Rotary_Encoder_Switch"
footprint "SofleKeyboard-footprint:RotaryEncoder_Alps_EC11E-Switch_Vertical_H20mm-keebio_modified"
attribut none
position 99.200000 106.500000  orientation 0.00
layer front
$PAD "S1"
Shape Circle Layer both
position  7.000000  2.500000  size  2.000000  2.000000  orientation 0.00
drill  1.000000
shape_offset  0.000000  0.000000
$EndPAD
$PAD "S2"
Shape Circle Layer both
position  7.000000 -2.500000  size  2.000000  2.000000  orientation 0.00
drill  1.000000
shape_offset  0.000000  0.000000
$EndPAD
$PAD "MP"
Shape Rect Layer both
position  0.000000  5.600000  size  3.200000  2.000000  orientation 0.00
drill  2.800000
shape_offset  0.000000  0.000000
$EndPAD
$PAD "MP"
Shape Rect Layer both
position  0.000000 -5.600000  size  3.200000  2.000000  orientation 0.00
drill  2.800000
shape_offset  0.000000  0.000000
$EndPAD
$PAD "B"
Shape Circle Layer both
position -7.500000  2.500000  size  2.000000  2.000000  orientation 0.00
drill  1.000000
shape_offset  0.000000  0.000000
$EndPAD
$PAD "C"
Shape Circle Layer both
position -7.500000  0.000000  size  2.000000  2.000000  orientation 0.00
drill  1.000000
shape_offset  0.000000  0.000000
$EndPAD
$PAD "A"
Shape Circle Layer both
position -7.500000 -2.500000  size  2.000000  2.000000  orientation 0.00
drill  1.000000
shape_offset  0.000000  0.000000
$EndPAD
$EndMODULE  SW25

$MODULE "TH7"
reference "TH7"
value "HOLE"
footprint "SofleKeyboard-footprint:HOLE_M2_TH"
attribut none
position 103.800000 120.810000  orientation 90.00
layer front
$PAD ""
Shape Circle Layer both
position  0.000000  0.000000  size  4.700000  4.700000  orientation 90.00
drill  4.100000
shape_offset  0.000000  0.000000
$EndPAD
$EndMODULE  TH7

$MODULE "TH4"
reference "TH4"
value "HOLE"
footprint "SofleKeyboard-footprint:HOLE_M2_TH"
attribut none
position 205.800000 66.210000  orientation 0.00
layer front
$PAD ""
Shape Circle Layer both
position  0.000000  0.000000  size  4.700000  4.700000  orientation 90.00
drill  4.100000
shape_offset  0.000000  0.000000
$EndPAD
$EndMODULE  TH4

$MODULE "J1"
reference "J1"
value "LED"
footprint "SofleKeyboard-footprint:LED"
attribut none
position 123.500000 78.710000  orientation 270.00
layer front
$PAD "1"
Shape Rect Layer both
position  0.000000  0.000000  size  1.524000  1.524000  orientation -270.00
drill  1.000000
shape_offset  0.000000  0.000000
$EndPAD
$PAD "2"
Shape Rect Layer both
position  0.000000  2.500000  size  1.524000  1.524000  orientation 0.00
drill  1.000000
shape_offset  0.000000  0.000000
$EndPAD
$PAD "3"
Shape Rect Layer both
position  0.000000  5.100000  size  1.524000  1.524000  orientation 0.00
drill  1.000000
shape_offset  0.000000  0.000000
$EndPAD
$EndMODULE  J1

$EndDESCRIPTION
